timeStamp,elapsed,label,responseCode,responseMessage,threadName,dataType,success,failureMessage,bytes,sentBytes,grpThreads,allThreads,Latency,IdleTime,Connect
1494375005853,1296,31 /wcal/index.php,200,OK,Crear actividad (Carga pesada) 1-1,text,true,,9772,0,3,3,221,0,0
1494375007155,19,38 /wcal/js_cacher.php,200,OK,Crear actividad (Carga pesada) 1-1,text,true,,4167,0,3,3,18,0,0
1494375007177,109,41 /wcal/css_cacher.php,200,OK,Crear actividad (Carga pesada) 1-1,text,true,,4338,0,3,3,109,0,0
1494375007289,74,38 /wcal/js_cacher.php,200,OK,Crear actividad (Carga pesada) 1-1,text,true,,2370,0,3,3,74,0,0
1494375006362,1735,31 /wcal/index.php,200,OK,Crear actividad (Carga pesada) 1-2,text,true,,9772,0,5,5,195,0,0
1494375008100,24,38 /wcal/js_cacher.php,200,OK,Crear actividad (Carga pesada) 1-2,text,true,,4167,0,5,5,24,0,0
1494375008127,129,41 /wcal/css_cacher.php,200,OK,Crear actividad (Carga pesada) 1-2,text,true,,4338,0,5,5,128,0,0
1494375008259,127,38 /wcal/js_cacher.php,200,OK,Crear actividad (Carga pesada) 1-2,text,true,,2370,0,5,5,127,0,0
1494375006875,2700,31 /wcal/index.php,200,OK,Crear actividad (Carga pesada) 1-3,text,true,,9772,0,8,8,181,0,0
1494375009578,23,38 /wcal/js_cacher.php,200,OK,Crear actividad (Carga pesada) 1-3,text,true,,4167,0,8,8,22,0,0
1494375009603,260,41 /wcal/css_cacher.php,200,OK,Crear actividad (Carga pesada) 1-3,text,true,,4338,0,8,8,259,0,0
1494375009866,189,38 /wcal/js_cacher.php,200,OK,Crear actividad (Carga pesada) 1-3,text,true,,2370,0,8,8,189,0,0
1494375007366,3003,56 /wcal/index.php,200,OK,Crear actividad (Carga pesada) 1-1,text,true,,9771,0,9,9,143,0,0
1494375010373,153,58 /wcal/js_cacher.php,200,OK,Crear actividad (Carga pesada) 1-1,text,true,,2370,0,9,9,153,0,0
1494375007414,4010,31 /wcal/index.php,200,OK,Crear actividad (Carga pesada) 1-4,text,true,,9772,0,11,11,180,0,0
1494375011425,21,38 /wcal/js_cacher.php,200,OK,Crear actividad (Carga pesada) 1-4,text,true,,4167,0,11,11,21,0,0
1494375011448,147,41 /wcal/css_cacher.php,200,OK,Crear actividad (Carga pesada) 1-4,text,true,,4338,0,11,11,146,0,0
1494375011597,323,38 /wcal/js_cacher.php,200,OK,Crear actividad (Carga pesada) 1-4,text,true,,2370,0,12,12,323,0,0
1494375007948,4561,31 /wcal/index.php,200,OK,Crear actividad (Carga pesada) 1-5,text,true,,9772,0,13,13,260,0,0
1494375012510,22,38 /wcal/js_cacher.php,200,OK,Crear actividad (Carga pesada) 1-5,text,true,,4167,0,13,13,22,0,0
1494375012534,411,41 /wcal/css_cacher.php,200,OK,Crear actividad (Carga pesada) 1-5,text,true,,4338,0,14,14,411,0,0
1494375012947,229,38 /wcal/js_cacher.php,200,OK,Crear actividad (Carga pesada) 1-5,text,true,,2370,0,14,14,229,0,0
1494375008389,8243,56 /wcal/index.php,200,OK,Crear actividad (Carga pesada) 1-2,text,true,,9771,0,21,21,290,0,0
1494375008480,8237,31 /wcal/index.php,200,OK,Crear actividad (Carga pesada) 1-6,text,true,,9772,0,21,21,421,0,0
1494375016718,31,38 /wcal/js_cacher.php,200,OK,Crear actividad (Carga pesada) 1-6,text,true,,4167,0,21,21,30,0,0
1494375016632,414,58 /wcal/js_cacher.php,200,OK,Crear actividad (Carga pesada) 1-2,text,true,,2370,0,22,22,414,0,0
1494375016751,422,41 /wcal/css_cacher.php,200,OK,Crear actividad (Carga pesada) 1-6,text,true,,4338,0,22,22,421,0,0
1494375017175,446,38 /wcal/js_cacher.php,200,OK,Crear actividad (Carga pesada) 1-6,text,true,,2370,0,23,23,446,0,0
1494375009021,8711,31 /wcal/index.php,200,OK,Crear actividad (Carga pesada) 1-7,text,true,,9772,0,23,23,366,0,0
1494375017733,28,38 /wcal/js_cacher.php,200,OK,Crear actividad (Carga pesada) 1-7,text,true,,4167,0,23,23,28,0,0
1494375009546,8472,31 /wcal/index.php,200,OK,Crear actividad (Carga pesada) 1-8,text,true,,9772,0,24,24,362,0,0
1494375018019,23,38 /wcal/js_cacher.php,200,OK,Crear actividad (Carga pesada) 1-8,text,true,,4167,0,24,24,22,0,0
1494375017763,531,41 /wcal/css_cacher.php,200,OK,Crear actividad (Carga pesada) 1-7,text,true,,4338,0,24,24,531,0,0
1494375018043,628,41 /wcal/css_cacher.php,200,OK,Crear actividad (Carga pesada) 1-8,text,true,,4338,0,25,25,627,0,0
1494375018296,542,38 /wcal/js_cacher.php,200,OK,Crear actividad (Carga pesada) 1-7,text,true,,2370,0,25,25,542,0,0
1494375018673,525,38 /wcal/js_cacher.php,200,OK,Crear actividad (Carga pesada) 1-8,text,true,,2370,0,26,26,525,0,0
1494375010058,9689,56 /wcal/index.php,200,OK,Crear actividad (Carga pesada) 1-3,text,true,,9771,0,27,27,273,0,0
1494375019748,451,58 /wcal/js_cacher.php,200,OK,Crear actividad (Carga pesada) 1-3,text,true,,2370,0,28,28,451,0,0
1494375010528,9792,59 /wcal/month.php,200,OK,Crear actividad (Carga pesada) 1-1,text,true,,8850,0,28,28,9791,0,0
1494375020321,577,60 /wcal/js_cacher.php,200,OK,Crear actividad (Carga pesada) 1-1,text,true,,2370,0,29,29,577,0,0
1494375010074,10928,31 /wcal/index.php,200,OK,Crear actividad (Carga pesada) 1-9,text,true,,9772,0,30,30,357,0,0
1494375021003,45,38 /wcal/js_cacher.php,200,OK,Crear actividad (Carga pesada) 1-9,text,true,,4167,0,30,30,44,0,0
1494375021050,702,41 /wcal/css_cacher.php,200,OK,Crear actividad (Carga pesada) 1-9,text,true,,4338,0,30,30,700,0,0
1494375010603,11312,31 /wcal/index.php,200,OK,Crear actividad (Carga pesada) 1-10,text,true,,9772,0,30,30,449,0,0
1494375021918,25,38 /wcal/js_cacher.php,200,OK,Crear actividad (Carga pesada) 1-10,text,true,,4167,0,30,30,25,0,0
1494375021754,645,38 /wcal/js_cacher.php,200,OK,Crear actividad (Carga pesada) 1-9,text,true,,2370,0,30,30,644,0,0
1494375021945,588,41 /wcal/css_cacher.php,200,OK,Crear actividad (Carga pesada) 1-10,text,true,,4338,0,30,30,588,0,0
1494375022535,842,38 /wcal/js_cacher.php,200,OK,Crear actividad (Carga pesada) 1-10,text,true,,2370,0,30,30,842,0,0
1494375011113,12363,31 /wcal/index.php,200,OK,Crear actividad (Carga pesada) 1-11,text,true,,9772,0,30,30,778,0,0
1494375023478,19,38 /wcal/js_cacher.php,200,OK,Crear actividad (Carga pesada) 1-11,text,true,,4167,0,30,30,19,0,0
1494375023499,719,41 /wcal/css_cacher.php,200,OK,Crear actividad (Carga pesada) 1-11,text,true,,4338,0,30,30,718,0,0
1494375024220,578,38 /wcal/js_cacher.php,200,OK,Crear actividad (Carga pesada) 1-11,text,true,,2370,0,30,30,578,0,0
1494375011634,13835,31 /wcal/index.php,200,OK,Crear actividad (Carga pesada) 1-12,text,true,,9772,0,30,30,608,0,0
1494375025471,34,38 /wcal/js_cacher.php,200,OK,Crear actividad (Carga pesada) 1-12,text,true,,4167,0,30,30,33,0,0
1494375011922,14151,56 /wcal/index.php,200,OK,Crear actividad (Carga pesada) 1-4,text,true,,9771,0,30,30,535,0,0
1494375025507,722,41 /wcal/css_cacher.php,200,OK,Crear actividad (Carga pesada) 1-12,text,true,,4338,0,30,30,721,0,0
1494375026075,608,58 /wcal/js_cacher.php,200,OK,Crear actividad (Carga pesada) 1-4,text,true,,2370,0,30,30,608,0,0
1494375012156,14661,31 /wcal/index.php,200,OK,Crear actividad (Carga pesada) 1-13,text,true,,9772,0,30,30,795,0,0
1494375026231,608,38 /wcal/js_cacher.php,200,OK,Crear actividad (Carga pesada) 1-12,text,true,,2370,0,30,30,608,0,0
1494375026819,24,38 /wcal/js_cacher.php,200,OK,Crear actividad (Carga pesada) 1-13,text,true,,4167,0,30,30,24,0,0
1494375026845,445,41 /wcal/css_cacher.php,200,OK,Crear actividad (Carga pesada) 1-13,text,true,,4338,0,30,30,444,0,0
1494375013178,14129,56 /wcal/index.php,200,OK,Crear actividad (Carga pesada) 1-5,text,true,,9771,0,30,30,762,0,0
1494375027292,699,38 /wcal/js_cacher.php,200,OK,Crear actividad (Carga pesada) 1-13,text,true,,2370,0,30,30,699,0,0
1494375027310,688,58 /wcal/js_cacher.php,200,OK,Crear actividad (Carga pesada) 1-5,text,true,,2370,0,30,30,687,0,0
1494375012676,15610,31 /wcal/index.php,200,OK,Crear actividad (Carga pesada) 1-14,text,true,,9772,0,30,30,476,0,0
1494375028288,20,38 /wcal/js_cacher.php,200,OK,Crear actividad (Carga pesada) 1-14,text,true,,4167,0,30,30,20,0,0
1494375028310,555,41 /wcal/css_cacher.php,200,OK,Crear actividad (Carga pesada) 1-14,text,true,,4338,0,30,30,554,0,0
1494375028867,567,38 /wcal/js_cacher.php,200,OK,Crear actividad (Carga pesada) 1-14,text,true,,2370,0,30,30,567,0,0
1494375013718,15746,31 /wcal/index.php,200,OK,Crear actividad (Carga pesada) 1-16,text,true,,9772,0,30,30,788,0,0
1494375029466,32,38 /wcal/js_cacher.php,200,OK,Crear actividad (Carga pesada) 1-16,text,true,,4167,0,30,30,32,0,0
1494375013198,16364,31 /wcal/index.php,200,OK,Crear actividad (Carga pesada) 1-15,text,true,,9772,0,30,30,947,0,0
1494375029564,21,38 /wcal/js_cacher.php,200,OK,Crear actividad (Carga pesada) 1-15,text,true,,4167,0,30,30,21,0,0
1494375014235,15505,31 /wcal/index.php,200,OK,Crear actividad (Carga pesada) 1-17,text,true,,9772,0,30,30,876,0,0
1494375029742,22,38 /wcal/js_cacher.php,200,OK,Crear actividad (Carga pesada) 1-17,text,true,,4167,0,30,30,21,0,0
1494375029500,524,41 /wcal/css_cacher.php,200,OK,Crear actividad (Carga pesada) 1-16,text,true,,4338,0,30,30,522,0,0
1494375029587,658,41 /wcal/css_cacher.php,200,OK,Crear actividad (Carga pesada) 1-15,text,true,,4338,0,30,30,657,0,0
1494375029766,646,41 /wcal/css_cacher.php,200,OK,Crear actividad (Carga pesada) 1-17,text,true,,4338,0,30,30,644,0,0
1494375030037,605,38 /wcal/js_cacher.php,200,OK,Crear actividad (Carga pesada) 1-16,text,true,,2370,0,30,30,605,0,0
1494375014748,15923,31 /wcal/index.php,200,OK,Crear actividad (Carga pesada) 1-18,text,true,,9772,0,30,30,863,0,0
1494375030673,36,38 /wcal/js_cacher.php,200,OK,Crear actividad (Carga pesada) 1-18,text,true,,4167,0,30,30,36,0,0
1494375030247,671,38 /wcal/js_cacher.php,200,OK,Crear actividad (Carga pesada) 1-15,text,true,,2370,0,30,30,671,0,0
1494375030413,631,38 /wcal/js_cacher.php,200,OK,Crear actividad (Carga pesada) 1-17,text,true,,2370,0,30,30,631,0,0
1494375030711,470,41 /wcal/css_cacher.php,200,OK,Crear actividad (Carga pesada) 1-18,text,true,,4338,0,30,30,470,0,0
1494375015261,16304,31 /wcal/index.php,200,OK,Crear actividad (Carga pesada) 1-19,text,true,,9772,0,30,30,1096,0,0
1494375031568,18,38 /wcal/js_cacher.php,200,OK,Crear actividad (Carga pesada) 1-19,text,true,,4167,0,30,30,18,0,0
1494375031184,419,38 /wcal/js_cacher.php,200,OK,Crear actividad (Carga pesada) 1-18,text,true,,2370,0,30,30,419,0,0
1494375031588,462,41 /wcal/css_cacher.php,200,OK,Crear actividad (Carga pesada) 1-19,text,true,,4338,0,30,30,461,0,0
1494375017047,15508,59 /wcal/month.php,200,OK,Crear actividad (Carga pesada) 1-2,text,true,,8850,0,30,30,15507,0,0
1494375032052,552,38 /wcal/js_cacher.php,200,OK,Crear actividad (Carga pesada) 1-19,text,true,,2370,0,30,30,552,0,0
1494375015778,17024,31 /wcal/index.php,200,OK,Crear actividad (Carga pesada) 1-20,text,true,,9772,0,30,30,1068,0,0
1494375032805,18,38 /wcal/js_cacher.php,200,OK,Crear actividad (Carga pesada) 1-20,text,true,,4167,0,30,30,18,0,0
1494375032558,561,60 /wcal/js_cacher.php,200,OK,Crear actividad (Carga pesada) 1-2,text,true,,2370,0,30,30,561,0,0
1494375032825,470,41 /wcal/css_cacher.php,200,OK,Crear actividad (Carga pesada) 1-20,text,true,,4338,0,30,30,470,0,0
1494375016293,17229,31 /wcal/index.php,200,OK,Crear actividad (Carga pesada) 1-21,text,true,,9772,0,30,30,908,0,0
1494375033525,63,38 /wcal/js_cacher.php,200,OK,Crear actividad (Carga pesada) 1-21,text,true,,4167,0,30,30,63,0,0
1494375033297,514,38 /wcal/js_cacher.php,200,OK,Crear actividad (Carga pesada) 1-20,text,true,,2370,0,30,30,514,0,0
1494375033590,510,41 /wcal/css_cacher.php,200,OK,Crear actividad (Carga pesada) 1-21,text,true,,4338,0,30,30,508,0,0
1494375034101,521,38 /wcal/js_cacher.php,200,OK,Crear actividad (Carga pesada) 1-21,text,true,,2370,0,30,30,521,0,0
1494375017623,17480,56 /wcal/index.php,200,OK,Crear actividad (Carga pesada) 1-6,text,true,,9771,0,30,30,1127,0,0
1494375018848,16546,31 /wcal/index.php,200,OK,Crear actividad (Carga pesada) 1-26,text,true,,9772,0,30,30,1336,0,0
1494375016808,18593,31 /wcal/index.php,200,OK,Crear actividad (Carga pesada) 1-22,text,true,,9772,0,30,30,953,0,0
1494375018335,17067,31 /wcal/index.php,200,OK,Crear actividad (Carga pesada) 1-25,text,true,,9772,0,30,30,1055,0,0
1494375035397,20,38 /wcal/js_cacher.php,200,OK,Crear actividad (Carga pesada) 1-26,text,true,,4167,0,30,30,20,0,0
1494375035403,26,38 /wcal/js_cacher.php,200,OK,Crear actividad (Carga pesada) 1-22,text,true,,4167,0,30,30,25,0,0
1494375035406,23,38 /wcal/js_cacher.php,200,OK,Crear actividad (Carga pesada) 1-25,text,true,,4167,0,30,30,22,0,0
1494375018840,16595,56 /wcal/index.php,200,OK,Crear actividad (Carga pesada) 1-7,text,true,,9771,0,30,30,943,0,0
1494375017317,18235,31 /wcal/index.php,200,OK,Crear actividad (Carga pesada) 1-23,text,true,,9772,0,30,30,1162,0,0
1494375035555,27,38 /wcal/js_cacher.php,200,OK,Crear actividad (Carga pesada) 1-23,text,true,,4167,0,30,30,26,0,0
1494375017824,17776,31 /wcal/index.php,200,OK,Crear actividad (Carga pesada) 1-24,text,true,,9772,0,30,30,1306,0,0
1494375035603,19,38 /wcal/js_cacher.php,200,OK,Crear actividad (Carga pesada) 1-24,text,true,,4167,0,30,30,19,0,0
1494375035106,615,58 /wcal/js_cacher.php,200,OK,Crear actividad (Carga pesada) 1-6,text,true,,2370,0,30,30,615,0,0
1494375035431,374,41 /wcal/css_cacher.php,200,OK,Crear actividad (Carga pesada) 1-22,text,true,,4338,0,30,30,373,0,0
1494375020201,15634,59 /wcal/month.php,200,OK,Crear actividad (Carga pesada) 1-3,text,true,,8850,0,30,30,15633,0,0
1494375035438,409,58 /wcal/js_cacher.php,200,OK,Crear actividad (Carga pesada) 1-7,text,true,,2370,0,30,30,409,0,0
1494375035584,414,41 /wcal/css_cacher.php,200,OK,Crear actividad (Carga pesada) 1-23,text,true,,4338,0,30,30,412,0,0
1494375035419,579,41 /wcal/css_cacher.php,200,OK,Crear actividad (Carga pesada) 1-26,text,true,,4338,0,30,30,578,0,0
1494375035431,589,41 /wcal/css_cacher.php,200,OK,Crear actividad (Carga pesada) 1-25,text,true,,4338,0,30,30,588,0,0
1494375035624,427,41 /wcal/css_cacher.php,200,OK,Crear actividad (Carga pesada) 1-24,text,true,,4338,0,30,30,427,0,0
1494375019200,16989,56 /wcal/index.php,200,OK,Crear actividad (Carga pesada) 1-8,text,true,,9771,0,30,30,1281,0,0
1494375035806,488,38 /wcal/js_cacher.php,200,OK,Crear actividad (Carga pesada) 1-22,text,true,,2370,0,30,30,488,0,0
1494375035838,590,60 /wcal/js_cacher.php,200,OK,Crear actividad (Carga pesada) 1-3,text,true,,2370,0,30,30,590,0,0
1494375035999,446,38 /wcal/js_cacher.php,200,OK,Crear actividad (Carga pesada) 1-23,text,true,,2370,0,30,30,446,0,0
1494375036052,466,38 /wcal/js_cacher.php,200,OK,Crear actividad (Carga pesada) 1-24,text,true,,2370,0,30,30,466,0,0
1494375035999,556,38 /wcal/js_cacher.php,200,OK,Crear actividad (Carga pesada) 1-26,text,true,,2370,0,30,30,555,0,0
1494375036021,595,38 /wcal/js_cacher.php,200,OK,Crear actividad (Carga pesada) 1-25,text,true,,2370,0,30,30,595,0,0
1494375036191,454,58 /wcal/js_cacher.php,200,OK,Crear actividad (Carga pesada) 1-8,text,true,,2370,0,30,30,454,0,0
1494375019889,17247,31 /wcal/index.php,200,OK,Crear actividad (Carga pesada) 1-28,text,true,,9772,0,30,30,1597,0,0
1494375037138,21,38 /wcal/js_cacher.php,200,OK,Crear actividad (Carga pesada) 1-28,text,true,,4167,0,30,30,21,0,0
1494375019361,18298,31 /wcal/index.php,200,OK,Crear actividad (Carga pesada) 1-27,text,true,,9772,0,30,30,1502,0,0
1494375037661,21,38 /wcal/js_cacher.php,200,OK,Crear actividad (Carga pesada) 1-27,text,true,,4167,0,30,30,21,0,0
1494375020902,16902,31 /wcal/index.php,200,OK,Crear actividad (Carga pesada) 1-30,text,true,,9771,0,30,30,1380,0,0
1494375037806,27,38 /wcal/js_cacher.php,200,OK,Crear actividad (Carga pesada) 1-30,text,true,,4167,0,30,30,27,0,0
1494375037161,729,41 /wcal/css_cacher.php,200,OK,Crear actividad (Carga pesada) 1-28,text,true,,4338,0,30,30,727,0,0
1494375020397,17666,31 /wcal/index.php,200,OK,Crear actividad (Carga pesada) 1-29,text,true,,9772,0,30,30,1307,0,0
1494375038065,21,38 /wcal/js_cacher.php,200,OK,Crear actividad (Carga pesada) 1-29,text,true,,4167,0,30,30,21,0,0
1494375037684,451,41 /wcal/css_cacher.php,200,OK,Crear actividad (Carga pesada) 1-27,text,true,,4338,0,30,30,451,0,0
1494375037835,478,41 /wcal/css_cacher.php,200,OK,Crear actividad (Carga pesada) 1-30,text,true,,4338,0,30,30,478,0,0
1494375037892,562,38 /wcal/js_cacher.php,200,OK,Crear actividad (Carga pesada) 1-28,text,true,,2370,0,30,30,562,0,0
1494375038088,497,41 /wcal/css_cacher.php,200,OK,Crear actividad (Carga pesada) 1-29,text,true,,4338,0,30,30,496,0,0
1494375038136,554,38 /wcal/js_cacher.php,200,OK,Crear actividad (Carga pesada) 1-27,text,true,,2370,0,30,30,554,0,0
1494375038315,535,38 /wcal/js_cacher.php,200,OK,Crear actividad (Carga pesada) 1-30,text,true,,2370,0,30,30,535,0,0
1494375038586,586,38 /wcal/js_cacher.php,200,OK,Crear actividad (Carga pesada) 1-29,text,true,,2370,0,30,30,586,0,0
1494375022400,16942,56 /wcal/index.php,200,OK,Crear actividad (Carga pesada) 1-9,text,true,,9771,0,30,30,1449,0,0
1494375023379,16514,56 /wcal/index.php,200,OK,Crear actividad (Carga pesada) 1-10,text,true,,9771,0,30,30,1318,0,0
1494375039343,778,58 /wcal/js_cacher.php,200,OK,Crear actividad (Carga pesada) 1-9,text,true,,2370,0,30,30,778,0,0
1494375039895,342,58 /wcal/js_cacher.php,200,OK,Crear actividad (Carga pesada) 1-10,text,true,,2370,0,30,30,342,0,0
1494375024800,16737,56 /wcal/index.php,200,OK,Crear actividad (Carga pesada) 1-11,text,true,,9771,0,30,30,1355,0,0
1494375026685,14917,59 /wcal/month.php,200,OK,Crear actividad (Carga pesada) 1-4,text,true,,8850,0,30,30,14916,0,0
1494375041604,611,60 /wcal/js_cacher.php,200,OK,Crear actividad (Carga pesada) 1-4,text,true,,2370,0,30,30,611,0,0
1494375041538,709,58 /wcal/js_cacher.php,200,OK,Crear actividad (Carga pesada) 1-11,text,true,,2370,0,30,30,709,0,0
1494375026841,16416,56 /wcal/index.php,200,OK,Crear actividad (Carga pesada) 1-12,text,true,,9771,0,30,30,1263,0,0
1494375027999,15750,59 /wcal/month.php,200,OK,Crear actividad (Carga pesada) 1-5,text,true,,8850,0,30,30,15749,0,0
1494375043259,494,58 /wcal/js_cacher.php,200,OK,Crear actividad (Carga pesada) 1-12,text,true,,2370,0,30,30,494,0,0
1494375043751,602,60 /wcal/js_cacher.php,200,OK,Crear actividad (Carga pesada) 1-5,text,true,,2370,0,30,30,602,0,0
1494375027993,17310,56 /wcal/index.php,200,OK,Crear actividad (Carga pesada) 1-13,text,true,,9771,0,30,30,1221,0,0
1494375045305,398,58 /wcal/js_cacher.php,200,OK,Crear actividad (Carga pesada) 1-13,text,true,,2370,0,30,30,398,0,0
1494375029436,16491,56 /wcal/index.php,200,OK,Crear actividad (Carga pesada) 1-14,text,true,,9771,0,30,30,1194,0,0
1494375045928,404,58 /wcal/js_cacher.php,200,OK,Crear actividad (Carga pesada) 1-14,text,true,,2370,0,30,30,404,0,0
1494375030643,15853,56 /wcal/index.php,200,OK,Crear actividad (Carga pesada) 1-16,text,true,,9771,0,30,30,943,0,0
1494375046497,436,58 /wcal/js_cacher.php,200,OK,Crear actividad (Carga pesada) 1-16,text,true,,2370,0,30,30,436,0,0
1494375031047,16035,56 /wcal/index.php,200,OK,Crear actividad (Carga pesada) 1-17,text,true,,9771,0,30,30,1173,0,0
1494375031604,15688,56 /wcal/index.php,200,OK,Crear actividad (Carga pesada) 1-18,text,true,,9771,0,30,30,1119,0,0
1494375047083,450,58 /wcal/js_cacher.php,200,OK,Crear actividad (Carga pesada) 1-17,text,true,,2370,0,30,30,450,0,0
1494375030921,16716,56 /wcal/index.php,200,OK,Crear actividad (Carga pesada) 1-15,text,true,,9771,0,30,30,1212,0,0
1494375047293,405,58 /wcal/js_cacher.php,200,OK,Crear actividad (Carga pesada) 1-18,text,true,,2370,0,30,30,405,0,0
1494375047637,461,58 /wcal/js_cacher.php,200,OK,Crear actividad (Carga pesada) 1-15,text,true,,2370,0,30,30,461,0,0
1494375032606,16497,56 /wcal/index.php,200,OK,Crear actividad (Carga pesada) 1-19,text,true,,9771,0,30,30,1080,0,0
1494375049104,603,58 /wcal/js_cacher.php,200,OK,Crear actividad (Carga pesada) 1-19,text,true,,2370,0,30,30,602,0,0
1494375034624,15307,56 /wcal/index.php,200,OK,Crear actividad (Carga pesada) 1-21,text,true,,9771,0,30,30,1144,0,0
1494375033813,16270,56 /wcal/index.php,200,OK,Crear actividad (Carga pesada) 1-20,text,true,,9771,0,30,30,1140,0,0
1494375035723,14375,59 /wcal/month.php,200,OK,Crear actividad (Carga pesada) 1-6,text,true,,8850,0,30,30,14374,0,0
1494375036646,13693,59 /wcal/month.php,200,OK,Crear actividad (Carga pesada) 1-8,text,true,,8850,0,30,30,13691,0,0
1494375049932,431,58 /wcal/js_cacher.php,200,OK,Crear actividad (Carga pesada) 1-21,text,true,,2370,0,30,30,431,0,0
1494375035849,14636,59 /wcal/month.php,200,OK,Crear actividad (Carga pesada) 1-7,text,true,,8850,0,30,30,14635,0,0
1494375050098,439,60 /wcal/js_cacher.php,200,OK,Crear actividad (Carga pesada) 1-6,text,true,,2370,0,30,30,439,0,0
1494375050084,485,58 /wcal/js_cacher.php,200,OK,Crear actividad (Carga pesada) 1-20,text,true,,2370,0,30,30,485,0,0
1494375050340,447,60 /wcal/js_cacher.php,200,OK,Crear actividad (Carga pesada) 1-8,text,true,,2370,0,30,30,447,0,0
1494375050486,400,60 /wcal/js_cacher.php,200,OK,Crear actividad (Carga pesada) 1-7,text,true,,2370,0,30,30,400,0,0
1494375036520,14779,56 /wcal/index.php,200,OK,Crear actividad (Carga pesada) 1-24,text,true,,9771,0,30,30,1221,0,0
1494375036557,15334,56 /wcal/index.php,200,OK,Crear actividad (Carga pesada) 1-26,text,true,,9771,0,30,30,1206,0,0
1494375036294,15609,56 /wcal/index.php,200,OK,Crear actividad (Carga pesada) 1-22,text,true,,9771,0,30,30,1019,0,0
1494375051301,613,58 /wcal/js_cacher.php,200,OK,Crear actividad (Carga pesada) 1-24,text,true,,2370,0,30,30,613,0,0
1494375036618,15363,56 /wcal/index.php,200,OK,Crear actividad (Carga pesada) 1-25,text,true,,9771,0,30,30,1243,0,0
1494375036446,15698,56 /wcal/index.php,200,OK,Crear actividad (Carga pesada) 1-23,text,true,,9771,0,30,30,1255,0,0
1494375051892,269,58 /wcal/js_cacher.php,200,OK,Crear actividad (Carga pesada) 1-26,text,true,,2370,0,30,30,269,0,0
1494375051904,279,58 /wcal/js_cacher.php,200,OK,Crear actividad (Carga pesada) 1-22,text,true,,2370,0,30,30,279,0,0
1494375051983,376,58 /wcal/js_cacher.php,200,OK,Crear actividad (Carga pesada) 1-25,text,true,,2370,0,30,30,376,0,0
1494375052146,370,58 /wcal/js_cacher.php,200,OK,Crear actividad (Carga pesada) 1-23,text,true,,2370,0,30,30,370,0,0
1494375038691,15021,56 /wcal/index.php,200,OK,Crear actividad (Carga pesada) 1-27,text,true,,9771,0,30,30,1299,0,0
1494375038456,15281,56 /wcal/index.php,200,OK,Crear actividad (Carga pesada) 1-28,text,true,,9771,0,30,30,1262,0,0
1494375040122,13896,59 /wcal/month.php,200,OK,Crear actividad (Carga pesada) 1-9,text,true,,8850,0,30,30,13895,0,0
1494375038851,15498,56 /wcal/index.php,200,OK,Crear actividad (Carga pesada) 1-30,text,true,,9771,0,30,30,1303,0,0
1494375053714,669,58 /wcal/js_cacher.php,200,OK,Crear actividad (Carga pesada) 1-27,text,true,,2370,0,30,30,669,0,0
1494375053739,666,58 /wcal/js_cacher.php,200,OK,Crear actividad (Carga pesada) 1-28,text,true,,2370,0,30,30,666,0,0
1494375040238,14246,59 /wcal/month.php,200,OK,Crear actividad (Carga pesada) 1-10,text,true,,8850,0,30,30,14245,0,0
1494375054020,583,60 /wcal/js_cacher.php,200,OK,Crear actividad (Carga pesada) 1-9,text,true,,2370,0,30,30,583,0,0
1494375039174,15439,56 /wcal/index.php,200,OK,Crear actividad (Carga pesada) 1-29,text,true,,9771,0,30,30,1318,0,0
1494375054351,435,58 /wcal/js_cacher.php,200,OK,Crear actividad (Carga pesada) 1-30,text,true,,2370,0,30,30,435,0,0
1494375043754,11157,59 /wcal/month.php,200,OK,Crear actividad (Carga pesada) 1-12,text,true,,8850,0,30,30,11156,0,0
1494375054485,471,60 /wcal/js_cacher.php,200,OK,Crear actividad (Carga pesada) 1-10,text,true,,2370,0,30,30,471,0,0
1494375054614,473,58 /wcal/js_cacher.php,200,OK,Crear actividad (Carga pesada) 1-29,text,true,,2370,0,30,30,473,0,0
1494375042248,12935,59 /wcal/month.php,200,OK,Crear actividad (Carga pesada) 1-11,text,true,,8850,0,30,30,12934,0,0
1494375054913,407,60 /wcal/js_cacher.php,200,OK,Crear actividad (Carga pesada) 1-12,text,true,,2370,0,30,30,407,0,0
1494375055184,415,60 /wcal/js_cacher.php,200,OK,Crear actividad (Carga pesada) 1-11,text,true,,2370,0,30,30,415,0,0
1494375045705,12054,59 /wcal/month.php,200,OK,Crear actividad (Carga pesada) 1-13,text,true,,8850,0,30,30,12053,0,0
1494375057760,297,60 /wcal/js_cacher.php,200,OK,Crear actividad (Carga pesada) 1-13,text,true,,2370,0,30,30,297,0,0
1494375047699,10547,59 /wcal/month.php,200,OK,Crear actividad (Carga pesada) 1-18,text,true,,8850,0,30,30,10546,0,0
1494375046333,12056,59 /wcal/month.php,200,OK,Crear actividad (Carga pesada) 1-14,text,true,,8850,0,30,30,12055,0,0
1494375058247,286,60 /wcal/js_cacher.php,200,OK,Crear actividad (Carga pesada) 1-18,text,true,,2370,0,30,30,286,0,0
1494375058391,282,60 /wcal/js_cacher.php,200,OK,Crear actividad (Carga pesada) 1-14,text,true,,2370,0,30,30,282,0,0
1494375046934,12232,59 /wcal/month.php,200,OK,Crear actividad (Carga pesada) 1-16,text,true,,8850,0,30,30,12230,0,0
1494375047535,11759,59 /wcal/month.php,200,OK,Crear actividad (Carga pesada) 1-17,text,true,,8850,0,30,30,11758,0,0
1494375059167,217,60 /wcal/js_cacher.php,200,OK,Crear actividad (Carga pesada) 1-16,text,true,,2370,0,30,30,216,0,0
1494375059295,252,60 /wcal/js_cacher.php,200,OK,Crear actividad (Carga pesada) 1-17,text,true,,2370,0,30,30,252,0,0
1494375048099,11457,59 /wcal/month.php,200,OK,Crear actividad (Carga pesada) 1-15,text,true,,8850,0,30,30,11456,0,0
1494375059558,174,60 /wcal/js_cacher.php,200,OK,Crear actividad (Carga pesada) 1-15,text,true,,2370,0,30,30,174,0,0
1494375049708,10169,59 /wcal/month.php,200,OK,Crear actividad (Carga pesada) 1-19,text,true,,8850,0,30,30,10168,0,0
1494375059879,211,60 /wcal/js_cacher.php,200,OK,Crear actividad (Carga pesada) 1-19,text,true,,2370,0,30,30,211,0,0
1494375050570,9750,59 /wcal/month.php,200,OK,Crear actividad (Carga pesada) 1-20,text,true,,8850,0,30,30,9749,0,0
1494375050365,10112,59 /wcal/month.php,200,OK,Crear actividad (Carga pesada) 1-21,text,true,,8850,0,30,30,10111,0,0
1494375060322,166,60 /wcal/js_cacher.php,200,OK,Crear actividad (Carga pesada) 1-20,text,true,,2370,0,30,30,166,0,0
1494375060479,171,60 /wcal/js_cacher.php,200,OK,Crear actividad (Carga pesada) 1-21,text,true,,2370,0,30,30,171,0,0
1494375052517,8239,59 /wcal/month.php,200,OK,Crear actividad (Carga pesada) 1-23,text,true,,8850,0,30,30,8237,0,0
1494375060757,136,60 /wcal/js_cacher.php,200,OK,Crear actividad (Carga pesada) 1-23,text,true,,2370,0,30,30,136,0,0
1494375052163,8806,59 /wcal/month.php,200,OK,Crear actividad (Carga pesada) 1-26,text,true,,8850,0,30,30,8805,0,0
1494375051915,9056,59 /wcal/month.php,200,OK,Crear actividad (Carga pesada) 1-24,text,true,,8850,0,30,30,9055,0,0
1494375052185,8826,59 /wcal/month.php,200,OK,Crear actividad (Carga pesada) 1-22,text,true,,8850,0,30,30,8825,0,0
1494375060973,208,60 /wcal/js_cacher.php,200,OK,Crear actividad (Carga pesada) 1-24,text,true,,2370,0,30,30,208,0,0
1494375054406,6805,59 /wcal/month.php,200,OK,Crear actividad (Carga pesada) 1-28,text,true,,8850,0,30,30,6804,0,0
1494375060971,255,60 /wcal/js_cacher.php,200,OK,Crear actividad (Carga pesada) 1-26,text,true,,2370,0,30,30,255,0,0
1494375061013,240,60 /wcal/js_cacher.php,200,OK,Crear actividad (Carga pesada) 1-22,text,true,,2370,0,30,30,240,0,0
1494375052360,8902,59 /wcal/month.php,200,OK,Crear actividad (Carga pesada) 1-25,text,true,,8850,0,30,30,8901,0,0
1494375061213,136,60 /wcal/js_cacher.php,200,OK,Crear actividad (Carga pesada) 1-28,text,true,,2370,0,30,30,135,0,0
1494375054788,6566,59 /wcal/month.php,200,OK,Crear actividad (Carga pesada) 1-30,text,true,,8850,0,30,30,6565,0,0
1494375061264,110,60 /wcal/js_cacher.php,200,OK,Crear actividad (Carga pesada) 1-25,text,true,,2370,0,30,30,110,0,0
1494375061355,81,60 /wcal/js_cacher.php,200,OK,Crear actividad (Carga pesada) 1-30,text,true,,2370,0,30,30,81,0,0
1494375055088,6372,59 /wcal/month.php,200,OK,Crear actividad (Carga pesada) 1-29,text,true,,8850,0,30,30,6370,0,0
1494375054384,7082,59 /wcal/month.php,200,OK,Crear actividad (Carga pesada) 1-27,text,true,,8850,0,30,30,7081,0,0
1494375061461,56,60 /wcal/js_cacher.php,200,OK,Crear actividad (Carga pesada) 1-29,text,true,,2370,0,30,30,56,0,0
1494375061467,54,60 /wcal/js_cacher.php,200,OK,Crear actividad (Carga pesada) 1-27,text,true,,2370,0,30,30,54,0,0
1494375020899,127328,61 /success.txt,Non HTTP response code: java.net.ConnectException,Non HTTP response message: Expiró el tiempo de conexión (Connection timed out),Crear actividad (Carga pesada) 1-1,text,false,,1818,0,30,30,0,0,0
1494375148232,1142,62 /wcal/month.php,200,OK,Crear actividad (Carga pesada) 1-1,text,true,,8612,0,30,30,1140,0,0
1494375149375,48,63 /wcal/js_cacher.php,200,OK,Crear actividad (Carga pesada) 1-1,text,true,,2370,0,30,30,48,0,0
1494375149424,689,64 /wcal/week.php,200,OK,Crear actividad (Carga pesada) 1-1,text,true,,4705,0,30,30,689,0,0
1494375033120,127266,61 /success.txt,Non HTTP response code: java.net.ConnectException,Non HTTP response message: Expiró el tiempo de conexión (Connection timed out),Crear actividad (Carga pesada) 1-2,text,false,,1818,0,30,30,0,0,0
1494375160389,1135,62 /wcal/month.php,200,OK,Crear actividad (Carga pesada) 1-2,text,true,,8612,0,30,30,1134,0,0
1494375161526,59,63 /wcal/js_cacher.php,200,OK,Crear actividad (Carga pesada) 1-2,text,true,,2370,0,30,30,59,0,0
1494375161586,670,64 /wcal/week.php,200,OK,Crear actividad (Carga pesada) 1-2,text,true,,4705,0,30,30,669,0,0
1494375036429,127284,61 /success.txt,Non HTTP response code: java.net.ConnectException,Non HTTP response message: Expiró el tiempo de conexión (Connection timed out),Crear actividad (Carga pesada) 1-3,text,false,,1818,0,30,30,0,0,0
1494375163716,1158,62 /wcal/month.php,200,OK,Crear actividad (Carga pesada) 1-3,text,true,,8611,0,30,30,1157,0,0
1494375164876,56,63 /wcal/js_cacher.php,200,OK,Crear actividad (Carga pesada) 1-3,text,true,,2370,0,30,30,56,0,0
1494375164933,712,64 /wcal/week.php,200,OK,Crear actividad (Carga pesada) 1-3,text,true,,4705,0,30,30,710,0,0
1494375042217,127256,61 /success.txt,Non HTTP response code: java.net.ConnectException,Non HTTP response message: Expiró el tiempo de conexión (Connection timed out),Crear actividad (Carga pesada) 1-4,text,false,,1818,0,30,30,0,0,0
1494375169476,1121,62 /wcal/month.php,200,OK,Crear actividad (Carga pesada) 1-4,text,true,,8611,0,30,30,1120,0,0
1494375170598,55,63 /wcal/js_cacher.php,200,OK,Crear actividad (Carga pesada) 1-4,text,true,,2370,0,30,30,54,0,0
1494375170654,686,64 /wcal/week.php,200,OK,Crear actividad (Carga pesada) 1-4,text,true,,4705,0,30,30,686,0,0
1494375044355,127166,61 /success.txt,Non HTTP response code: java.net.ConnectException,Non HTTP response message: Expiró el tiempo de conexión (Connection timed out),Crear actividad (Carga pesada) 1-5,text,false,,1818,0,30,30,0,0,0
1494375171524,1126,62 /wcal/month.php,200,OK,Crear actividad (Carga pesada) 1-5,text,true,,8611,0,30,30,1124,0,0
1494375172651,56,63 /wcal/js_cacher.php,200,OK,Crear actividad (Carga pesada) 1-5,text,true,,2370,0,30,30,56,0,0
1494375172708,740,64 /wcal/week.php,200,OK,Crear actividad (Carga pesada) 1-5,text,true,,4705,0,30,30,739,0,0
1494375050539,127254,61 /success.txt,Non HTTP response code: java.net.ConnectException,Non HTTP response message: Expiró el tiempo de conexión (Connection timed out),Crear actividad (Carga pesada) 1-6,text,false,,1818,0,30,30,0,0,0
1494375050788,127261,61 /success.txt,Non HTTP response code: java.net.ConnectException,Non HTTP response message: Expiró el tiempo de conexión (Connection timed out),Crear actividad (Carga pesada) 1-8,text,false,,1818,0,30,30,0,0,0
1494375050888,127289,61 /success.txt,Non HTTP response code: java.net.ConnectException,Non HTTP response message: Expiró el tiempo de conexión (Connection timed out),Crear actividad (Carga pesada) 1-7,text,false,,1818,0,30,30,0,0,0
1494375177798,1536,62 /wcal/month.php,200,OK,Crear actividad (Carga pesada) 1-6,text,true,,8611,0,30,30,1535,0,0
1494375179336,82,63 /wcal/js_cacher.php,200,OK,Crear actividad (Carga pesada) 1-6,text,true,,2370,0,30,30,82,0,0
1494375178053,1802,62 /wcal/month.php,200,OK,Crear actividad (Carga pesada) 1-8,text,true,,8612,0,30,30,1801,0,0
1494375179856,109,63 /wcal/js_cacher.php,200,OK,Crear actividad (Carga pesada) 1-8,text,true,,2370,0,30,30,109,0,0
1494375178181,1800,62 /wcal/month.php,200,OK,Crear actividad (Carga pesada) 1-7,text,true,,8612,0,30,30,1799,0,0
1494375179982,80,63 /wcal/js_cacher.php,200,OK,Crear actividad (Carga pesada) 1-7,text,true,,2370,0,30,30,80,0,0
1494375179419,1004,64 /wcal/week.php,200,OK,Crear actividad (Carga pesada) 1-6,text,true,,4705,0,30,30,1004,0,0
1494375179966,783,64 /wcal/week.php,200,OK,Crear actividad (Carga pesada) 1-8,text,true,,4705,0,30,30,782,0,0
1494375180066,827,64 /wcal/week.php,200,OK,Crear actividad (Carga pesada) 1-7,text,true,,4705,0,30,30,826,0,0
1494375054604,127285,61 /success.txt,Non HTTP response code: java.net.ConnectException,Non HTTP response message: Expiró el tiempo de conexión (Connection timed out),Crear actividad (Carga pesada) 1-9,text,false,,1818,0,30,30,0,0,0
1494375054957,127316,61 /success.txt,Non HTTP response code: java.net.ConnectException,Non HTTP response message: Expiró el tiempo de conexión (Connection timed out),Crear actividad (Carga pesada) 1-10,text,false,,1818,0,30,30,0,0,0
1494375055321,127208,61 /success.txt,Non HTTP response code: java.net.ConnectException,Non HTTP response message: Expiró el tiempo de conexión (Connection timed out),Crear actividad (Carga pesada) 1-12,text,false,,1818,0,30,30,0,0,0
1494375055600,127185,61 /success.txt,Non HTTP response code: java.net.ConnectException,Non HTTP response message: Expiró el tiempo de conexión (Connection timed out),Crear actividad (Carga pesada) 1-11,text,false,,1818,0,30,30,0,0,0
1494375181892,2050,62 /wcal/month.php,200,OK,Crear actividad (Carga pesada) 1-9,text,true,,8611,0,30,30,2049,0,0
1494375183944,90,63 /wcal/js_cacher.php,200,OK,Crear actividad (Carga pesada) 1-9,text,true,,2370,0,30,30,90,0,0
1494375182277,1909,62 /wcal/month.php,200,OK,Crear actividad (Carga pesada) 1-10,text,true,,8611,0,30,30,1907,0,0
1494375184187,108,63 /wcal/js_cacher.php,200,OK,Crear actividad (Carga pesada) 1-10,text,true,,2370,0,30,30,108,0,0
1494375182532,2356,62 /wcal/month.php,200,OK,Crear actividad (Carga pesada) 1-12,text,true,,8611,0,30,30,2355,0,0
1494375184889,111,63 /wcal/js_cacher.php,200,OK,Crear actividad (Carga pesada) 1-12,text,true,,2370,0,30,30,111,0,0
1494375182788,2288,62 /wcal/month.php,200,OK,Crear actividad (Carga pesada) 1-11,text,true,,8612,0,30,30,2287,0,0
1494375184035,1059,64 /wcal/week.php,200,OK,Crear actividad (Carga pesada) 1-9,text,true,,4705,0,30,30,1058,0,0
1494375185078,61,63 /wcal/js_cacher.php,200,OK,Crear actividad (Carga pesada) 1-11,text,true,,2370,0,30,30,60,0,0
1494375058058,127287,61 /success.txt,Non HTTP response code: java.net.ConnectException,Non HTTP response message: Expiró el tiempo de conexión (Connection timed out),Crear actividad (Carga pesada) 1-13,text,false,,1818,0,30,30,0,0,0
1494375184296,1087,64 /wcal/week.php,200,OK,Crear actividad (Carga pesada) 1-10,text,true,,4705,0,30,30,1087,0,0
1494375058535,127322,61 /success.txt,Non HTTP response code: java.net.ConnectException,Non HTTP response message: Expiró el tiempo de conexión (Connection timed out),Crear actividad (Carga pesada) 1-18,text,false,,1818,0,30,30,0,0,0
1494375058674,127183,61 /success.txt,Non HTTP response code: java.net.ConnectException,Non HTTP response message: Expiró el tiempo de conexión (Connection timed out),Crear actividad (Carga pesada) 1-14,text,false,,1818,0,30,30,0,0,0
1494375185001,1256,64 /wcal/week.php,200,OK,Crear actividad (Carga pesada) 1-12,text,true,,4705,0,30,30,1255,0,0
1494375185140,1276,64 /wcal/week.php,200,OK,Crear actividad (Carga pesada) 1-11,text,true,,4705,0,30,30,1276,0,0
1494375059385,127240,61 /success.txt,Non HTTP response code: java.net.ConnectException,Non HTTP response message: Expiró el tiempo de conexión (Connection timed out),Crear actividad (Carga pesada) 1-16,text,false,,1818,0,30,30,0,0,0
1494375059548,127334,61 /success.txt,Non HTTP response code: java.net.ConnectException,Non HTTP response message: Expiró el tiempo de conexión (Connection timed out),Crear actividad (Carga pesada) 1-17,text,false,,1818,0,30,30,0,0,0
1494375059733,127276,61 /success.txt,Non HTTP response code: java.net.ConnectException,Non HTTP response message: Expiró el tiempo de conexión (Connection timed out),Crear actividad (Carga pesada) 1-15,text,false,,1818,0,30,30,0,0,0
1494375060094,127299,61 /success.txt,Non HTTP response code: java.net.ConnectException,Non HTTP response message: Expiró el tiempo de conexión (Connection timed out),Crear actividad (Carga pesada) 1-19,text,false,,1818,0,30,30,0,0,0
1494375060489,127288,61 /success.txt,Non HTTP response code: java.net.ConnectException,Non HTTP response message: Expiró el tiempo de conexión (Connection timed out),Crear actividad (Carga pesada) 1-20,text,false,,1818,0,30,30,0,0,0
1494375060652,127253,61 /success.txt,Non HTTP response code: java.net.ConnectException,Non HTTP response message: Expiró el tiempo de conexión (Connection timed out),Crear actividad (Carga pesada) 1-21,text,false,,1818,0,30,30,0,0,0
1494375060895,127266,61 /success.txt,Non HTTP response code: java.net.ConnectException,Non HTTP response message: Expiró el tiempo de conexión (Connection timed out),Crear actividad (Carga pesada) 1-23,text,false,,1818,0,30,30,0,0,0
1494375185348,2925,62 /wcal/month.php,200,OK,Crear actividad (Carga pesada) 1-13,text,true,,8611,0,30,30,2924,0,0
1494375061183,127234,61 /success.txt,Non HTTP response code: java.net.ConnectException,Non HTTP response message: Expiró el tiempo de conexión (Connection timed out),Crear actividad (Carga pesada) 1-24,text,false,,1818,0,30,30,0,0,0
1494375061228,127189,61 /success.txt,Non HTTP response code: java.net.ConnectException,Non HTTP response message: Expiró el tiempo de conexión (Connection timed out),Crear actividad (Carga pesada) 1-26,text,false,,1818,0,30,30,0,0,0
1494375188274,244,63 /wcal/js_cacher.php,200,OK,Crear actividad (Carga pesada) 1-13,text,true,,2370,0,30,30,244,0,0
1494375061254,127291,61 /success.txt,Non HTTP response code: java.net.ConnectException,Non HTTP response message: Expiró el tiempo de conexión (Connection timed out),Crear actividad (Carga pesada) 1-22,text,false,,1818,0,30,30,0,0,0
1494375061350,127324,61 /success.txt,Non HTTP response code: java.net.ConnectException,Non HTTP response message: Expiró el tiempo de conexión (Connection timed out),Crear actividad (Carga pesada) 1-28,text,false,,1818,0,30,30,0,0,0
1494375061437,127237,61 /success.txt,Non HTTP response code: java.net.ConnectException,Non HTTP response message: Expiró el tiempo de conexión (Connection timed out),Crear actividad (Carga pesada) 1-30,text,false,,1818,0,30,30,0,0,0
1494375061375,127299,61 /success.txt,Non HTTP response code: java.net.ConnectException,Non HTTP response message: Expiró el tiempo de conexión (Connection timed out),Crear actividad (Carga pesada) 1-25,text,false,,1818,0,30,30,0,0,0
1494375061522,127279,61 /success.txt,Non HTTP response code: java.net.ConnectException,Non HTTP response message: Expiró el tiempo de conexión (Connection timed out),Crear actividad (Carga pesada) 1-27,text,false,,1818,0,30,30,0,0,0
1494375061519,127282,61 /success.txt,Non HTTP response code: java.net.ConnectException,Non HTTP response message: Expiró el tiempo de conexión (Connection timed out),Crear actividad (Carga pesada) 1-29,text,false,,1818,0,30,30,0,0,0
1494375185861,5589,62 /wcal/month.php,200,OK,Crear actividad (Carga pesada) 1-14,text,true,,8612,0,30,30,5587,0,0
1494375185861,5750,62 /wcal/month.php,200,OK,Crear actividad (Carga pesada) 1-18,text,true,,8611,0,30,30,5749,0,0
1494375191451,391,63 /wcal/js_cacher.php,200,OK,Crear actividad (Carga pesada) 1-14,text,true,,2370,0,30,30,391,0,0
1494375191613,435,63 /wcal/js_cacher.php,200,OK,Crear actividad (Carga pesada) 1-18,text,true,,2370,0,30,30,435,0,0
1494375188519,5282,64 /wcal/week.php,200,OK,Crear actividad (Carga pesada) 1-13,text,true,,4705,0,30,30,5281,0,0
1494375186629,7901,62 /wcal/month.php,200,OK,Crear actividad (Carga pesada) 1-16,text,true,,8611,0,30,30,7899,0,0
1494375194531,292,63 /wcal/js_cacher.php,200,OK,Crear actividad (Carga pesada) 1-16,text,true,,2370,0,30,30,292,0,0
1494375186887,8560,62 /wcal/month.php,200,OK,Crear actividad (Carga pesada) 1-17,text,true,,8611,0,30,30,8558,0,0
1494375187012,8486,62 /wcal/month.php,200,OK,Crear actividad (Carga pesada) 1-15,text,true,,8612,0,30,30,8485,0,0
1494375195448,355,63 /wcal/js_cacher.php,200,OK,Crear actividad (Carga pesada) 1-17,text,true,,2370,0,30,30,355,0,0
1494375195499,347,63 /wcal/js_cacher.php,200,OK,Crear actividad (Carga pesada) 1-15,text,true,,2370,0,30,30,347,0,0
1494375187396,8753,62 /wcal/month.php,200,OK,Crear actividad (Carga pesada) 1-19,text,true,,8612,0,30,30,8752,0,0
1494375196151,276,63 /wcal/js_cacher.php,200,OK,Crear actividad (Carga pesada) 1-19,text,true,,2370,0,30,30,276,0,0
1494375191843,4945,64 /wcal/week.php,200,OK,Crear actividad (Carga pesada) 1-14,text,true,,4705,0,30,30,4944,0,0
1494375192049,4821,64 /wcal/week.php,200,OK,Crear actividad (Carga pesada) 1-18,text,true,,4705,0,30,30,4820,0,0
1494375188421,8887,62 /wcal/month.php,200,OK,Crear actividad (Carga pesada) 1-26,text,true,,8612,0,30,30,8886,0,0
1494375188164,9218,62 /wcal/month.php,200,OK,Crear actividad (Carga pesada) 1-23,text,true,,8612,0,30,30,9216,0,0
1494375197309,242,63 /wcal/js_cacher.php,200,OK,Crear actividad (Carga pesada) 1-26,text,true,,2370,0,30,30,242,0,0
1494375197383,382,63 /wcal/js_cacher.php,200,OK,Crear actividad (Carga pesada) 1-23,text,true,,2370,0,30,30,382,0,0
1494375187782,10154,62 /wcal/month.php,200,OK,Crear actividad (Carga pesada) 1-20,text,true,,8612,0,30,30,10153,0,0
1494375188421,9595,62 /wcal/month.php,200,OK,Crear actividad (Carga pesada) 1-24,text,true,,8612,0,30,30,9594,0,0
1494375197937,272,63 /wcal/js_cacher.php,200,OK,Crear actividad (Carga pesada) 1-20,text,true,,2370,0,30,30,272,0,0
1494375198017,283,63 /wcal/js_cacher.php,200,OK,Crear actividad (Carga pesada) 1-24,text,true,,2370,0,30,30,283,0,0
1494375187908,10495,62 /wcal/month.php,200,OK,Crear actividad (Carga pesada) 1-21,text,true,,8612,0,30,30,10494,0,0
1494375198405,287,63 /wcal/js_cacher.php,200,OK,Crear actividad (Carga pesada) 1-21,text,true,,2370,0,30,30,287,0,0
1494375188805,9917,62 /wcal/month.php,200,OK,Crear actividad (Carga pesada) 1-27,text,true,,8612,0,30,30,9916,0,0
1494375188548,10390,62 /wcal/month.php,200,OK,Crear actividad (Carga pesada) 1-22,text,true,,8612,0,30,30,10389,0,0
1494375198723,275,63 /wcal/js_cacher.php,200,OK,Crear actividad (Carga pesada) 1-27,text,true,,2370,0,30,30,275,0,0
1494375194824,4278,64 /wcal/week.php,200,OK,Crear actividad (Carga pesada) 1-16,text,true,,4705,0,30,30,4277,0,0
1494375198940,270,63 /wcal/js_cacher.php,200,OK,Crear actividad (Carga pesada) 1-22,text,true,,2370,0,30,30,270,0,0
1494375195847,3726,64 /wcal/week.php,200,OK,Crear actividad (Carga pesada) 1-15,text,true,,4705,0,30,30,3726,0,0
1494375188677,11158,62 /wcal/month.php,200,OK,Crear actividad (Carga pesada) 1-28,text,true,,8612,0,30,30,11157,0,0
1494375195805,4067,64 /wcal/week.php,200,OK,Crear actividad (Carga pesada) 1-17,text,true,,4705,0,30,30,4067,0,0
1494375188677,11200,62 /wcal/month.php,200,OK,Crear actividad (Carga pesada) 1-25,text,true,,8612,0,30,30,11199,0,0
1494375188677,11234,62 /wcal/month.php,200,OK,Crear actividad (Carga pesada) 1-30,text,true,,8612,0,30,30,11233,0,0
1494375199836,320,63 /wcal/js_cacher.php,200,OK,Crear actividad (Carga pesada) 1-28,text,true,,2370,0,30,30,320,0,0
1494375196428,3757,64 /wcal/week.php,200,OK,Crear actividad (Carga pesada) 1-19,text,true,,4705,0,30,30,3756,0,0
1494375199913,357,63 /wcal/js_cacher.php,200,OK,Crear actividad (Carga pesada) 1-30,text,true,,2370,0,30,30,357,0,0
1494375199878,422,63 /wcal/js_cacher.php,200,OK,Crear actividad (Carga pesada) 1-25,text,true,,2370,0,30,30,422,0,0
1494375188805,12300,62 /wcal/month.php,200,OK,Crear actividad (Carga pesada) 1-29,text,true,,8612,0,30,30,12299,0,0
1494375197552,3625,64 /wcal/week.php,200,OK,Crear actividad (Carga pesada) 1-26,text,true,,4705,0,30,30,3624,0,0
1494375201106,243,63 /wcal/js_cacher.php,200,OK,Crear actividad (Carga pesada) 1-29,text,true,,2370,0,30,30,243,0,0
1494375197767,3797,64 /wcal/week.php,200,OK,Crear actividad (Carga pesada) 1-23,text,true,,4705,0,30,30,3796,0,0
1494375198210,3436,64 /wcal/week.php,200,OK,Crear actividad (Carga pesada) 1-20,text,true,,4705,0,30,30,3436,0,0
1494375198302,3501,64 /wcal/week.php,200,OK,Crear actividad (Carga pesada) 1-24,text,true,,4705,0,30,30,3501,0,0
1494375198999,3061,64 /wcal/week.php,200,OK,Crear actividad (Carga pesada) 1-27,text,true,,4705,0,30,30,3061,0,0
1494375199212,2933,64 /wcal/week.php,200,OK,Crear actividad (Carga pesada) 1-22,text,true,,4705,0,30,30,2932,0,0
1494375198694,3456,64 /wcal/week.php,200,OK,Crear actividad (Carga pesada) 1-21,text,true,,4705,0,30,30,3455,0,0
1494375200272,2148,64 /wcal/week.php,200,OK,Crear actividad (Carga pesada) 1-30,text,true,,4705,0,30,30,2148,0,0
1494375200301,2179,64 /wcal/week.php,200,OK,Crear actividad (Carga pesada) 1-25,text,true,,4705,0,30,30,2178,0,0
1494375200157,2370,64 /wcal/week.php,200,OK,Crear actividad (Carga pesada) 1-28,text,true,,4705,0,30,30,2369,0,0
1494375201351,1301,64 /wcal/week.php,200,OK,Crear actividad (Carga pesada) 1-29,text,true,,4705,0,30,30,1301,0,0
1494375150118,127259,68 /success.txt,Non HTTP response code: java.net.ConnectException,Non HTTP response message: Expiró el tiempo de conexión (Connection timed out),Crear actividad (Carga pesada) 1-1,text,false,,1818,0,30,30,0,0,0
1494375277380,249,69 /wcal/view_entry.php,200,OK,Crear actividad (Carga pesada) 1-1,text,true,,2714,0,30,30,248,0,0
1494375162257,127281,68 /success.txt,Non HTTP response code: java.net.ConnectException,Non HTTP response message: Expiró el tiempo de conexión (Connection timed out),Crear actividad (Carga pesada) 1-2,text,false,,1818,0,30,30,0,0,0
1494375289542,117,69 /wcal/view_entry.php,200,OK,Crear actividad (Carga pesada) 1-2,text,true,,2714,0,30,30,116,0,0
1494375165646,127219,68 /success.txt,Non HTTP response code: java.net.ConnectException,Non HTTP response message: Expiró el tiempo de conexión (Connection timed out),Crear actividad (Carga pesada) 1-3,text,false,,1818,0,30,30,0,0,0
1494375292867,99,69 /wcal/view_entry.php,200,OK,Crear actividad (Carga pesada) 1-3,text,true,,2713,0,30,30,98,0,0
1494375171341,127284,68 /success.txt,Non HTTP response code: java.net.ConnectException,Non HTTP response message: Expiró el tiempo de conexión (Connection timed out),Crear actividad (Carga pesada) 1-4,text,false,,1818,0,30,30,0,0,0
1494375298628,176,69 /wcal/view_entry.php,200,OK,Crear actividad (Carga pesada) 1-4,text,true,,2714,0,30,30,176,0,0
1494375173449,127224,68 /success.txt,Non HTTP response code: java.net.ConnectException,Non HTTP response message: Expiró el tiempo de conexión (Connection timed out),Crear actividad (Carga pesada) 1-5,text,false,,1818,0,30,30,0,0,0
1494375300679,109,69 /wcal/view_entry.php,200,OK,Crear actividad (Carga pesada) 1-5,text,true,,2713,0,30,30,109,0,0
1494375180424,127290,68 /success.txt,Non HTTP response code: java.net.ConnectException,Non HTTP response message: Expiró el tiempo de conexión (Connection timed out),Crear actividad (Carga pesada) 1-6,text,false,,1818,0,30,30,0,0,0
1494375307717,214,69 /wcal/view_entry.php,200,OK,Crear actividad (Carga pesada) 1-6,text,true,,2714,0,30,30,213,0,0
1494375180750,127220,68 /success.txt,Non HTTP response code: java.net.ConnectException,Non HTTP response message: Expiró el tiempo de conexión (Connection timed out),Crear actividad (Carga pesada) 1-8,text,false,,1818,0,30,30,0,0,0
1494375307972,100,69 /wcal/view_entry.php,200,OK,Crear actividad (Carga pesada) 1-8,text,true,,2713,0,30,30,100,0,0
1494375180894,127332,68 /success.txt,Non HTTP response code: java.net.ConnectException,Non HTTP response message: Expiró el tiempo de conexión (Connection timed out),Crear actividad (Carga pesada) 1-7,text,false,,1818,0,30,30,0,0,0
1494375308229,99,69 /wcal/view_entry.php,200,OK,Crear actividad (Carga pesada) 1-7,text,true,,2713,0,30,30,98,0,0
1494375185095,127226,68 /success.txt,Non HTTP response code: java.net.ConnectException,Non HTTP response message: Expiró el tiempo de conexión (Connection timed out),Crear actividad (Carga pesada) 1-9,text,false,,1818,0,30,30,0,0,0
1494375312324,108,69 /wcal/view_entry.php,200,OK,Crear actividad (Carga pesada) 1-9,text,true,,2713,0,30,30,107,0,0
1494375185385,127192,68 /success.txt,Non HTTP response code: java.net.ConnectException,Non HTTP response message: Expiró el tiempo de conexión (Connection timed out),Crear actividad (Carga pesada) 1-10,text,false,,1818,0,30,30,0,0,0
1494375312580,95,69 /wcal/view_entry.php,200,OK,Crear actividad (Carga pesada) 1-10,text,true,,2713,0,30,30,94,0,0
1494375186258,127215,68 /success.txt,Non HTTP response code: java.net.ConnectException,Non HTTP response message: Expiró el tiempo de conexión (Connection timed out),Crear actividad (Carga pesada) 1-12,text,false,,1818,0,30,30,0,0,0
1494375313476,95,69 /wcal/view_entry.php,200,OK,Crear actividad (Carga pesada) 1-12,text,true,,2713,0,30,30,95,0,0
1494375186418,127183,68 /success.txt,Non HTTP response code: java.net.ConnectException,Non HTTP response message: Expiró el tiempo de conexión (Connection timed out),Crear actividad (Carga pesada) 1-11,text,false,,1818,0,30,30,0,0,0
1494375313604,98,69 /wcal/view_entry.php,200,OK,Crear actividad (Carga pesada) 1-11,text,true,,2713,0,30,30,97,0,0
1494375193802,127223,68 /success.txt,Non HTTP response code: java.net.ConnectException,Non HTTP response message: Expiró el tiempo de conexión (Connection timed out),Crear actividad (Carga pesada) 1-13,text,false,,1818,0,30,30,0,0,0
1494375196871,127226,68 /success.txt,Non HTTP response code: java.net.ConnectException,Non HTTP response message: Expiró el tiempo de conexión (Connection timed out),Crear actividad (Carga pesada) 1-18,text,false,,1818,0,29,29,0,0,0
1494375196789,127308,68 /success.txt,Non HTTP response code: java.net.ConnectException,Non HTTP response message: Expiró el tiempo de conexión (Connection timed out),Crear actividad (Carga pesada) 1-14,text,false,,1818,0,29,29,0,0,0
1494375199103,127298,68 /success.txt,Non HTTP response code: java.net.ConnectException,Non HTTP response message: Expiró el tiempo de conexión (Connection timed out),Crear actividad (Carga pesada) 1-16,text,false,,1818,0,27,27,0,0,0
1494375199575,127210,68 /success.txt,Non HTTP response code: java.net.ConnectException,Non HTTP response message: Expiró el tiempo de conexión (Connection timed out),Crear actividad (Carga pesada) 1-15,text,false,,1818,0,26,26,0,0,0
1494375199873,127296,68 /success.txt,Non HTTP response code: java.net.ConnectException,Non HTTP response message: Expiró el tiempo de conexión (Connection timed out),Crear actividad (Carga pesada) 1-17,text,false,,1818,0,25,25,0,0,0
1494375200186,127239,68 /success.txt,Non HTTP response code: java.net.ConnectException,Non HTTP response message: Expiró el tiempo de conexión (Connection timed out),Crear actividad (Carga pesada) 1-19,text,false,,1818,0,24,24,0,0,0
1494375201178,127271,68 /success.txt,Non HTTP response code: java.net.ConnectException,Non HTTP response message: Expiró el tiempo de conexión (Connection timed out),Crear actividad (Carga pesada) 1-26,text,false,,1818,0,23,23,0,0,0
1494375201565,127268,68 /success.txt,Non HTTP response code: java.net.ConnectException,Non HTTP response message: Expiró el tiempo de conexión (Connection timed out),Crear actividad (Carga pesada) 1-23,text,false,,1818,0,22,22,0,0,0
1494375201647,127314,68 /success.txt,Non HTTP response code: java.net.ConnectException,Non HTTP response message: Expiró el tiempo de conexión (Connection timed out),Crear actividad (Carga pesada) 1-20,text,false,,1818,0,21,21,0,0,0
1494375201805,127284,68 /success.txt,Non HTTP response code: java.net.ConnectException,Non HTTP response message: Expiró el tiempo de conexión (Connection timed out),Crear actividad (Carga pesada) 1-24,text,false,,1818,0,20,20,0,0,0
1494375202062,127283,68 /success.txt,Non HTTP response code: java.net.ConnectException,Non HTTP response message: Expiró el tiempo de conexión (Connection timed out),Crear actividad (Carga pesada) 1-27,text,false,,1818,0,19,19,0,0,0
1494375202151,127322,68 /success.txt,Non HTTP response code: java.net.ConnectException,Non HTTP response message: Expiró el tiempo de conexión (Connection timed out),Crear actividad (Carga pesada) 1-21,text,false,,1818,0,18,18,0,0,0
1494375202146,127327,68 /success.txt,Non HTTP response code: java.net.ConnectException,Non HTTP response message: Expiró el tiempo de conexión (Connection timed out),Crear actividad (Carga pesada) 1-22,text,false,,1818,0,18,18,0,0,0
1494375202528,127201,68 /success.txt,Non HTTP response code: java.net.ConnectException,Non HTTP response message: Expiró el tiempo de conexión (Connection timed out),Crear actividad (Carga pesada) 1-28,text,false,,1818,0,16,16,0,0,0
1494375202422,127307,68 /success.txt,Non HTTP response code: java.net.ConnectException,Non HTTP response message: Expiró el tiempo de conexión (Connection timed out),Crear actividad (Carga pesada) 1-30,text,false,,1818,0,16,16,0,0,0
1494375202481,127248,68 /success.txt,Non HTTP response code: java.net.ConnectException,Non HTTP response message: Expiró el tiempo de conexión (Connection timed out),Crear actividad (Carga pesada) 1-25,text,false,,1818,0,16,16,0,0,0
1494375202654,127331,68 /success.txt,Non HTTP response code: java.net.ConnectException,Non HTTP response message: Expiró el tiempo de conexión (Connection timed out),Crear actividad (Carga pesada) 1-29,text,false,,1818,0,13,13,0,0,0
1494375277630,127235,70 /success.txt,Non HTTP response code: java.net.ConnectException,Non HTTP response message: Expiró el tiempo de conexión (Connection timed out),Crear actividad (Carga pesada) 1-1,text,false,,1818,0,12,12,0,0,0
1494375289661,127236,70 /success.txt,Non HTTP response code: java.net.ConnectException,Non HTTP response message: Expiró el tiempo de conexión (Connection timed out),Crear actividad (Carga pesada) 1-2,text,false,,1818,0,11,11,0,0,0
1494375292967,127257,70 /success.txt,Non HTTP response code: java.net.ConnectException,Non HTTP response message: Expiró el tiempo de conexión (Connection timed out),Crear actividad (Carga pesada) 1-3,text,false,,1818,0,10,10,0,0,0
1494375298805,127180,70 /success.txt,Non HTTP response code: java.net.ConnectException,Non HTTP response message: Expiró el tiempo de conexión (Connection timed out),Crear actividad (Carga pesada) 1-4,text,false,,1818,0,9,9,0,0,0
1494375300790,127243,70 /success.txt,Non HTTP response code: java.net.ConnectException,Non HTTP response message: Expiró el tiempo de conexión (Connection timed out),Crear actividad (Carga pesada) 1-5,text,false,,1818,0,8,8,0,0,0
1494375307932,127269,70 /success.txt,Non HTTP response code: java.net.ConnectException,Non HTTP response message: Expiró el tiempo de conexión (Connection timed out),Crear actividad (Carga pesada) 1-6,text,false,,1818,0,7,7,0,0,0
1494375308074,127255,70 /success.txt,Non HTTP response code: java.net.ConnectException,Non HTTP response message: Expiró el tiempo de conexión (Connection timed out),Crear actividad (Carga pesada) 1-8,text,false,,1818,0,6,6,0,0,0
1494375308329,127256,70 /success.txt,Non HTTP response code: java.net.ConnectException,Non HTTP response message: Expiró el tiempo de conexión (Connection timed out),Crear actividad (Carga pesada) 1-7,text,false,,1818,0,5,5,0,0,0
1494375312433,127248,70 /success.txt,Non HTTP response code: java.net.ConnectException,Non HTTP response message: Expiró el tiempo de conexión (Connection timed out),Crear actividad (Carga pesada) 1-9,text,false,,1818,0,4,4,0,0,0
1494375312676,127261,70 /success.txt,Non HTTP response code: java.net.ConnectException,Non HTTP response message: Expiró el tiempo de conexión (Connection timed out),Crear actividad (Carga pesada) 1-10,text,false,,1818,0,3,3,0,0,0
1494375313572,127261,70 /success.txt,Non HTTP response code: java.net.ConnectException,Non HTTP response message: Expiró el tiempo de conexión (Connection timed out),Crear actividad (Carga pesada) 1-12,text,false,,1818,0,2,2,0,0,0
1494375313703,127258,70 /success.txt,Non HTTP response code: java.net.ConnectException,Non HTTP response message: Expiró el tiempo de conexión (Connection timed out),Crear actividad (Carga pesada) 1-11,text,false,,1818,0,1,1,0,0,0
