timeStamp,elapsed,label,responseCode,responseMessage,threadName,dataType,success,failureMessage,bytes,sentBytes,grpThreads,allThreads,Latency,IdleTime,Connect
1494375566209,2036,31 /wcal/index.php,200,OK,Crear actividad (Carga pesada) 1-2,text,true,,9772,0,8,8,116,0,0
1494375568251,22,38 /wcal/js_cacher.php,200,OK,Crear actividad (Carga pesada) 1-2,text,true,,4167,0,8,8,21,0,0
1494375565909,2406,31 /wcal/index.php,200,OK,Crear actividad (Carga pesada) 1-1,text,true,,9772,0,8,8,234,0,0
1494375568318,22,38 /wcal/js_cacher.php,200,OK,Crear actividad (Carga pesada) 1-1,text,true,,4167,0,8,8,21,0,0
1494375568276,185,41 /wcal/css_cacher.php,200,OK,Crear actividad (Carga pesada) 1-2,text,true,,4338,0,8,8,184,0,0
1494375568342,186,41 /wcal/css_cacher.php,200,OK,Crear actividad (Carga pesada) 1-1,text,true,,4338,0,8,8,185,0,0
1494375568465,270,38 /wcal/js_cacher.php,200,OK,Crear actividad (Carga pesada) 1-2,text,true,,2370,0,9,9,270,0,0
1494375568531,262,38 /wcal/js_cacher.php,200,OK,Crear actividad (Carga pesada) 1-1,text,true,,2370,0,9,9,261,0,0
1494375566548,3912,31 /wcal/index.php,200,OK,Crear actividad (Carga pesada) 1-3,text,true,,9772,0,14,14,163,0,0
1494375570474,21,38 /wcal/js_cacher.php,200,OK,Crear actividad (Carga pesada) 1-3,text,true,,4167,0,15,15,21,0,0
1494375570498,479,41 /wcal/css_cacher.php,200,OK,Crear actividad (Carga pesada) 1-3,text,true,,4338,0,16,16,478,0,0
1494375570979,326,38 /wcal/js_cacher.php,200,OK,Crear actividad (Carga pesada) 1-3,text,true,,2370,0,17,17,326,0,0
1494375566881,6440,31 /wcal/index.php,200,OK,Crear actividad (Carga pesada) 1-4,text,true,,9772,0,24,24,299,0,0
1494375573323,19,38 /wcal/js_cacher.php,200,OK,Crear actividad (Carga pesada) 1-4,text,true,,4167,0,24,24,18,0,0
1494375573344,606,41 /wcal/css_cacher.php,200,OK,Crear actividad (Carga pesada) 1-4,text,true,,4338,0,26,26,605,0,0
1494375573952,551,38 /wcal/js_cacher.php,200,OK,Crear actividad (Carga pesada) 1-4,text,true,,2370,0,27,27,551,0,0
1494375567213,7778,31 /wcal/index.php,200,OK,Crear actividad (Carga pesada) 1-5,text,true,,9772,0,29,29,192,0,0
1494375574993,20,38 /wcal/js_cacher.php,200,OK,Crear actividad (Carga pesada) 1-5,text,true,,4167,0,29,29,19,0,0
1494375575015,761,41 /wcal/css_cacher.php,200,OK,Crear actividad (Carga pesada) 1-5,text,true,,4338,0,31,31,760,0,0
1494375575778,685,38 /wcal/js_cacher.php,200,OK,Crear actividad (Carga pesada) 1-5,text,true,,2370,0,34,34,685,0,0
1494375567555,9222,31 /wcal/index.php,200,OK,Crear actividad (Carga pesada) 1-6,text,true,,9772,0,35,35,310,0,0
1494375576779,44,38 /wcal/js_cacher.php,200,OK,Crear actividad (Carga pesada) 1-6,text,true,,4167,0,35,35,44,0,0
1494375576825,826,41 /wcal/css_cacher.php,200,OK,Crear actividad (Carga pesada) 1-6,text,true,,4338,0,37,37,824,0,0
1494375577654,999,38 /wcal/js_cacher.php,200,OK,Crear actividad (Carga pesada) 1-6,text,true,,2370,0,41,41,998,0,0
1494375567888,10901,31 /wcal/index.php,200,OK,Crear actividad (Carga pesada) 1-7,text,true,,9772,0,41,41,297,0,0
1494375578791,87,38 /wcal/js_cacher.php,200,OK,Crear actividad (Carga pesada) 1-7,text,true,,4167,0,41,41,87,0,0
1494375578880,892,41 /wcal/css_cacher.php,200,OK,Crear actividad (Carga pesada) 1-7,text,true,,4338,0,44,44,892,0,0
1494375579774,1125,38 /wcal/js_cacher.php,200,OK,Crear actividad (Carga pesada) 1-7,text,true,,2370,0,48,48,1125,0,0
1494375568540,15218,31 /wcal/index.php,200,OK,Crear actividad (Carga pesada) 1-9,text,true,,9772,0,50,50,260,0,0
1494375583759,24,38 /wcal/js_cacher.php,200,OK,Crear actividad (Carga pesada) 1-9,text,true,,4167,0,50,50,23,0,0
1494375583784,1192,41 /wcal/css_cacher.php,200,OK,Crear actividad (Carga pesada) 1-9,text,true,,4338,0,50,50,1191,0,0
1494375568795,16905,56 /wcal/index.php,200,OK,Crear actividad (Carga pesada) 1-1,text,true,,9771,0,50,50,418,0,0
1494375568866,16889,31 /wcal/index.php,200,OK,Crear actividad (Carga pesada) 1-10,text,true,,9772,0,50,50,397,0,0
1494375585757,42,38 /wcal/js_cacher.php,200,OK,Crear actividad (Carga pesada) 1-10,text,true,,4167,0,50,50,42,0,0
1494375584978,1260,38 /wcal/js_cacher.php,200,OK,Crear actividad (Carga pesada) 1-9,text,true,,2370,0,50,50,1260,0,0
1494375568215,18309,31 /wcal/index.php,200,OK,Crear actividad (Carga pesada) 1-8,text,true,,9772,0,50,50,493,0,0
1494375586526,53,38 /wcal/js_cacher.php,200,OK,Crear actividad (Carga pesada) 1-8,text,true,,4167,0,50,50,53,0,0
1494375585703,1010,58 /wcal/js_cacher.php,200,OK,Crear actividad (Carga pesada) 1-1,text,true,,2370,0,50,50,1010,0,0
1494375585801,1079,41 /wcal/css_cacher.php,200,OK,Crear actividad (Carga pesada) 1-10,text,true,,4338,0,50,50,1077,0,0
1494375586581,1404,41 /wcal/css_cacher.php,200,OK,Crear actividad (Carga pesada) 1-8,text,true,,4338,0,50,50,1403,0,0
1494375586882,1262,38 /wcal/js_cacher.php,200,OK,Crear actividad (Carga pesada) 1-10,text,true,,2370,0,50,50,1262,0,0
1494375568738,19495,56 /wcal/index.php,200,OK,Crear actividad (Carga pesada) 1-2,text,true,,9771,0,50,50,366,0,0
1494375587987,1166,38 /wcal/js_cacher.php,200,OK,Crear actividad (Carga pesada) 1-8,text,true,,2370,0,50,50,1166,0,0
1494375588234,1180,58 /wcal/js_cacher.php,200,OK,Crear actividad (Carga pesada) 1-2,text,true,,2370,0,50,50,1180,0,0
1494375569182,23603,31 /wcal/index.php,200,OK,Crear actividad (Carga pesada) 1-11,text,true,,9772,0,50,50,578,0,0
1494375592787,26,38 /wcal/js_cacher.php,200,OK,Crear actividad (Carga pesada) 1-11,text,true,,4167,0,50,50,26,0,0
1494375592815,890,41 /wcal/css_cacher.php,200,OK,Crear actividad (Carga pesada) 1-11,text,true,,4338,0,50,50,890,0,0
1494375571307,23113,56 /wcal/index.php,200,OK,Crear actividad (Carga pesada) 1-3,text,true,,9771,0,50,50,600,0,0
1494375569506,24922,31 /wcal/index.php,200,OK,Crear actividad (Carga pesada) 1-12,text,true,,9772,0,50,50,756,0,0
1494375594430,28,38 /wcal/js_cacher.php,200,OK,Crear actividad (Carga pesada) 1-12,text,true,,4167,0,50,50,27,0,0
1494375593707,1140,38 /wcal/js_cacher.php,200,OK,Crear actividad (Carga pesada) 1-11,text,true,,2370,0,50,50,1140,0,0
1494375569823,25160,31 /wcal/index.php,200,OK,Crear actividad (Carga pesada) 1-13,text,true,,9772,0,50,50,789,0,0
1494375594984,49,38 /wcal/js_cacher.php,200,OK,Crear actividad (Carga pesada) 1-13,text,true,,4167,0,50,50,49,0,0
1494375594459,977,41 /wcal/css_cacher.php,200,OK,Crear actividad (Carga pesada) 1-12,text,true,,4338,0,50,50,975,0,0
1494375594422,1069,58 /wcal/js_cacher.php,200,OK,Crear actividad (Carga pesada) 1-3,text,true,,2370,0,50,50,1069,0,0
1494375570153,25773,31 /wcal/index.php,200,OK,Crear actividad (Carga pesada) 1-14,text,true,,9772,0,50,50,929,0,0
1494375595928,19,38 /wcal/js_cacher.php,200,OK,Crear actividad (Carga pesada) 1-14,text,true,,4167,0,50,50,18,0,0
1494375595035,912,41 /wcal/css_cacher.php,200,OK,Crear actividad (Carga pesada) 1-13,text,true,,4338,0,50,50,912,0,0
1494375571428,24712,31 /wcal/index.php,200,OK,Crear actividad (Carga pesada) 1-18,text,true,,9772,0,50,50,1025,0,0
1494375596142,64,38 /wcal/js_cacher.php,200,OK,Crear actividad (Carga pesada) 1-18,text,true,,4167,0,50,50,63,0,0
1494375595438,900,38 /wcal/js_cacher.php,200,OK,Crear actividad (Carga pesada) 1-12,text,true,,2370,0,50,50,900,0,0
1494375571742,25035,31 /wcal/index.php,200,OK,Crear actividad (Carga pesada) 1-19,text,true,,9772,0,50,50,1143,0,0
1494375596779,42,38 /wcal/js_cacher.php,200,OK,Crear actividad (Carga pesada) 1-19,text,true,,4167,0,50,50,42,0,0
1494375570479,26427,31 /wcal/index.php,200,OK,Crear actividad (Carga pesada) 1-15,text,true,,9772,0,50,50,978,0,0
1494375596907,21,38 /wcal/js_cacher.php,200,OK,Crear actividad (Carga pesada) 1-15,text,true,,4167,0,50,50,20,0,0
1494375595949,1000,38 /wcal/js_cacher.php,200,OK,Crear actividad (Carga pesada) 1-13,text,true,,2370,0,50,50,1000,0,0
1494375595948,1071,41 /wcal/css_cacher.php,200,OK,Crear actividad (Carga pesada) 1-14,text,true,,4338,0,50,50,1071,0,0
1494375596207,940,41 /wcal/css_cacher.php,200,OK,Crear actividad (Carga pesada) 1-18,text,true,,4338,0,50,50,940,0,0
1494375572058,25102,31 /wcal/index.php,200,OK,Crear actividad (Carga pesada) 1-20,text,true,,9772,0,50,50,827,0,0
1494375597162,26,38 /wcal/js_cacher.php,200,OK,Crear actividad (Carga pesada) 1-20,text,true,,4167,0,50,50,25,0,0
1494375596823,930,41 /wcal/css_cacher.php,200,OK,Crear actividad (Carga pesada) 1-19,text,true,,4338,0,50,50,930,0,0
1494375596930,848,41 /wcal/css_cacher.php,200,OK,Crear actividad (Carga pesada) 1-15,text,true,,4338,0,50,50,847,0,0
1494375597021,767,38 /wcal/js_cacher.php,200,OK,Crear actividad (Carga pesada) 1-14,text,true,,2370,0,50,50,767,0,0
1494375597189,800,41 /wcal/css_cacher.php,200,OK,Crear actividad (Carga pesada) 1-20,text,true,,4338,0,50,50,798,0,0
1494375597149,961,38 /wcal/js_cacher.php,200,OK,Crear actividad (Carga pesada) 1-18,text,true,,2370,0,50,50,961,0,0
1494375570798,27397,31 /wcal/index.php,200,OK,Crear actividad (Carga pesada) 1-16,text,true,,9772,0,50,50,905,0,0
1494375598196,84,38 /wcal/js_cacher.php,200,OK,Crear actividad (Carga pesada) 1-16,text,true,,4167,0,50,50,84,0,0
1494375597755,861,38 /wcal/js_cacher.php,200,OK,Crear actividad (Carga pesada) 1-19,text,true,,2370,0,50,50,861,0,0
1494375571113,27529,31 /wcal/index.php,200,OK,Crear actividad (Carga pesada) 1-17,text,true,,9772,0,50,50,953,0,0
1494375597780,868,38 /wcal/js_cacher.php,200,OK,Crear actividad (Carga pesada) 1-15,text,true,,2370,0,50,50,868,0,0
1494375598643,65,38 /wcal/js_cacher.php,200,OK,Crear actividad (Carga pesada) 1-17,text,true,,4167,0,50,50,64,0,0
1494375597991,770,38 /wcal/js_cacher.php,200,OK,Crear actividad (Carga pesada) 1-20,text,true,,2370,0,50,50,770,0,0
1494375598282,967,41 /wcal/css_cacher.php,200,OK,Crear actividad (Carga pesada) 1-16,text,true,,4338,0,50,50,966,0,0
1494375598709,949,41 /wcal/css_cacher.php,200,OK,Crear actividad (Carga pesada) 1-17,text,true,,4338,0,50,50,948,0,0
1494375572373,27492,31 /wcal/index.php,200,OK,Crear actividad (Carga pesada) 1-21,text,true,,9772,0,50,50,1552,0,0
1494375599867,22,38 /wcal/js_cacher.php,200,OK,Crear actividad (Carga pesada) 1-21,text,true,,4167,0,50,50,22,0,0
1494375599250,936,38 /wcal/js_cacher.php,200,OK,Crear actividad (Carga pesada) 1-16,text,true,,2370,0,50,50,936,0,0
1494375572684,27625,31 /wcal/index.php,200,OK,Crear actividad (Carga pesada) 1-22,text,true,,9772,0,50,50,1329,0,0
1494375600311,19,38 /wcal/js_cacher.php,200,OK,Crear actividad (Carga pesada) 1-22,text,true,,4167,0,50,50,19,0,0
1494375599660,829,38 /wcal/js_cacher.php,200,OK,Crear actividad (Carga pesada) 1-17,text,true,,2370,0,50,50,829,0,0
1494375599891,768,41 /wcal/css_cacher.php,200,OK,Crear actividad (Carga pesada) 1-21,text,true,,4338,0,50,50,768,0,0
1494375600332,840,41 /wcal/css_cacher.php,200,OK,Crear actividad (Carga pesada) 1-22,text,true,,4338,0,50,50,840,0,0
1494375600661,847,38 /wcal/js_cacher.php,200,OK,Crear actividad (Carga pesada) 1-21,text,true,,2370,0,50,50,846,0,0
1494375572995,28816,31 /wcal/index.php,200,OK,Crear actividad (Carga pesada) 1-23,text,true,,9772,0,50,50,1242,0,0
1494375601812,101,38 /wcal/js_cacher.php,200,OK,Crear actividad (Carga pesada) 1-23,text,true,,4167,0,50,50,101,0,0
1494375573310,28819,31 /wcal/index.php,200,OK,Crear actividad (Carga pesada) 1-24,text,true,,9772,0,50,50,1095,0,0
1494375601174,956,38 /wcal/js_cacher.php,200,OK,Crear actividad (Carga pesada) 1-22,text,true,,2370,0,50,50,956,0,0
1494375602131,42,38 /wcal/js_cacher.php,200,OK,Crear actividad (Carga pesada) 1-24,text,true,,4167,0,50,50,42,0,0
1494375574876,27827,31 /wcal/index.php,200,OK,Crear actividad (Carga pesada) 1-29,text,true,,9772,0,50,50,1673,0,0
1494375602705,50,38 /wcal/js_cacher.php,200,OK,Crear actividad (Carga pesada) 1-29,text,true,,4167,0,50,50,49,0,0
1494375601915,993,41 /wcal/css_cacher.php,200,OK,Crear actividad (Carga pesada) 1-23,text,true,,4338,0,50,50,992,0,0
1494375602175,868,41 /wcal/css_cacher.php,200,OK,Crear actividad (Carga pesada) 1-24,text,true,,4338,0,50,50,864,0,0
1494375575187,27964,31 /wcal/index.php,200,OK,Crear actividad (Carga pesada) 1-30,text,true,,9772,0,50,50,1718,0,0
1494375603153,75,38 /wcal/js_cacher.php,200,OK,Crear actividad (Carga pesada) 1-30,text,true,,4167,0,50,50,75,0,0
1494375573936,29340,31 /wcal/index.php,200,OK,Crear actividad (Carga pesada) 1-26,text,true,,9772,0,50,50,1257,0,0
1494375603277,62,38 /wcal/js_cacher.php,200,OK,Crear actividad (Carga pesada) 1-26,text,true,,4167,0,50,50,62,0,0
1494375574505,28852,56 /wcal/index.php,200,OK,Crear actividad (Carga pesada) 1-4,text,true,,9771,0,50,50,1567,0,0
1494375602756,1067,41 /wcal/css_cacher.php,200,OK,Crear actividad (Carga pesada) 1-29,text,true,,4338,0,50,50,1067,0,0
1494375573627,30209,31 /wcal/index.php,200,OK,Crear actividad (Carga pesada) 1-25,text,true,,9772,0,50,50,1358,0,0
1494375603837,158,38 /wcal/js_cacher.php,200,OK,Crear actividad (Carga pesada) 1-25,text,true,,4167,0,50,50,158,0,0
1494375602909,1103,38 /wcal/js_cacher.php,200,OK,Crear actividad (Carga pesada) 1-23,text,true,,2370,0,50,50,1102,0,0
1494375603044,1186,38 /wcal/js_cacher.php,200,OK,Crear actividad (Carga pesada) 1-24,text,true,,2370,0,50,50,1186,0,0
1494375603230,1188,41 /wcal/css_cacher.php,200,OK,Crear actividad (Carga pesada) 1-30,text,true,,4338,0,50,50,1186,0,0
1494375603340,1164,41 /wcal/css_cacher.php,200,OK,Crear actividad (Carga pesada) 1-26,text,true,,4338,0,50,50,1163,0,0
1494375603359,1147,58 /wcal/js_cacher.php,200,OK,Crear actividad (Carga pesada) 1-4,text,true,,2370,0,50,50,1147,0,0
1494375574560,30315,31 /wcal/index.php,200,OK,Crear actividad (Carga pesada) 1-28,text,true,,9772,0,50,50,1640,0,0
1494375603825,1110,38 /wcal/js_cacher.php,200,OK,Crear actividad (Carga pesada) 1-29,text,true,,2370,0,50,50,1110,0,0
1494375604877,107,38 /wcal/js_cacher.php,200,OK,Crear actividad (Carga pesada) 1-28,text,true,,4167,0,50,50,107,0,0
1494375574247,30781,31 /wcal/index.php,200,OK,Crear actividad (Carga pesada) 1-27,text,true,,9772,0,50,50,1644,0,0
1494375605030,24,38 /wcal/js_cacher.php,200,OK,Crear actividad (Carga pesada) 1-27,text,true,,4167,0,50,50,24,0,0
1494375603997,1065,41 /wcal/css_cacher.php,200,OK,Crear actividad (Carga pesada) 1-25,text,true,,4338,0,50,50,1065,0,0
1494375604419,889,38 /wcal/js_cacher.php,200,OK,Crear actividad (Carga pesada) 1-30,text,true,,2370,0,50,50,889,0,0
1494375604506,872,38 /wcal/js_cacher.php,200,OK,Crear actividad (Carga pesada) 1-26,text,true,,2370,0,50,50,872,0,0
1494375604986,959,41 /wcal/css_cacher.php,200,OK,Crear actividad (Carga pesada) 1-28,text,true,,4338,0,50,50,958,0,0
1494375605055,992,41 /wcal/css_cacher.php,200,OK,Crear actividad (Carga pesada) 1-27,text,true,,4338,0,50,50,992,0,0
1494375605063,1007,38 /wcal/js_cacher.php,200,OK,Crear actividad (Carga pesada) 1-25,text,true,,2370,0,50,50,1007,0,0
1494375576465,29665,56 /wcal/index.php,200,OK,Crear actividad (Carga pesada) 1-5,text,true,,9771,0,50,50,1717,0,0
1494375577051,29126,31 /wcal/index.php,200,OK,Crear actividad (Carga pesada) 1-36,text,true,,9772,0,50,50,2061,0,0
1494375606179,59,38 /wcal/js_cacher.php,200,OK,Crear actividad (Carga pesada) 1-36,text,true,,4167,0,50,50,58,0,0
1494375575496,31063,31 /wcal/index.php,200,OK,Crear actividad (Carga pesada) 1-31,text,true,,9772,0,50,50,1638,0,0
1494375576432,30226,31 /wcal/index.php,200,OK,Crear actividad (Carga pesada) 1-34,text,true,,9772,0,50,50,1742,0,0
1494375606561,98,38 /wcal/js_cacher.php,200,OK,Crear actividad (Carga pesada) 1-31,text,true,,4167,0,50,50,98,0,0
1494375606659,27,38 /wcal/js_cacher.php,200,OK,Crear actividad (Carga pesada) 1-34,text,true,,4167,0,50,50,26,0,0
1494375575811,31060,31 /wcal/index.php,200,OK,Crear actividad (Carga pesada) 1-32,text,true,,9772,0,50,50,1536,0,0
1494375606873,73,38 /wcal/js_cacher.php,200,OK,Crear actividad (Carga pesada) 1-32,text,true,,4167,0,50,50,72,0,0
1494375606131,920,58 /wcal/js_cacher.php,200,OK,Crear actividad (Carga pesada) 1-5,text,true,,2370,0,50,50,920,0,0
1494375605946,1194,38 /wcal/js_cacher.php,200,OK,Crear actividad (Carga pesada) 1-28,text,true,,2370,0,50,50,1194,0,0
1494375576121,31046,31 /wcal/index.php,200,OK,Crear actividad (Carga pesada) 1-33,text,true,,9772,0,50,50,1554,0,0
1494375607168,20,38 /wcal/js_cacher.php,200,OK,Crear actividad (Carga pesada) 1-33,text,true,,4167,0,50,50,19,0,0
1494375606049,1193,38 /wcal/js_cacher.php,200,OK,Crear actividad (Carga pesada) 1-27,text,true,,2370,0,50,50,1193,0,0
1494375606239,1064,41 /wcal/css_cacher.php,200,OK,Crear actividad (Carga pesada) 1-36,text,true,,4338,0,50,50,1063,0,0
1494375606661,924,41 /wcal/css_cacher.php,200,OK,Crear actividad (Carga pesada) 1-31,text,true,,4338,0,50,50,923,0,0
1494375606687,987,41 /wcal/css_cacher.php,200,OK,Crear actividad (Carga pesada) 1-34,text,true,,4338,0,50,50,985,0,0
1494375577682,30135,31 /wcal/index.php,200,OK,Crear actividad (Carga pesada) 1-38,text,true,,9772,0,50,50,1619,0,0
1494375577993,29918,31 /wcal/index.php,200,OK,Crear actividad (Carga pesada) 1-39,text,true,,9772,0,50,50,1807,0,0
1494375607819,97,38 /wcal/js_cacher.php,200,OK,Crear actividad (Carga pesada) 1-38,text,true,,4167,0,50,50,96,0,0
1494375607913,45,38 /wcal/js_cacher.php,200,OK,Crear actividad (Carga pesada) 1-39,text,true,,4167,0,50,50,44,0,0
1494375606947,1013,41 /wcal/css_cacher.php,200,OK,Crear actividad (Carga pesada) 1-32,text,true,,4338,0,50,50,1010,0,0
1494375607189,908,41 /wcal/css_cacher.php,200,OK,Crear actividad (Carga pesada) 1-33,text,true,,4338,0,50,50,907,0,0
1494375576741,31475,31 /wcal/index.php,200,OK,Crear actividad (Carga pesada) 1-35,text,true,,9772,0,50,50,1974,0,0
1494375607310,930,38 /wcal/js_cacher.php,200,OK,Crear actividad (Carga pesada) 1-36,text,true,,2370,0,50,50,930,0,0
1494375608218,25,38 /wcal/js_cacher.php,200,OK,Crear actividad (Carga pesada) 1-35,text,true,,4167,0,50,50,25,0,0
1494375607586,1001,38 /wcal/js_cacher.php,200,OK,Crear actividad (Carga pesada) 1-31,text,true,,2370,0,50,50,1001,0,0
1494375607675,979,38 /wcal/js_cacher.php,200,OK,Crear actividad (Carga pesada) 1-34,text,true,,2370,0,50,50,979,0,0
1494375607960,949,41 /wcal/css_cacher.php,200,OK,Crear actividad (Carga pesada) 1-39,text,true,,4338,0,50,50,948,0,0
1494375579549,29380,31 /wcal/index.php,200,OK,Crear actividad (Carga pesada) 1-44,text,true,,9772,0,50,50,2706,0,0
1494375608931,19,38 /wcal/js_cacher.php,200,OK,Crear actividad (Carga pesada) 1-44,text,true,,4167,0,50,50,19,0,0
1494375607917,1090,41 /wcal/css_cacher.php,200,OK,Crear actividad (Carga pesada) 1-38,text,true,,4338,0,50,50,1089,0,0
1494375607969,1121,38 /wcal/js_cacher.php,200,OK,Crear actividad (Carga pesada) 1-32,text,true,,2370,0,50,50,1121,0,0
1494375608098,1230,38 /wcal/js_cacher.php,200,OK,Crear actividad (Carga pesada) 1-33,text,true,,2370,0,50,50,1230,0,0
1494375608244,1104,41 /wcal/css_cacher.php,200,OK,Crear actividad (Carga pesada) 1-35,text,true,,4338,0,50,50,1103,0,0
1494375580900,28714,56 /wcal/index.php,200,OK,Crear actividad (Carga pesada) 1-7,text,true,,9771,0,50,50,2277,0,0
1494375577367,32325,31 /wcal/index.php,200,OK,Crear actividad (Carga pesada) 1-37,text,true,,9772,0,50,50,1858,0,0
1494375609693,43,38 /wcal/js_cacher.php,200,OK,Crear actividad (Carga pesada) 1-37,text,true,,4167,0,50,50,42,0,0
1494375608910,911,38 /wcal/js_cacher.php,200,OK,Crear actividad (Carga pesada) 1-39,text,true,,2370,0,50,50,911,0,0
1494375608952,871,41 /wcal/css_cacher.php,200,OK,Crear actividad (Carga pesada) 1-44,text,true,,4338,0,50,50,870,0,0
1494375609011,950,38 /wcal/js_cacher.php,200,OK,Crear actividad (Carga pesada) 1-38,text,true,,2370,0,50,50,950,0,0
1494375578654,31354,56 /wcal/index.php,200,OK,Crear actividad (Carga pesada) 1-6,text,true,,9771,0,50,50,2037,0,0
1494375578302,32002,31 /wcal/index.php,200,OK,Crear actividad (Carga pesada) 1-40,text,true,,9772,0,50,50,2079,0,0
1494375609349,961,38 /wcal/js_cacher.php,200,OK,Crear actividad (Carga pesada) 1-35,text,true,,2370,0,50,50,961,0,0
1494375610306,19,38 /wcal/js_cacher.php,200,OK,Crear actividad (Carga pesada) 1-40,text,true,,4167,0,50,50,18,0,0
1494375609616,942,58 /wcal/js_cacher.php,200,OK,Crear actividad (Carga pesada) 1-7,text,true,,2370,0,50,50,941,0,0
1494375578930,31701,31 /wcal/index.php,200,OK,Crear actividad (Carga pesada) 1-42,text,true,,9772,0,50,50,2334,0,0
1494375610632,38,38 /wcal/js_cacher.php,200,OK,Crear actividad (Carga pesada) 1-42,text,true,,4167,0,50,50,38,0,0
1494375609829,924,38 /wcal/js_cacher.php,200,OK,Crear actividad (Carga pesada) 1-44,text,true,,2370,0,50,50,924,0,0
1494375609737,1099,41 /wcal/css_cacher.php,200,OK,Crear actividad (Carga pesada) 1-37,text,true,,4338,0,50,50,1099,0,0
1494375579854,31043,31 /wcal/index.php,200,OK,Crear actividad (Carga pesada) 1-45,text,true,,9772,0,50,50,2739,0,0
1494375578626,32435,31 /wcal/index.php,200,OK,Crear actividad (Carga pesada) 1-41,text,true,,9772,0,50,50,2292,0,0
1494375611064,19,38 /wcal/js_cacher.php,200,OK,Crear actividad (Carga pesada) 1-41,text,true,,4167,0,50,50,18,0,0
1494375610898,204,38 /wcal/js_cacher.php,200,OK,Crear actividad (Carga pesada) 1-45,text,true,,4167,0,50,50,203,0,0
1494375581410,29693,31 /wcal/index.php,200,OK,Crear actividad (Carga pesada) 1-50,text,true,,9772,0,50,50,2427,0,0
1494375610010,1102,58 /wcal/js_cacher.php,200,OK,Crear actividad (Carga pesada) 1-6,text,true,,2370,0,50,50,1102,0,0
1494375611105,58,38 /wcal/js_cacher.php,200,OK,Crear actividad (Carga pesada) 1-50,text,true,,4167,0,50,50,57,0,0
1494375579237,32049,31 /wcal/index.php,200,OK,Crear actividad (Carga pesada) 1-43,text,true,,9772,0,50,50,2481,0,0
1494375610326,1007,41 /wcal/css_cacher.php,200,OK,Crear actividad (Carga pesada) 1-40,text,true,,4338,0,50,50,1006,0,0
1494375580485,30882,31 /wcal/index.php,200,OK,Crear actividad (Carga pesada) 1-47,text,true,,9772,0,50,50,2540,0,0
1494375611289,101,38 /wcal/js_cacher.php,200,OK,Crear actividad (Carga pesada) 1-43,text,true,,4167,0,50,50,100,0,0
1494375611369,55,38 /wcal/js_cacher.php,200,OK,Crear actividad (Carga pesada) 1-47,text,true,,4167,0,50,50,55,0,0
1494375580162,31546,31 /wcal/index.php,200,OK,Crear actividad (Carga pesada) 1-46,text,true,,9772,0,50,50,2347,0,0
1494375611710,82,38 /wcal/js_cacher.php,200,OK,Crear actividad (Carga pesada) 1-46,text,true,,4167,0,50,50,82,0,0
1494375610672,1199,41 /wcal/css_cacher.php,200,OK,Crear actividad (Carga pesada) 1-42,text,true,,4338,0,50,50,1199,0,0
1494375610838,1080,38 /wcal/js_cacher.php,200,OK,Crear actividad (Carga pesada) 1-37,text,true,,2370,0,50,50,1080,0,0
1494375611164,768,41 /wcal/css_cacher.php,200,OK,Crear actividad (Carga pesada) 1-50,text,true,,4338,0,50,50,768,0,0
1494375611104,959,41 /wcal/css_cacher.php,200,OK,Crear actividad (Carga pesada) 1-45,text,true,,4338,0,50,50,959,0,0
1494375611084,1064,41 /wcal/css_cacher.php,200,OK,Crear actividad (Carga pesada) 1-41,text,true,,4338,0,50,50,1063,0,0
1494375611336,1045,38 /wcal/js_cacher.php,200,OK,Crear actividad (Carga pesada) 1-40,text,true,,2370,0,50,50,1045,0,0
1494375611425,1094,41 /wcal/css_cacher.php,200,OK,Crear actividad (Carga pesada) 1-47,text,true,,4338,0,50,50,1094,0,0
1494375611391,1143,41 /wcal/css_cacher.php,200,OK,Crear actividad (Carga pesada) 1-43,text,true,,4338,0,50,50,1143,0,0
1494375611794,924,41 /wcal/css_cacher.php,200,OK,Crear actividad (Carga pesada) 1-46,text,true,,4338,0,50,50,918,0,0
1494375611873,912,38 /wcal/js_cacher.php,200,OK,Crear actividad (Carga pesada) 1-42,text,true,,2370,0,50,50,912,0,0
1494375581106,31775,31 /wcal/index.php,200,OK,Crear actividad (Carga pesada) 1-49,text,true,,9772,0,50,50,2453,0,0
1494375612883,74,38 /wcal/js_cacher.php,200,OK,Crear actividad (Carga pesada) 1-49,text,true,,4167,0,50,50,73,0,0
1494375612065,984,38 /wcal/js_cacher.php,200,OK,Crear actividad (Carga pesada) 1-45,text,true,,2370,0,50,50,984,0,0
1494375611934,1209,38 /wcal/js_cacher.php,200,OK,Crear actividad (Carga pesada) 1-50,text,true,,2370,0,50,50,1209,0,0
1494375612149,1145,38 /wcal/js_cacher.php,200,OK,Crear actividad (Carga pesada) 1-41,text,true,,2370,0,50,50,1145,0,0
1494375612535,1127,38 /wcal/js_cacher.php,200,OK,Crear actividad (Carga pesada) 1-43,text,true,,2370,0,50,50,1127,0,0
1494375612526,1215,38 /wcal/js_cacher.php,200,OK,Crear actividad (Carga pesada) 1-47,text,true,,2370,0,50,50,1215,0,0
1494375580796,32973,31 /wcal/index.php,200,OK,Crear actividad (Carga pesada) 1-48,text,true,,9772,0,50,50,2808,0,0
1494375613772,77,38 /wcal/js_cacher.php,200,OK,Crear actividad (Carga pesada) 1-48,text,true,,4167,0,50,50,76,0,0
1494375612719,1141,38 /wcal/js_cacher.php,200,OK,Crear actividad (Carga pesada) 1-46,text,true,,2370,0,50,50,1141,0,0
1494375612958,1187,41 /wcal/css_cacher.php,200,OK,Crear actividad (Carga pesada) 1-49,text,true,,4338,0,50,50,1187,0,0
1494375586715,27475,59 /wcal/month.php,200,OK,Crear actividad (Carga pesada) 1-1,text,true,,8850,0,50,50,27474,0,0
1494375613850,1122,41 /wcal/css_cacher.php,200,OK,Crear actividad (Carga pesada) 1-48,text,true,,4338,0,50,50,1122,0,0
1494375614146,1042,38 /wcal/js_cacher.php,200,OK,Crear actividad (Carga pesada) 1-49,text,true,,2370,0,50,50,1042,0,0
1494375614192,1071,60 /wcal/js_cacher.php,200,OK,Crear actividad (Carga pesada) 1-1,text,true,,2370,0,50,50,1071,0,0
1494375615060,1132,38 /wcal/js_cacher.php,200,OK,Crear actividad (Carga pesada) 1-48,text,true,,2370,0,50,50,1132,0,0
1494375586240,31466,56 /wcal/index.php,200,OK,Crear actividad (Carga pesada) 1-9,text,true,,9771,0,50,50,2508,0,0
1494375589415,29030,59 /wcal/month.php,200,OK,Crear actividad (Carga pesada) 1-2,text,true,,8850,0,50,50,29029,0,0
1494375588145,30707,56 /wcal/index.php,200,OK,Crear actividad (Carga pesada) 1-10,text,true,,9771,0,50,50,2167,0,0
1494375617707,1381,58 /wcal/js_cacher.php,200,OK,Crear actividad (Carga pesada) 1-9,text,true,,2370,0,50,50,1381,0,0
1494375618447,1015,60 /wcal/js_cacher.php,200,OK,Crear actividad (Carga pesada) 1-2,text,true,,2370,0,50,50,1015,0,0
1494375618853,1065,58 /wcal/js_cacher.php,200,OK,Crear actividad (Carga pesada) 1-10,text,true,,2370,0,50,50,1065,0,0
1494375589155,31528,56 /wcal/index.php,200,OK,Crear actividad (Carga pesada) 1-8,text,true,,9771,0,50,50,2311,0,0
1494375620684,1055,58 /wcal/js_cacher.php,200,OK,Crear actividad (Carga pesada) 1-8,text,true,,2370,0,50,50,1055,0,0
1494375595493,28639,59 /wcal/month.php,200,OK,Crear actividad (Carga pesada) 1-3,text,true,,8850,0,50,50,28638,0,0
1494375624133,882,60 /wcal/js_cacher.php,200,OK,Crear actividad (Carga pesada) 1-3,text,true,,2370,0,50,50,882,0,0
1494375594849,31338,56 /wcal/index.php,200,OK,Crear actividad (Carga pesada) 1-11,text,true,,9771,0,50,50,1838,0,0
1494375626189,764,58 /wcal/js_cacher.php,200,OK,Crear actividad (Carga pesada) 1-11,text,true,,2370,0,50,50,764,0,0
1494375596340,30845,56 /wcal/index.php,200,OK,Crear actividad (Carga pesada) 1-12,text,true,,9771,0,50,50,2076,0,0
1494375596950,30338,56 /wcal/index.php,200,OK,Crear actividad (Carga pesada) 1-13,text,true,,9771,0,50,50,1676,0,0
1494375627187,960,58 /wcal/js_cacher.php,200,OK,Crear actividad (Carga pesada) 1-12,text,true,,2370,0,50,50,960,0,0
1494375627291,940,58 /wcal/js_cacher.php,200,OK,Crear actividad (Carga pesada) 1-13,text,true,,2370,0,50,50,940,0,0
1494375598763,29674,56 /wcal/index.php,200,OK,Crear actividad (Carga pesada) 1-20,text,true,,9771,0,50,50,1872,0,0
1494375598112,30363,56 /wcal/index.php,200,OK,Crear actividad (Carga pesada) 1-18,text,true,,9771,0,50,50,2025,0,0
1494375597790,30963,56 /wcal/index.php,200,OK,Crear actividad (Carga pesada) 1-14,text,true,,9771,0,50,50,1985,0,0
1494375598617,30167,56 /wcal/index.php,200,OK,Crear actividad (Carga pesada) 1-19,text,true,,9771,0,50,50,1986,0,0
1494375598649,30558,56 /wcal/index.php,200,OK,Crear actividad (Carga pesada) 1-15,text,true,,9771,0,50,50,2048,0,0
1494375628439,769,58 /wcal/js_cacher.php,200,OK,Crear actividad (Carga pesada) 1-20,text,true,,2370,0,50,50,769,0,0
1494375628478,868,58 /wcal/js_cacher.php,200,OK,Crear actividad (Carga pesada) 1-18,text,true,,2370,0,50,50,868,0,0
1494375628755,715,58 /wcal/js_cacher.php,200,OK,Crear actividad (Carga pesada) 1-14,text,true,,2370,0,50,50,714,0,0
1494375628787,710,58 /wcal/js_cacher.php,200,OK,Crear actividad (Carga pesada) 1-19,text,true,,2370,0,50,50,710,0,0
1494375600491,29190,56 /wcal/index.php,200,OK,Crear actividad (Carga pesada) 1-17,text,true,,9771,0,50,50,1921,0,0
1494375629210,756,58 /wcal/js_cacher.php,200,OK,Crear actividad (Carga pesada) 1-15,text,true,,2370,0,50,50,756,0,0
1494375600191,30305,56 /wcal/index.php,200,OK,Crear actividad (Carga pesada) 1-16,text,true,,9771,0,50,50,2221,0,0
1494375629684,925,58 /wcal/js_cacher.php,200,OK,Crear actividad (Carga pesada) 1-17,text,true,,2370,0,50,50,925,0,0
1494375601509,29234,56 /wcal/index.php,200,OK,Crear actividad (Carga pesada) 1-21,text,true,,9771,0,50,50,2071,0,0
1494375602131,29122,56 /wcal/index.php,200,OK,Crear actividad (Carga pesada) 1-22,text,true,,9771,0,50,50,2084,0,0
1494375630501,764,58 /wcal/js_cacher.php,200,OK,Crear actividad (Carga pesada) 1-16,text,true,,2370,0,50,50,764,0,0
1494375630745,776,58 /wcal/js_cacher.php,200,OK,Crear actividad (Carga pesada) 1-21,text,true,,2370,0,50,50,776,0,0
1494375604511,27462,59 /wcal/month.php,200,OK,Crear actividad (Carga pesada) 1-4,text,true,,8850,0,50,50,27460,0,0
1494375631255,794,58 /wcal/js_cacher.php,200,OK,Crear actividad (Carga pesada) 1-22,text,true,,2370,0,50,50,794,0,0
1494375631974,1114,60 /wcal/js_cacher.php,200,OK,Crear actividad (Carga pesada) 1-4,text,true,,2370,0,50,50,1114,0,0
1494375604232,29441,56 /wcal/index.php,200,OK,Crear actividad (Carga pesada) 1-24,text,true,,9771,0,50,50,2176,0,0
1494375604936,28771,56 /wcal/index.php,200,OK,Crear actividad (Carga pesada) 1-29,text,true,,9771,0,50,50,1956,0,0
1494375604013,29750,56 /wcal/index.php,200,OK,Crear actividad (Carga pesada) 1-23,text,true,,9771,0,50,50,2128,0,0
1494375605309,28643,56 /wcal/index.php,200,OK,Crear actividad (Carga pesada) 1-30,text,true,,9771,0,50,50,2142,0,0
1494375605379,28741,56 /wcal/index.php,200,OK,Crear actividad (Carga pesada) 1-26,text,true,,9771,0,50,50,1958,0,0
1494375633708,930,58 /wcal/js_cacher.php,200,OK,Crear actividad (Carga pesada) 1-29,text,true,,2370,0,50,50,930,0,0
1494375607052,27677,59 /wcal/month.php,200,OK,Crear actividad (Carga pesada) 1-5,text,true,,8850,0,50,50,27676,0,0
1494375633674,1111,58 /wcal/js_cacher.php,200,OK,Crear actividad (Carga pesada) 1-24,text,true,,2370,0,50,50,1111,0,0
1494375633765,1101,58 /wcal/js_cacher.php,200,OK,Crear actividad (Carga pesada) 1-23,text,true,,2370,0,50,50,1101,0,0
1494375633953,1121,58 /wcal/js_cacher.php,200,OK,Crear actividad (Carga pesada) 1-30,text,true,,2370,0,50,50,1121,0,0
1494375634122,1032,58 /wcal/js_cacher.php,200,OK,Crear actividad (Carga pesada) 1-26,text,true,,2370,0,50,50,1032,0,0
1494375634730,839,60 /wcal/js_cacher.php,200,OK,Crear actividad (Carga pesada) 1-5,text,true,,2370,0,50,50,839,0,0
1494375606071,29762,56 /wcal/index.php,200,OK,Crear actividad (Carga pesada) 1-25,text,true,,9771,0,50,50,2261,0,0
1494375607141,28828,56 /wcal/index.php,200,OK,Crear actividad (Carga pesada) 1-28,text,true,,9771,0,50,50,1850,0,0
1494375635970,716,58 /wcal/js_cacher.php,200,OK,Crear actividad (Carga pesada) 1-28,text,true,,2370,0,50,50,716,0,0
1494375635834,868,58 /wcal/js_cacher.php,200,OK,Crear actividad (Carga pesada) 1-25,text,true,,2370,0,50,50,868,0,0
1494375608242,29002,56 /wcal/index.php,200,OK,Crear actividad (Carga pesada) 1-36,text,true,,9771,0,50,50,2106,0,0
1494375607244,30253,56 /wcal/index.php,200,OK,Crear actividad (Carga pesada) 1-27,text,true,,9771,0,50,50,1944,0,0
1494375610559,26960,59 /wcal/month.php,200,OK,Crear actividad (Carga pesada) 1-7,text,true,,8850,0,50,50,26959,0,0
1494375609091,28567,56 /wcal/index.php,200,OK,Crear actividad (Carga pesada) 1-32,text,true,,9771,0,50,50,2185,0,0
1494375608655,29119,56 /wcal/index.php,200,OK,Crear actividad (Carga pesada) 1-34,text,true,,9771,0,50,50,2037,0,0
1494375611116,26698,59 /wcal/month.php,200,OK,Crear actividad (Carga pesada) 1-6,text,true,,8850,0,50,50,26697,0,0
1494375637245,944,58 /wcal/js_cacher.php,200,OK,Crear actividad (Carga pesada) 1-36,text,true,,2370,0,50,50,944,0,0
1494375609330,28913,56 /wcal/index.php,200,OK,Crear actividad (Carga pesada) 1-33,text,true,,9771,0,50,50,1984,0,0
1494375637520,755,60 /wcal/js_cacher.php,200,OK,Crear actividad (Carga pesada) 1-7,text,true,,2370,0,50,50,755,0,0
1494375609823,28508,56 /wcal/index.php,200,OK,Crear actividad (Carga pesada) 1-39,text,true,,9771,0,50,50,2034,0,0
1494375637498,863,58 /wcal/js_cacher.php,200,OK,Crear actividad (Carga pesada) 1-27,text,true,,2370,0,50,50,863,0,0
1494375637658,780,58 /wcal/js_cacher.php,200,OK,Crear actividad (Carga pesada) 1-32,text,true,,2370,0,50,50,780,0,0
1494375637815,706,60 /wcal/js_cacher.php,200,OK,Crear actividad (Carga pesada) 1-6,text,true,,2370,0,50,50,706,0,0
1494375608588,29952,56 /wcal/index.php,200,OK,Crear actividad (Carga pesada) 1-31,text,true,,9771,0,50,50,2041,0,0
1494375637775,932,58 /wcal/js_cacher.php,200,OK,Crear actividad (Carga pesada) 1-34,text,true,,2370,0,50,50,932,0,0
1494375638332,723,58 /wcal/js_cacher.php,200,OK,Crear actividad (Carga pesada) 1-39,text,true,,2370,0,50,50,723,0,0
1494375609963,29132,56 /wcal/index.php,200,OK,Crear actividad (Carga pesada) 1-38,text,true,,9771,0,50,50,2178,0,0
1494375638243,943,58 /wcal/js_cacher.php,200,OK,Crear actividad (Carga pesada) 1-33,text,true,,2370,0,50,50,943,0,0
1494375610311,29063,56 /wcal/index.php,200,OK,Crear actividad (Carga pesada) 1-35,text,true,,9771,0,50,50,2057,0,0
1494375638542,1079,58 /wcal/js_cacher.php,200,OK,Crear actividad (Carga pesada) 1-31,text,true,,2370,0,50,50,1079,0,0
1494375610754,29071,56 /wcal/index.php,200,OK,Crear actividad (Carga pesada) 1-44,text,true,,9771,0,50,50,2102,0,0
1494375639096,903,58 /wcal/js_cacher.php,200,OK,Crear actividad (Carga pesada) 1-38,text,true,,2370,0,50,50,903,0,0
1494375612786,27340,56 /wcal/index.php,200,OK,Crear actividad (Carga pesada) 1-42,text,true,,9771,0,50,50,2274,0,0
1494375639375,995,58 /wcal/js_cacher.php,200,OK,Crear actividad (Carga pesada) 1-35,text,true,,2370,0,50,50,995,0,0
1494375613050,27354,56 /wcal/index.php,200,OK,Crear actividad (Carga pesada) 1-45,text,true,,9771,0,50,50,2217,0,0
1494375639826,824,58 /wcal/js_cacher.php,200,OK,Crear actividad (Carga pesada) 1-44,text,true,,2370,0,50,50,824,0,0
1494375611920,28878,56 /wcal/index.php,200,OK,Crear actividad (Carga pesada) 1-37,text,true,,9771,0,50,50,2097,0,0
1494375640127,843,58 /wcal/js_cacher.php,200,OK,Crear actividad (Carga pesada) 1-42,text,true,,2370,0,50,50,843,0,0
1494375640404,849,58 /wcal/js_cacher.php,200,OK,Crear actividad (Carga pesada) 1-45,text,true,,2370,0,50,50,849,0,0
1494375613663,27856,56 /wcal/index.php,200,OK,Crear actividad (Carga pesada) 1-43,text,true,,9771,0,50,50,2257,0,0
1494375613144,28475,56 /wcal/index.php,200,OK,Crear actividad (Carga pesada) 1-50,text,true,,9771,0,50,50,2271,0,0
1494375640799,826,58 /wcal/js_cacher.php,200,OK,Crear actividad (Carga pesada) 1-37,text,true,,2370,0,50,50,826,0,0
1494375613743,28045,56 /wcal/index.php,200,OK,Crear actividad (Carga pesada) 1-47,text,true,,9771,0,50,50,2168,0,0
1494375612383,29848,56 /wcal/index.php,200,OK,Crear actividad (Carga pesada) 1-40,text,true,,9771,0,50,50,2080,0,0
1494375615189,27141,56 /wcal/index.php,200,OK,Crear actividad (Carga pesada) 1-49,text,true,,9771,0,50,50,2115,0,0
1494375616193,26280,56 /wcal/index.php,200,OK,Crear actividad (Carga pesada) 1-48,text,true,,9771,0,50,50,1965,0,0
1494375641519,1041,58 /wcal/js_cacher.php,200,OK,Crear actividad (Carga pesada) 1-43,text,true,,2370,0,50,50,1041,0,0
1494375641620,1036,58 /wcal/js_cacher.php,200,OK,Crear actividad (Carga pesada) 1-50,text,true,,2370,0,50,50,1036,0,0
1494375613295,29367,56 /wcal/index.php,200,OK,Crear actividad (Carga pesada) 1-41,text,true,,9771,0,50,50,2197,0,0
1494375641788,905,58 /wcal/js_cacher.php,200,OK,Crear actividad (Carga pesada) 1-47,text,true,,2370,0,50,50,905,0,0
1494375642231,901,58 /wcal/js_cacher.php,200,OK,Crear actividad (Carga pesada) 1-40,text,true,,2370,0,50,50,901,0,0
1494375613861,29273,56 /wcal/index.php,200,OK,Crear actividad (Carga pesada) 1-46,text,true,,9771,0,50,50,2428,0,0
1494375642332,858,58 /wcal/js_cacher.php,200,OK,Crear actividad (Carga pesada) 1-49,text,true,,2370,0,50,50,858,0,0
1494375642475,904,58 /wcal/js_cacher.php,200,OK,Crear actividad (Carga pesada) 1-48,text,true,,2370,0,50,50,904,0,0
1494375642662,938,58 /wcal/js_cacher.php,200,OK,Crear actividad (Carga pesada) 1-41,text,true,,2370,0,50,50,938,0,0
1494375643138,948,58 /wcal/js_cacher.php,200,OK,Crear actividad (Carga pesada) 1-46,text,true,,2370,0,50,50,948,0,0
1494375619090,26470,59 /wcal/month.php,200,OK,Crear actividad (Carga pesada) 1-9,text,true,,8850,0,50,50,26469,0,0
1494375619919,26025,59 /wcal/month.php,200,OK,Crear actividad (Carga pesada) 1-10,text,true,,8850,0,50,50,26024,0,0
1494375645561,1205,60 /wcal/js_cacher.php,200,OK,Crear actividad (Carga pesada) 1-9,text,true,,2370,0,50,50,1205,0,0
1494375645946,942,60 /wcal/js_cacher.php,200,OK,Crear actividad (Carga pesada) 1-10,text,true,,2370,0,50,50,942,0,0
1494375621741,25836,59 /wcal/month.php,200,OK,Crear actividad (Carga pesada) 1-8,text,true,,8850,0,50,50,25835,0,0
1494375647578,926,60 /wcal/js_cacher.php,200,OK,Crear actividad (Carga pesada) 1-8,text,true,,2370,0,50,50,926,0,0
1494375626954,24759,59 /wcal/month.php,200,OK,Crear actividad (Carga pesada) 1-11,text,true,,8850,0,50,50,24758,0,0
1494375628232,24072,59 /wcal/month.php,200,OK,Crear actividad (Carga pesada) 1-13,text,true,,8850,0,50,50,24071,0,0
1494375651714,662,60 /wcal/js_cacher.php,200,OK,Crear actividad (Carga pesada) 1-11,text,true,,2370,0,50,50,662,0,0
1494375628148,24568,59 /wcal/month.php,200,OK,Crear actividad (Carga pesada) 1-12,text,true,,8850,0,50,50,24567,0,0
1494375629498,23409,59 /wcal/month.php,200,OK,Crear actividad (Carga pesada) 1-19,text,true,,8850,0,50,50,23408,0,0
1494375652305,680,60 /wcal/js_cacher.php,200,OK,Crear actividad (Carga pesada) 1-13,text,true,,2370,0,50,50,680,0,0
1494375629347,23769,59 /wcal/month.php,200,OK,Crear actividad (Carga pesada) 1-18,text,true,,8850,0,50,50,23768,0,0
1494375629210,24065,59 /wcal/month.php,200,OK,Crear actividad (Carga pesada) 1-20,text,true,,8850,0,50,50,24064,0,0
1494375652716,721,60 /wcal/js_cacher.php,200,OK,Crear actividad (Carga pesada) 1-12,text,true,,2370,0,50,50,721,0,0
1494375652907,725,60 /wcal/js_cacher.php,200,OK,Crear actividad (Carga pesada) 1-19,text,true,,2370,0,50,50,725,0,0
1494375653116,737,60 /wcal/js_cacher.php,200,OK,Crear actividad (Carga pesada) 1-18,text,true,,2370,0,50,50,737,0,0
1494375629967,24082,59 /wcal/month.php,200,OK,Crear actividad (Carga pesada) 1-15,text,true,,8850,0,50,50,24081,0,0
1494375653275,864,60 /wcal/js_cacher.php,200,OK,Crear actividad (Carga pesada) 1-20,text,true,,2370,0,50,50,864,0,0
1494375631522,22881,59 /wcal/month.php,200,OK,Crear actividad (Carga pesada) 1-21,text,true,,8850,0,50,50,22880,0,0
1494375629471,24967,59 /wcal/month.php,200,OK,Crear actividad (Carga pesada) 1-14,text,true,,8850,0,50,50,24966,0,0
1494375654050,514,60 /wcal/js_cacher.php,200,OK,Crear actividad (Carga pesada) 1-15,text,true,,2370,0,50,50,514,0,0
1494375654405,454,60 /wcal/js_cacher.php,200,OK,Crear actividad (Carga pesada) 1-21,text,true,,2370,0,50,50,454,0,0
1494375632051,22898,59 /wcal/month.php,200,OK,Crear actividad (Carga pesada) 1-22,text,true,,8850,0,50,50,22897,0,0
1494375654438,585,60 /wcal/js_cacher.php,200,OK,Crear actividad (Carga pesada) 1-14,text,true,,2370,0,50,50,585,0,0
1494375630611,24637,59 /wcal/month.php,200,OK,Crear actividad (Carga pesada) 1-17,text,true,,8850,0,50,50,24636,0,0
1494375654950,404,60 /wcal/js_cacher.php,200,OK,Crear actividad (Carga pesada) 1-22,text,true,,2370,0,50,50,403,0,0
1494375631266,24155,59 /wcal/month.php,200,OK,Crear actividad (Carga pesada) 1-16,text,true,,8850,0,50,50,24153,0,0
1494375655248,396,60 /wcal/js_cacher.php,200,OK,Crear actividad (Carga pesada) 1-17,text,true,,2370,0,50,50,396,0,0
1494375655422,428,60 /wcal/js_cacher.php,200,OK,Crear actividad (Carga pesada) 1-16,text,true,,2370,0,50,50,428,0,0
1494375634786,21416,59 /wcal/month.php,200,OK,Crear actividad (Carga pesada) 1-24,text,true,,8850,0,50,50,21415,0,0
1494375656203,415,60 /wcal/js_cacher.php,200,OK,Crear actividad (Carga pesada) 1-24,text,true,,2370,0,50,50,414,0,0
1494375635075,21628,59 /wcal/month.php,200,OK,Crear actividad (Carga pesada) 1-30,text,true,,8850,0,50,50,21626,0,0
1494375635155,21557,59 /wcal/month.php,200,OK,Crear actividad (Carga pesada) 1-26,text,true,,8850,0,50,50,21556,0,0
1494375634867,21945,59 /wcal/month.php,200,OK,Crear actividad (Carga pesada) 1-23,text,true,,8850,0,50,50,21944,0,0
1494375656704,334,60 /wcal/js_cacher.php,200,OK,Crear actividad (Carga pesada) 1-30,text,true,,2370,0,50,50,334,0,0
1494375656713,444,60 /wcal/js_cacher.php,200,OK,Crear actividad (Carga pesada) 1-26,text,true,,2370,0,50,50,444,0,0
1494375656813,398,60 /wcal/js_cacher.php,200,OK,Crear actividad (Carga pesada) 1-23,text,true,,2370,0,50,50,398,0,0
1494375634639,22608,59 /wcal/month.php,200,OK,Crear actividad (Carga pesada) 1-29,text,true,,8850,0,50,50,22607,0,0
1494375657249,287,60 /wcal/js_cacher.php,200,OK,Crear actividad (Carga pesada) 1-29,text,true,,2370,0,50,50,287,0,0
1494375638439,19553,59 /wcal/month.php,200,OK,Crear actividad (Carga pesada) 1-32,text,true,,8850,0,50,50,19551,0,0
1494375638191,19808,59 /wcal/month.php,200,OK,Crear actividad (Carga pesada) 1-36,text,true,,8850,0,50,50,19807,0,0
1494375636703,21421,59 /wcal/month.php,200,OK,Crear actividad (Carga pesada) 1-25,text,true,,8850,0,50,50,21420,0,0
1494375636687,21552,59 /wcal/month.php,200,OK,Crear actividad (Carga pesada) 1-28,text,true,,8850,0,50,50,21551,0,0
1494375638709,19733,59 /wcal/month.php,200,OK,Crear actividad (Carga pesada) 1-34,text,true,,8850,0,50,50,19732,0,0
1494375657993,484,60 /wcal/js_cacher.php,200,OK,Crear actividad (Carga pesada) 1-32,text,true,,2370,0,50,50,484,0,0
1494375658001,515,60 /wcal/js_cacher.php,200,OK,Crear actividad (Carga pesada) 1-36,text,true,,2370,0,50,50,515,0,0
1494375638362,20244,59 /wcal/month.php,200,OK,Crear actividad (Carga pesada) 1-27,text,true,,8850,0,50,50,20243,0,0
1494375658125,557,60 /wcal/js_cacher.php,200,OK,Crear actividad (Carga pesada) 1-25,text,true,,2370,0,50,50,557,0,0
1494375658240,511,60 /wcal/js_cacher.php,200,OK,Crear actividad (Carga pesada) 1-28,text,true,,2370,0,50,50,510,0,0
1494375658443,325,60 /wcal/js_cacher.php,200,OK,Crear actividad (Carga pesada) 1-34,text,true,,2370,0,50,50,325,0,0
1494375658607,283,60 /wcal/js_cacher.php,200,OK,Crear actividad (Carga pesada) 1-27,text,true,,2370,0,50,50,283,0,0
1494375640001,19024,59 /wcal/month.php,200,OK,Crear actividad (Carga pesada) 1-38,text,true,,8850,0,50,50,19023,0,0
1494375639057,20006,59 /wcal/month.php,200,OK,Crear actividad (Carga pesada) 1-39,text,true,,8850,0,50,50,20005,0,0
1494375639187,20075,59 /wcal/month.php,200,OK,Crear actividad (Carga pesada) 1-33,text,true,,8850,0,50,50,20074,0,0
1494375659026,254,60 /wcal/js_cacher.php,200,OK,Crear actividad (Carga pesada) 1-38,text,true,,2370,0,50,50,254,0,0
1494375659064,290,60 /wcal/js_cacher.php,200,OK,Crear actividad (Carga pesada) 1-39,text,true,,2370,0,50,50,290,0,0
1494375639622,19768,59 /wcal/month.php,200,OK,Crear actividad (Carga pesada) 1-31,text,true,,8850,0,50,50,19767,0,0
1494375640371,19034,59 /wcal/month.php,200,OK,Crear actividad (Carga pesada) 1-35,text,true,,8850,0,50,50,19033,0,0
1494375641254,18259,59 /wcal/month.php,200,OK,Crear actividad (Carga pesada) 1-45,text,true,,8850,0,50,50,18258,0,0
1494375659263,251,60 /wcal/js_cacher.php,200,OK,Crear actividad (Carga pesada) 1-33,text,true,,2370,0,50,50,251,0,0
1494375640651,18868,59 /wcal/month.php,200,OK,Crear actividad (Carga pesada) 1-44,text,true,,8850,0,50,50,18867,0,0
1494375640972,18555,59 /wcal/month.php,200,OK,Crear actividad (Carga pesada) 1-42,text,true,,8850,0,50,50,18554,0,0
1494375643191,16336,59 /wcal/month.php,200,OK,Crear actividad (Carga pesada) 1-49,text,true,,8850,0,50,50,16335,0,0
1494375659407,184,60 /wcal/js_cacher.php,200,OK,Crear actividad (Carga pesada) 1-35,text,true,,2370,0,50,50,184,0,0
1494375659392,234,60 /wcal/js_cacher.php,200,OK,Crear actividad (Carga pesada) 1-31,text,true,,2370,0,50,50,234,0,0
1494375659528,190,60 /wcal/js_cacher.php,200,OK,Crear actividad (Carga pesada) 1-49,text,true,,2370,0,50,50,190,0,0
1494375659520,210,60 /wcal/js_cacher.php,200,OK,Crear actividad (Carga pesada) 1-44,text,true,,2370,0,50,50,210,0,0
1494375659514,221,60 /wcal/js_cacher.php,200,OK,Crear actividad (Carga pesada) 1-45,text,true,,2370,0,50,50,221,0,0
1494375659528,215,60 /wcal/js_cacher.php,200,OK,Crear actividad (Carga pesada) 1-42,text,true,,2370,0,50,50,215,0,0
1494375641626,18138,59 /wcal/month.php,200,OK,Crear actividad (Carga pesada) 1-37,text,true,,8850,0,50,50,18136,0,0
1494375659765,119,60 /wcal/js_cacher.php,200,OK,Crear actividad (Carga pesada) 1-37,text,true,,2370,0,50,50,119,0,0
1494375642694,17197,59 /wcal/month.php,200,OK,Crear actividad (Carga pesada) 1-47,text,true,,8850,0,50,50,17196,0,0
1494375642561,17331,59 /wcal/month.php,200,OK,Crear actividad (Carga pesada) 1-43,text,true,,8850,0,50,50,17330,0,0
1494375643134,16759,59 /wcal/month.php,200,OK,Crear actividad (Carga pesada) 1-40,text,true,,8850,0,50,50,16757,0,0
1494375643601,16332,59 /wcal/month.php,200,OK,Crear actividad (Carga pesada) 1-41,text,true,,8850,0,50,50,16331,0,0
1494375643380,16561,59 /wcal/month.php,200,OK,Crear actividad (Carga pesada) 1-48,text,true,,8850,0,50,50,16560,0,0
1494375642657,17304,59 /wcal/month.php,200,OK,Crear actividad (Carga pesada) 1-50,text,true,,8850,0,50,50,17303,0,0
1494375644087,15906,59 /wcal/month.php,200,OK,Crear actividad (Carga pesada) 1-46,text,true,,8850,0,50,50,15905,0,0
1494375659892,116,60 /wcal/js_cacher.php,200,OK,Crear actividad (Carga pesada) 1-47,text,true,,2370,0,50,50,116,0,0
1494375659893,116,60 /wcal/js_cacher.php,200,OK,Crear actividad (Carga pesada) 1-43,text,true,,2370,0,50,50,116,0,0
1494375659894,117,60 /wcal/js_cacher.php,200,OK,Crear actividad (Carga pesada) 1-40,text,true,,2370,0,50,50,117,0,0
1494375659942,87,60 /wcal/js_cacher.php,200,OK,Crear actividad (Carga pesada) 1-48,text,true,,2370,0,50,50,87,0,0
1494375659934,102,60 /wcal/js_cacher.php,200,OK,Crear actividad (Carga pesada) 1-41,text,true,,2370,0,50,50,102,0,0
1494375659962,85,60 /wcal/js_cacher.php,200,OK,Crear actividad (Carga pesada) 1-50,text,true,,2370,0,50,50,85,0,0
1494375659994,63,60 /wcal/js_cacher.php,200,OK,Crear actividad (Carga pesada) 1-46,text,true,,2370,0,50,50,62,0,0
1494375615264,127268,61 /success.txt,Non HTTP response code: java.net.ConnectException,Non HTTP response message: Expiró el tiempo de conexión (Connection timed out),Crear actividad (Carga pesada) 1-1,text,false,,1818,0,50,50,0,0,0
1494375742537,1310,62 /wcal/month.php,200,OK,Crear actividad (Carga pesada) 1-1,text,true,,8612,0,50,50,1308,0,0
1494375743848,50,63 /wcal/js_cacher.php,200,OK,Crear actividad (Carga pesada) 1-1,text,true,,2370,0,50,50,50,0,0
1494375743899,663,64 /wcal/week.php,200,OK,Crear actividad (Carga pesada) 1-1,text,true,,4705,0,50,50,662,0,0
1494375619464,127289,61 /success.txt,Non HTTP response code: java.net.ConnectException,Non HTTP response message: Expiró el tiempo de conexión (Connection timed out),Crear actividad (Carga pesada) 1-2,text,false,,1818,0,50,50,0,0,0
1494375746757,1165,62 /wcal/month.php,200,OK,Crear actividad (Carga pesada) 1-2,text,true,,8611,0,50,50,1164,0,0
1494375747923,54,63 /wcal/js_cacher.php,200,OK,Crear actividad (Carga pesada) 1-2,text,true,,2370,0,50,50,54,0,0
1494375747978,734,64 /wcal/week.php,200,OK,Crear actividad (Carga pesada) 1-2,text,true,,4705,0,50,50,734,0,0
1494375625017,127240,61 /success.txt,Non HTTP response code: java.net.ConnectException,Non HTTP response message: Expiró el tiempo de conexión (Connection timed out),Crear actividad (Carga pesada) 1-3,text,false,,1818,0,50,50,0,0,0
1494375752263,1248,62 /wcal/month.php,200,OK,Crear actividad (Carga pesada) 1-3,text,true,,8611,0,50,50,1247,0,0
1494375753512,54,63 /wcal/js_cacher.php,200,OK,Crear actividad (Carga pesada) 1-3,text,true,,2370,0,50,50,54,0,0
1494375753567,644,64 /wcal/week.php,200,OK,Crear actividad (Carga pesada) 1-3,text,true,,4705,0,50,50,643,0,0
1494375633090,127231,61 /success.txt,Non HTTP response code: java.net.ConnectException,Non HTTP response message: Expiró el tiempo de conexión (Connection timed out),Crear actividad (Carga pesada) 1-4,text,false,,1818,0,50,50,0,0,0
1494375760324,1155,62 /wcal/month.php,200,OK,Crear actividad (Carga pesada) 1-4,text,true,,8612,0,50,50,1154,0,0
1494375761480,51,63 /wcal/js_cacher.php,200,OK,Crear actividad (Carga pesada) 1-4,text,true,,2370,0,50,50,51,0,0
1494375761533,734,64 /wcal/week.php,200,OK,Crear actividad (Carga pesada) 1-4,text,true,,4705,0,50,50,734,0,0
1494375635571,127311,61 /success.txt,Non HTTP response code: java.net.ConnectException,Non HTTP response message: Expiró el tiempo de conexión (Connection timed out),Crear actividad (Carga pesada) 1-5,text,false,,1818,0,50,50,0,0,0
1494375762886,1239,62 /wcal/month.php,200,OK,Crear actividad (Carga pesada) 1-5,text,true,,8611,0,50,50,1238,0,0
1494375764127,55,63 /wcal/js_cacher.php,200,OK,Crear actividad (Carga pesada) 1-5,text,true,,2370,0,50,50,55,0,0
1494375764183,704,64 /wcal/week.php,200,OK,Crear actividad (Carga pesada) 1-5,text,true,,4705,0,50,50,703,0,0
1494375638276,127293,61 /success.txt,Non HTTP response code: java.net.ConnectException,Non HTTP response message: Expiró el tiempo de conexión (Connection timed out),Crear actividad (Carga pesada) 1-7,text,false,,1818,0,50,50,0,0,0
1494375638522,127175,61 /success.txt,Non HTTP response code: java.net.ConnectException,Non HTTP response message: Expiró el tiempo de conexión (Connection timed out),Crear actividad (Carga pesada) 1-6,text,false,,1818,0,50,50,0,0,0
1494375765572,1147,62 /wcal/month.php,200,OK,Crear actividad (Carga pesada) 1-7,text,true,,8611,0,50,50,1146,0,0
1494375766720,52,63 /wcal/js_cacher.php,200,OK,Crear actividad (Carga pesada) 1-7,text,true,,2370,0,50,50,52,0,0
1494375765700,1104,62 /wcal/month.php,200,OK,Crear actividad (Carga pesada) 1-6,text,true,,8612,0,50,50,1103,0,0
1494375766805,54,63 /wcal/js_cacher.php,200,OK,Crear actividad (Carga pesada) 1-6,text,true,,2370,0,50,50,53,0,0
1494375766774,672,64 /wcal/week.php,200,OK,Crear actividad (Carga pesada) 1-7,text,true,,4705,0,50,50,672,0,0
1494375766860,674,64 /wcal/week.php,200,OK,Crear actividad (Carga pesada) 1-6,text,true,,4705,0,50,50,673,0,0
1494375646767,127250,61 /success.txt,Non HTTP response code: java.net.ConnectException,Non HTTP response message: Expiró el tiempo de conexión (Connection timed out),Crear actividad (Carga pesada) 1-9,text,false,,1818,0,50,50,0,0,0
1494375646889,127256,61 /success.txt,Non HTTP response code: java.net.ConnectException,Non HTTP response message: Expiró el tiempo de conexión (Connection timed out),Crear actividad (Carga pesada) 1-10,text,false,,1818,0,50,50,0,0,0
1494375648505,127176,61 /success.txt,Non HTTP response code: java.net.ConnectException,Non HTTP response message: Expiró el tiempo de conexión (Connection timed out),Crear actividad (Carga pesada) 1-8,text,false,,1818,0,50,50,0,0,0
1494375775684,3190,62 /wcal/month.php,200,OK,Crear actividad (Carga pesada) 1-8,text,true,,8612,0,50,50,3188,0,0
1494375774148,4762,62 /wcal/month.php,200,OK,Crear actividad (Carga pesada) 1-10,text,true,,8612,0,50,50,4760,0,0
1494375778875,70,63 /wcal/js_cacher.php,200,OK,Crear actividad (Carga pesada) 1-8,text,true,,2370,0,50,50,70,0,0
1494375778911,70,63 /wcal/js_cacher.php,200,OK,Crear actividad (Carga pesada) 1-10,text,true,,2370,0,50,50,70,0,0
1494375774020,5077,62 /wcal/month.php,200,OK,Crear actividad (Carga pesada) 1-9,text,true,,8612,0,50,50,5076,0,0
1494375779099,100,63 /wcal/js_cacher.php,200,OK,Crear actividad (Carga pesada) 1-9,text,true,,2370,0,50,50,100,0,0
1494375652377,127272,61 /success.txt,Non HTTP response code: java.net.ConnectException,Non HTTP response message: Expiró el tiempo de conexión (Connection timed out),Crear actividad (Carga pesada) 1-11,text,false,,1818,0,50,50,0,0,0
1494375778946,893,64 /wcal/week.php,200,OK,Crear actividad (Carga pesada) 1-8,text,true,,4705,0,50,50,892,0,0
1494375779200,805,64 /wcal/week.php,200,OK,Crear actividad (Carga pesada) 1-9,text,true,,4705,0,50,50,804,0,0
1494375778982,1046,64 /wcal/week.php,200,OK,Crear actividad (Carga pesada) 1-10,text,true,,4705,0,50,50,1046,0,0
1494375652986,127303,61 /success.txt,Non HTTP response code: java.net.ConnectException,Non HTTP response message: Expiró el tiempo de conexión (Connection timed out),Crear actividad (Carga pesada) 1-13,text,false,,1818,0,50,50,0,0,0
1494375653438,127235,61 /success.txt,Non HTTP response code: java.net.ConnectException,Non HTTP response message: Expiró el tiempo de conexión (Connection timed out),Crear actividad (Carga pesada) 1-12,text,false,,1818,0,50,50,0,0,0
1494375653633,127168,61 /success.txt,Non HTTP response code: java.net.ConnectException,Non HTTP response message: Expiró el tiempo de conexión (Connection timed out),Crear actividad (Carga pesada) 1-19,text,false,,1818,0,50,50,0,0,0
1494375653854,127203,61 /success.txt,Non HTTP response code: java.net.ConnectException,Non HTTP response message: Expiró el tiempo de conexión (Connection timed out),Crear actividad (Carga pesada) 1-18,text,false,,1818,0,50,50,0,0,0
1494375779652,1412,62 /wcal/month.php,200,OK,Crear actividad (Carga pesada) 1-11,text,true,,8612,0,50,50,1411,0,0
1494375781066,166,63 /wcal/js_cacher.php,200,OK,Crear actividad (Carga pesada) 1-11,text,true,,2370,0,50,50,166,0,0
1494375654140,127173,61 /success.txt,Non HTTP response code: java.net.ConnectException,Non HTTP response message: Expiró el tiempo de conexión (Connection timed out),Crear actividad (Carga pesada) 1-20,text,false,,1818,0,50,50,0,0,0
1494375654565,127260,61 /success.txt,Non HTTP response code: java.net.ConnectException,Non HTTP response message: Expiró el tiempo de conexión (Connection timed out),Crear actividad (Carga pesada) 1-15,text,false,,1818,0,50,50,0,0,0
1494375654861,127220,61 /success.txt,Non HTTP response code: java.net.ConnectException,Non HTTP response message: Expiró el tiempo de conexión (Connection timed out),Crear actividad (Carga pesada) 1-21,text,false,,1818,0,50,50,0,0,0
1494375655024,127313,61 /success.txt,Non HTTP response code: java.net.ConnectException,Non HTTP response message: Expiró el tiempo de conexión (Connection timed out),Crear actividad (Carga pesada) 1-14,text,false,,1818,0,50,50,0,0,0
1494375655355,127238,61 /success.txt,Non HTTP response code: java.net.ConnectException,Non HTTP response message: Expiró el tiempo de conexión (Connection timed out),Crear actividad (Carga pesada) 1-22,text,false,,1818,0,50,50,0,0,0
1494375655645,127204,61 /success.txt,Non HTTP response code: java.net.ConnectException,Non HTTP response message: Expiró el tiempo de conexión (Connection timed out),Crear actividad (Carga pesada) 1-17,text,false,,1818,0,50,50,0,0,0
1494375655851,127254,61 /success.txt,Non HTTP response code: java.net.ConnectException,Non HTTP response message: Expiró el tiempo de conexión (Connection timed out),Crear actividad (Carga pesada) 1-16,text,false,,1818,0,50,50,0,0,0
1494375781233,2478,64 /wcal/week.php,200,OK,Crear actividad (Carga pesada) 1-11,text,true,,4705,0,50,50,2477,0,0
1494375656619,127254,61 /success.txt,Non HTTP response code: java.net.ConnectException,Non HTTP response message: Expiró el tiempo de conexión (Connection timed out),Crear actividad (Carga pesada) 1-24,text,false,,1818,0,50,50,0,0,0
1494375780292,3965,62 /wcal/month.php,200,OK,Crear actividad (Carga pesada) 1-13,text,true,,8611,0,50,50,3964,0,0
1494375657039,127218,61 /success.txt,Non HTTP response code: java.net.ConnectException,Non HTTP response message: Expiró el tiempo de conexión (Connection timed out),Crear actividad (Carga pesada) 1-30,text,false,,1818,0,50,50,0,0,0
1494375657212,127173,61 /success.txt,Non HTTP response code: java.net.ConnectException,Non HTTP response message: Expiró el tiempo de conexión (Connection timed out),Crear actividad (Carga pesada) 1-23,text,false,,1818,0,50,50,0,0,0
1494375657158,127227,61 /success.txt,Non HTTP response code: java.net.ConnectException,Non HTTP response message: Expiró el tiempo de conexión (Connection timed out),Crear actividad (Carga pesada) 1-26,text,false,,1818,0,50,50,0,0,0
1494375784259,346,63 /wcal/js_cacher.php,200,OK,Crear actividad (Carga pesada) 1-13,text,true,,2370,0,50,50,346,0,0
1494375657538,127231,61 /success.txt,Non HTTP response code: java.net.ConnectException,Non HTTP response message: Expiró el tiempo de conexión (Connection timed out),Crear actividad (Carga pesada) 1-29,text,false,,1818,0,50,50,0,0,0
1494375658479,127186,61 /success.txt,Non HTTP response code: java.net.ConnectException,Non HTTP response message: Expiró el tiempo de conexión (Connection timed out),Crear actividad (Carga pesada) 1-32,text,false,,1818,0,50,50,0,0,0
1494375658518,127275,61 /success.txt,Non HTTP response code: java.net.ConnectException,Non HTTP response message: Expiró el tiempo de conexión (Connection timed out),Crear actividad (Carga pesada) 1-36,text,false,,1818,0,50,50,0,0,0
1494375658684,127238,61 /success.txt,Non HTTP response code: java.net.ConnectException,Non HTTP response message: Expiró el tiempo de conexión (Connection timed out),Crear actividad (Carga pesada) 1-25,text,false,,1818,0,50,50,0,0,0
1494375658752,127170,61 /success.txt,Non HTTP response code: java.net.ConnectException,Non HTTP response message: Expiró el tiempo de conexión (Connection timed out),Crear actividad (Carga pesada) 1-28,text,false,,1818,0,50,50,0,0,0
1494375658769,127280,61 /success.txt,Non HTTP response code: java.net.ConnectException,Non HTTP response message: Expiró el tiempo de conexión (Connection timed out),Crear actividad (Carga pesada) 1-34,text,false,,1818,0,50,50,0,0,0
1494375658891,127286,61 /success.txt,Non HTTP response code: java.net.ConnectException,Non HTTP response message: Expiró el tiempo de conexión (Connection timed out),Crear actividad (Carga pesada) 1-27,text,false,,1818,0,50,50,0,0,0
1494375659282,127279,61 /success.txt,Non HTTP response code: java.net.ConnectException,Non HTTP response message: Expiró el tiempo de conexión (Connection timed out),Crear actividad (Carga pesada) 1-38,text,false,,1818,0,50,50,0,0,0
1494375659515,127174,61 /success.txt,Non HTTP response code: java.net.ConnectException,Non HTTP response message: Expiró el tiempo de conexión (Connection timed out),Crear actividad (Carga pesada) 1-33,text,false,,1818,0,50,50,0,0,0
1494375659355,127334,61 /success.txt,Non HTTP response code: java.net.ConnectException,Non HTTP response message: Expiró el tiempo de conexión (Connection timed out),Crear actividad (Carga pesada) 1-39,text,false,,1818,0,50,50,0,0,0
1494375659592,127225,61 /success.txt,Non HTTP response code: java.net.ConnectException,Non HTTP response message: Expiró el tiempo de conexión (Connection timed out),Crear actividad (Carga pesada) 1-35,text,false,,1818,0,50,50,0,0,0
1494375659736,127209,61 /success.txt,Non HTTP response code: java.net.ConnectException,Non HTTP response message: Expiró el tiempo de conexión (Connection timed out),Crear actividad (Carga pesada) 1-45,text,false,,1818,0,50,50,0,0,0
1494375659744,127201,61 /success.txt,Non HTTP response code: java.net.ConnectException,Non HTTP response message: Expiró el tiempo de conexión (Connection timed out),Crear actividad (Carga pesada) 1-42,text,false,,1818,0,50,50,0,0,0
1494375659628,127317,61 /success.txt,Non HTTP response code: java.net.ConnectException,Non HTTP response message: Expiró el tiempo de conexión (Connection timed out),Crear actividad (Carga pesada) 1-31,text,false,,1818,0,50,50,0,0,0
1494375659731,127218,61 /success.txt,Non HTTP response code: java.net.ConnectException,Non HTTP response message: Expiró el tiempo de conexión (Connection timed out),Crear actividad (Carga pesada) 1-44,text,false,,1818,0,50,50,0,0,0
1494375659719,127226,61 /success.txt,Non HTTP response code: java.net.ConnectException,Non HTTP response message: Expiró el tiempo de conexión (Connection timed out),Crear actividad (Carga pesada) 1-49,text,false,,1818,0,50,50,0,0,0
1494375660031,127171,61 /success.txt,Non HTTP response code: java.net.ConnectException,Non HTTP response message: Expiró el tiempo de conexión (Connection timed out),Crear actividad (Carga pesada) 1-48,text,false,,1818,0,50,50,0,0,0
1494375660010,127191,61 /success.txt,Non HTTP response code: java.net.ConnectException,Non HTTP response message: Expiró el tiempo de conexión (Connection timed out),Crear actividad (Carga pesada) 1-43,text,false,,1818,0,50,50,0,0,0
1494375660013,127188,61 /success.txt,Non HTTP response code: java.net.ConnectException,Non HTTP response message: Expiró el tiempo de conexión (Connection timed out),Crear actividad (Carga pesada) 1-40,text,false,,1818,0,50,50,0,0,0
1494375660013,127188,61 /success.txt,Non HTTP response code: java.net.ConnectException,Non HTTP response message: Expiró el tiempo de conexión (Connection timed out),Crear actividad (Carga pesada) 1-47,text,false,,1818,0,50,50,0,0,0
1494375659886,127319,61 /success.txt,Non HTTP response code: java.net.ConnectException,Non HTTP response message: Expiró el tiempo de conexión (Connection timed out),Crear actividad (Carga pesada) 1-37,text,false,,1818,0,50,50,0,0,0
1494375660037,127292,61 /success.txt,Non HTTP response code: java.net.ConnectException,Non HTTP response message: Expiró el tiempo de conexión (Connection timed out),Crear actividad (Carga pesada) 1-41,text,false,,1818,0,50,50,0,0,0
1494375660048,127281,61 /success.txt,Non HTTP response code: java.net.ConnectException,Non HTTP response message: Expiró el tiempo de conexión (Connection timed out),Crear actividad (Carga pesada) 1-50,text,false,,1818,0,50,50,0,0,0
1494375660058,127272,61 /success.txt,Non HTTP response code: java.net.ConnectException,Non HTTP response message: Expiró el tiempo de conexión (Connection timed out),Crear actividad (Carga pesada) 1-46,text,false,,1818,0,50,50,0,0,0
1494375780676,9241,62 /wcal/month.php,200,OK,Crear actividad (Carga pesada) 1-12,text,true,,8611,0,50,50,9240,0,0
1494375780804,10009,62 /wcal/month.php,200,OK,Crear actividad (Carga pesada) 1-19,text,true,,8611,0,50,50,10007,0,0
1494375789918,1276,63 /wcal/js_cacher.php,200,OK,Crear actividad (Carga pesada) 1-12,text,true,,2370,0,50,50,1276,0,0
1494375790814,795,63 /wcal/js_cacher.php,200,OK,Crear actividad (Carga pesada) 1-19,text,true,,2370,0,50,50,795,0,0
1494375781061,12117,62 /wcal/month.php,200,OK,Crear actividad (Carga pesada) 1-18,text,true,,8612,0,50,50,12116,0,0
1494375793178,930,63 /wcal/js_cacher.php,200,OK,Crear actividad (Carga pesada) 1-18,text,true,,2370,0,50,50,930,0,0
1494375784606,10083,64 /wcal/week.php,200,OK,Crear actividad (Carga pesada) 1-13,text,true,,4705,0,50,50,10083,0,0
1494375781317,13568,62 /wcal/month.php,200,OK,Crear actividad (Carga pesada) 1-20,text,true,,8612,0,50,50,13567,0,0
1494375794885,870,63 /wcal/js_cacher.php,200,OK,Crear actividad (Carga pesada) 1-20,text,true,,2370,0,50,50,869,0,0
1494375781829,15897,62 /wcal/month.php,200,OK,Crear actividad (Carga pesada) 1-15,text,true,,8612,0,50,50,15896,0,0
1494375797727,955,63 /wcal/js_cacher.php,200,OK,Crear actividad (Carga pesada) 1-15,text,true,,2370,0,50,50,955,0,0
1494375782085,16633,62 /wcal/month.php,200,OK,Crear actividad (Carga pesada) 1-21,text,true,,8612,0,50,50,16632,0,0
1494375798719,655,63 /wcal/js_cacher.php,200,OK,Crear actividad (Carga pesada) 1-21,text,true,,2370,0,50,50,655,0,0
1494375782341,18248,62 /wcal/month.php,200,OK,Crear actividad (Carga pesada) 1-14,text,true,,8612,0,50,50,18246,0,0
1494375782600,18339,62 /wcal/month.php,200,OK,Crear actividad (Carga pesada) 1-22,text,true,,8612,0,50,50,18337,0,0
1494375800590,674,63 /wcal/js_cacher.php,200,OK,Crear actividad (Carga pesada) 1-14,text,true,,2370,0,50,50,674,0,0
1494375800940,682,63 /wcal/js_cacher.php,200,OK,Crear actividad (Carga pesada) 1-22,text,true,,2370,0,50,50,681,0,0
1494375791610,10553,64 /wcal/week.php,200,OK,Crear actividad (Carga pesada) 1-19,text,true,,4705,0,50,50,10552,0,0
1494375783877,18974,62 /wcal/month.php,200,OK,Crear actividad (Carga pesada) 1-24,text,true,,8611,0,50,50,18973,0,0
1494375791195,11685,64 /wcal/week.php,200,OK,Crear actividad (Carga pesada) 1-12,text,true,,4705,0,50,50,11684,0,0
1494375782853,20372,62 /wcal/month.php,200,OK,Crear actividad (Carga pesada) 1-17,text,true,,8612,0,50,50,20371,0,0
1494375783109,20336,62 /wcal/month.php,200,OK,Crear actividad (Carga pesada) 1-16,text,true,,8612,0,50,50,20335,0,0
1494375802851,799,63 /wcal/js_cacher.php,200,OK,Crear actividad (Carga pesada) 1-24,text,true,,2370,0,50,50,799,0,0
1494375803225,752,63 /wcal/js_cacher.php,200,OK,Crear actividad (Carga pesada) 1-17,text,true,,2370,0,50,50,752,0,0
1494375803446,771,63 /wcal/js_cacher.php,200,OK,Crear actividad (Carga pesada) 1-16,text,true,,2370,0,50,50,771,0,0
1494375784261,20167,62 /wcal/month.php,200,OK,Crear actividad (Carga pesada) 1-30,text,true,,8612,0,50,50,20167,0,0
1494375794109,10511,64 /wcal/week.php,200,OK,Crear actividad (Carga pesada) 1-18,text,true,,4705,0,50,50,10511,0,0
1494375804429,635,63 /wcal/js_cacher.php,200,OK,Crear actividad (Carga pesada) 1-30,text,true,,2370,0,50,50,635,0,0
1494375784389,21960,62 /wcal/month.php,200,OK,Crear actividad (Carga pesada) 1-23,text,true,,8612,0,50,50,21959,0,0
1494375784773,21758,62 /wcal/month.php,200,OK,Crear actividad (Carga pesada) 1-29,text,true,,8612,0,50,50,21757,0,0
1494375795756,10777,64 /wcal/week.php,200,OK,Crear actividad (Carga pesada) 1-20,text,true,,4705,0,50,50,10776,0,0
1494375784389,22305,62 /wcal/month.php,200,OK,Crear actividad (Carga pesada) 1-26,text,true,,8612,0,50,50,22303,0,0
1494375806349,705,63 /wcal/js_cacher.php,200,OK,Crear actividad (Carga pesada) 1-23,text,true,,2370,0,50,50,705,0,0
1494375806532,778,63 /wcal/js_cacher.php,200,OK,Crear actividad (Carga pesada) 1-29,text,true,,2370,0,50,50,778,0,0
1494375806694,867,63 /wcal/js_cacher.php,200,OK,Crear actividad (Carga pesada) 1-26,text,true,,2370,0,50,50,867,0,0
1494375785927,22189,62 /wcal/month.php,200,OK,Crear actividad (Carga pesada) 1-25,text,true,,8612,0,50,50,22188,0,0
1494375786180,21957,62 /wcal/month.php,200,OK,Crear actividad (Carga pesada) 1-27,text,true,,8612,0,50,50,21956,0,0
1494375785927,22338,62 /wcal/month.php,200,OK,Crear actividad (Carga pesada) 1-28,text,true,,8612,0,50,50,22337,0,0
1494375798684,9667,64 /wcal/week.php,200,OK,Crear actividad (Carga pesada) 1-15,text,true,,4705,0,50,50,9667,0,0
1494375808116,626,63 /wcal/js_cacher.php,200,OK,Crear actividad (Carga pesada) 1-25,text,true,,2370,0,50,50,626,0,0
1494375808139,637,63 /wcal/js_cacher.php,200,OK,Crear actividad (Carga pesada) 1-27,text,true,,2370,0,50,50,637,0,0
1494375808265,580,63 /wcal/js_cacher.php,200,OK,Crear actividad (Carga pesada) 1-28,text,true,,2370,0,50,50,580,0,0
1494375786563,22343,62 /wcal/month.php,200,OK,Crear actividad (Carga pesada) 1-38,text,true,,8612,0,50,50,22342,0,0
1494375785797,23335,62 /wcal/month.php,200,OK,Crear actividad (Carga pesada) 1-36,text,true,,8612,0,50,50,23334,0,0
1494375786052,23182,62 /wcal/month.php,200,OK,Crear actividad (Carga pesada) 1-34,text,true,,8612,0,50,50,23181,0,0
1494375808907,586,63 /wcal/js_cacher.php,200,OK,Crear actividad (Carga pesada) 1-38,text,true,,2370,0,50,50,586,0,0
1494375799375,10339,64 /wcal/week.php,200,OK,Crear actividad (Carga pesada) 1-21,text,true,,4705,0,50,50,10338,0,0
1494375809132,659,63 /wcal/js_cacher.php,200,OK,Crear actividad (Carga pesada) 1-36,text,true,,2370,0,50,50,659,0,0
1494375786692,23189,62 /wcal/month.php,200,OK,Crear actividad (Carga pesada) 1-39,text,true,,8612,0,50,50,23188,0,0
1494375809235,704,63 /wcal/js_cacher.php,200,OK,Crear actividad (Carga pesada) 1-34,text,true,,2370,0,50,50,704,0,0
1494375785669,24329,62 /wcal/month.php,200,OK,Crear actividad (Carga pesada) 1-32,text,true,,8612,0,50,50,24328,0,0
1494375787204,23327,62 /wcal/month.php,200,OK,Crear actividad (Carga pesada) 1-48,text,true,,8612,0,50,50,23326,0,0
1494375786951,23583,62 /wcal/month.php,200,OK,Crear actividad (Carga pesada) 1-44,text,true,,8612,0,50,50,23582,0,0
1494375809882,664,63 /wcal/js_cacher.php,200,OK,Crear actividad (Carga pesada) 1-39,text,true,,2370,0,50,50,664,0,0
1494375809998,655,63 /wcal/js_cacher.php,200,OK,Crear actividad (Carga pesada) 1-32,text,true,,2370,0,50,50,655,0,0
1494375786692,24251,62 /wcal/month.php,200,OK,Crear actividad (Carga pesada) 1-33,text,true,,8612,0,50,50,24250,0,0
1494375786951,24013,62 /wcal/month.php,200,OK,Crear actividad (Carga pesada) 1-31,text,true,,8612,0,50,50,24012,0,0
1494375810535,498,63 /wcal/js_cacher.php,200,OK,Crear actividad (Carga pesada) 1-44,text,true,,2370,0,50,50,498,0,0
1494375810535,532,63 /wcal/js_cacher.php,200,OK,Crear actividad (Carga pesada) 1-48,text,true,,2370,0,50,50,532,0,0
1494375786951,24125,62 /wcal/month.php,200,OK,Crear actividad (Carga pesada) 1-45,text,true,,8612,0,50,50,24124,0,0
1494375801264,9970,64 /wcal/week.php,200,OK,Crear actividad (Carga pesada) 1-14,text,true,,4705,0,50,50,9970,0,0
1494375787207,24027,62 /wcal/month.php,200,OK,Crear actividad (Carga pesada) 1-37,text,true,,8612,0,50,50,24027,0,0
1494375786819,24426,62 /wcal/month.php,200,OK,Crear actividad (Carga pesada) 1-35,text,true,,8612,0,50,50,24425,0,0
1494375786951,24347,62 /wcal/month.php,200,OK,Crear actividad (Carga pesada) 1-42,text,true,,8612,0,50,50,24346,0,0
1494375786954,24362,62 /wcal/month.php,200,OK,Crear actividad (Carga pesada) 1-49,text,true,,8612,0,50,50,24361,0,0
1494375787332,24091,62 /wcal/month.php,200,OK,Crear actividad (Carga pesada) 1-41,text,true,,8612,0,50,50,24090,0,0
1494375801622,9842,64 /wcal/week.php,200,OK,Crear actividad (Carga pesada) 1-22,text,true,,4705,0,50,50,9841,0,0
1494375787332,24199,62 /wcal/month.php,200,OK,Crear actividad (Carga pesada) 1-50,text,true,,8612,0,50,50,24198,0,0
1494375810966,601,63 /wcal/js_cacher.php,200,OK,Crear actividad (Carga pesada) 1-31,text,true,,2370,0,50,50,601,0,0
1494375810945,640,63 /wcal/js_cacher.php,200,OK,Crear actividad (Carga pesada) 1-33,text,true,,2370,0,50,50,640,0,0
1494375787332,24273,62 /wcal/month.php,200,OK,Crear actividad (Carga pesada) 1-46,text,true,,8612,0,50,50,24272,0,0
1494375787204,24467,62 /wcal/month.php,200,OK,Crear actividad (Carga pesada) 1-47,text,true,,8612,0,50,50,24466,0,0
1494375811078,671,63 /wcal/js_cacher.php,200,OK,Crear actividad (Carga pesada) 1-45,text,true,,2370,0,50,50,670,0,0
1494375811300,566,63 /wcal/js_cacher.php,200,OK,Crear actividad (Carga pesada) 1-42,text,true,,2370,0,50,50,566,0,0
1494375811318,583,63 /wcal/js_cacher.php,200,OK,Crear actividad (Carga pesada) 1-49,text,true,,2370,0,50,50,582,0,0
1494375811236,668,63 /wcal/js_cacher.php,200,OK,Crear actividad (Carga pesada) 1-37,text,true,,2370,0,50,50,668,0,0
1494375811247,672,63 /wcal/js_cacher.php,200,OK,Crear actividad (Carga pesada) 1-35,text,true,,2370,0,50,50,672,0,0
1494375787204,24779,62 /wcal/month.php,200,OK,Crear actividad (Carga pesada) 1-43,text,true,,8612,0,50,50,24778,0,0
1494375811425,635,63 /wcal/js_cacher.php,200,OK,Crear actividad (Carga pesada) 1-41,text,true,,2370,0,50,50,635,0,0
1494375811533,718,63 /wcal/js_cacher.php,200,OK,Crear actividad (Carga pesada) 1-50,text,true,,2370,0,50,50,718,0,0
1494375811607,711,63 /wcal/js_cacher.php,200,OK,Crear actividad (Carga pesada) 1-46,text,true,,2370,0,50,50,711,0,0
1494375787204,25238,62 /wcal/month.php,200,OK,Crear actividad (Carga pesada) 1-40,text,true,,8612,0,50,50,25237,0,0
1494375811673,886,63 /wcal/js_cacher.php,200,OK,Crear actividad (Carga pesada) 1-47,text,true,,2370,0,50,50,886,0,0
1494375811985,621,63 /wcal/js_cacher.php,200,OK,Crear actividad (Carga pesada) 1-43,text,true,,2370,0,50,50,621,0,0
1494375803651,9433,64 /wcal/week.php,200,OK,Crear actividad (Carga pesada) 1-24,text,true,,4705,0,50,50,9432,0,0
1494375812444,693,63 /wcal/js_cacher.php,200,OK,Crear actividad (Carga pesada) 1-40,text,true,,2370,0,50,50,693,0,0
1494375803978,9741,64 /wcal/week.php,200,OK,Crear actividad (Carga pesada) 1-17,text,true,,4705,0,50,50,9741,0,0
1494375804218,9775,64 /wcal/week.php,200,OK,Crear actividad (Carga pesada) 1-16,text,true,,4705,0,50,50,9774,0,0
1494375805065,9490,64 /wcal/week.php,200,OK,Crear actividad (Carga pesada) 1-30,text,true,,4705,0,50,50,9489,0,0
1494375807055,8638,64 /wcal/week.php,200,OK,Crear actividad (Carga pesada) 1-23,text,true,,4705,0,50,50,8638,0,0
1494375807311,9392,64 /wcal/week.php,200,OK,Crear actividad (Carga pesada) 1-29,text,true,,4705,0,50,50,9392,0,0
1494375807563,9524,64 /wcal/week.php,200,OK,Crear actividad (Carga pesada) 1-26,text,true,,4705,0,50,50,9524,0,0
1494375808846,8570,64 /wcal/week.php,200,OK,Crear actividad (Carga pesada) 1-28,text,true,,4705,0,50,50,8569,0,0
1494375808778,8854,64 /wcal/week.php,200,OK,Crear actividad (Carga pesada) 1-27,text,true,,4705,0,50,50,8853,0,0
1494375808743,9071,64 /wcal/week.php,200,OK,Crear actividad (Carga pesada) 1-25,text,true,,4705,0,50,50,9070,0,0
1494375809494,8552,64 /wcal/week.php,200,OK,Crear actividad (Carga pesada) 1-38,text,true,,4705,0,50,50,8551,0,0
1494375809940,8520,64 /wcal/week.php,200,OK,Crear actividad (Carga pesada) 1-34,text,true,,4705,0,50,50,8520,0,0
1494375810547,8126,64 /wcal/week.php,200,OK,Crear actividad (Carga pesada) 1-39,text,true,,4705,0,50,50,8126,0,0
1494375809792,9134,64 /wcal/week.php,200,OK,Crear actividad (Carga pesada) 1-36,text,true,,4705,0,50,50,9133,0,0
1494375810654,8360,64 /wcal/week.php,200,OK,Crear actividad (Carga pesada) 1-32,text,true,,4705,0,50,50,8360,0,0
1494375811750,7301,64 /wcal/week.php,200,OK,Crear actividad (Carga pesada) 1-45,text,true,,4705,0,50,50,7300,0,0
1494375811588,7524,64 /wcal/week.php,200,OK,Crear actividad (Carga pesada) 1-33,text,true,,4705,0,50,50,7523,0,0
1494375811069,8076,64 /wcal/week.php,200,OK,Crear actividad (Carga pesada) 1-48,text,true,,4705,0,50,50,8076,0,0
1494375811920,7252,64 /wcal/week.php,200,OK,Crear actividad (Carga pesada) 1-35,text,true,,4705,0,50,50,7251,0,0
1494375811568,7668,64 /wcal/week.php,200,OK,Crear actividad (Carga pesada) 1-31,text,true,,4705,0,50,50,7668,0,0
1494375811902,7385,64 /wcal/week.php,200,OK,Crear actividad (Carga pesada) 1-49,text,true,,4705,0,50,50,7384,0,0
1494375811867,7452,64 /wcal/week.php,200,OK,Crear actividad (Carga pesada) 1-42,text,true,,4705,0,50,50,7451,0,0
1494375811905,7599,64 /wcal/week.php,200,OK,Crear actividad (Carga pesada) 1-37,text,true,,4705,0,50,50,7598,0,0
1494375812252,7280,64 /wcal/week.php,200,OK,Crear actividad (Carga pesada) 1-50,text,true,,4705,0,50,50,7279,0,0
1494375811035,8498,64 /wcal/week.php,200,OK,Crear actividad (Carga pesada) 1-44,text,true,,4705,0,50,50,8498,0,0
1494375812607,6958,64 /wcal/week.php,200,OK,Crear actividad (Carga pesada) 1-43,text,true,,4705,0,50,50,6957,0,0
1494375812061,7509,64 /wcal/week.php,200,OK,Crear actividad (Carga pesada) 1-41,text,true,,4705,0,50,50,7509,0,0
1494375812319,7277,64 /wcal/week.php,200,OK,Crear actividad (Carga pesada) 1-46,text,true,,4705,0,50,50,7277,0,0
1494375812560,7041,64 /wcal/week.php,200,OK,Crear actividad (Carga pesada) 1-47,text,true,,4705,0,50,50,7040,0,0
1494375813138,6468,64 /wcal/week.php,200,OK,Crear actividad (Carga pesada) 1-40,text,true,,4705,0,50,50,6468,0,0
1494375744563,127247,68 /success.txt,Non HTTP response code: java.net.ConnectException,Non HTTP response message: Expiró el tiempo de conexión (Connection timed out),Crear actividad (Carga pesada) 1-1,text,false,,1818,0,50,50,0,0,0
1494375871814,248,69 /wcal/view_entry.php,200,OK,Crear actividad (Carga pesada) 1-1,text,true,,2714,0,50,50,247,0,0
1494375748714,127319,68 /success.txt,Non HTTP response code: java.net.ConnectException,Non HTTP response message: Expiró el tiempo de conexión (Connection timed out),Crear actividad (Carga pesada) 1-2,text,false,,1818,0,50,50,0,0,0
1494375876035,97,69 /wcal/view_entry.php,200,OK,Crear actividad (Carga pesada) 1-2,text,true,,2713,0,50,50,97,0,0
1494375754212,127197,68 /success.txt,Non HTTP response code: java.net.ConnectException,Non HTTP response message: Expiró el tiempo de conexión (Connection timed out),Crear actividad (Carga pesada) 1-3,text,false,,1818,0,50,50,0,0,0
1494375762268,127333,68 /success.txt,Non HTTP response code: java.net.ConnectException,Non HTTP response message: Expiró el tiempo de conexión (Connection timed out),Crear actividad (Carga pesada) 1-4,text,false,,1818,0,49,49,0,0,0
1494375764888,127273,68 /success.txt,Non HTTP response code: java.net.ConnectException,Non HTTP response message: Expiró el tiempo de conexión (Connection timed out),Crear actividad (Carga pesada) 1-5,text,false,,1818,0,48,48,0,0,0
1494375767448,127273,68 /success.txt,Non HTTP response code: java.net.ConnectException,Non HTTP response message: Expiró el tiempo de conexión (Connection timed out),Crear actividad (Carga pesada) 1-7,text,false,,1818,0,47,47,0,0,0
1494375767535,127186,68 /success.txt,Non HTTP response code: java.net.ConnectException,Non HTTP response message: Expiró el tiempo de conexión (Connection timed out),Crear actividad (Carga pesada) 1-6,text,false,,1818,0,47,47,0,0,0
1494375779840,127297,68 /success.txt,Non HTTP response code: java.net.ConnectException,Non HTTP response message: Expiró el tiempo de conexión (Connection timed out),Crear actividad (Carga pesada) 1-8,text,false,,1818,0,45,45,0,0,0
1494375780030,127235,68 /success.txt,Non HTTP response code: java.net.ConnectException,Non HTTP response message: Expiró el tiempo de conexión (Connection timed out),Crear actividad (Carga pesada) 1-10,text,false,,1818,0,44,44,0,0,0
1494375780009,127256,68 /success.txt,Non HTTP response code: java.net.ConnectException,Non HTTP response message: Expiró el tiempo de conexión (Connection timed out),Crear actividad (Carga pesada) 1-9,text,false,,1818,0,44,44,0,0,0
1494375783712,127266,68 /success.txt,Non HTTP response code: java.net.ConnectException,Non HTTP response message: Expiró el tiempo de conexión (Connection timed out),Crear actividad (Carga pesada) 1-11,text,false,,1818,0,42,42,0,0,0
1494375794690,127167,68 /success.txt,Non HTTP response code: java.net.ConnectException,Non HTTP response message: Expiró el tiempo de conexión (Connection timed out),Crear actividad (Carga pesada) 1-13,text,false,,1818,0,41,41,0,0,0
1494375802164,127246,68 /success.txt,Non HTTP response code: java.net.ConnectException,Non HTTP response message: Expiró el tiempo de conexión (Connection timed out),Crear actividad (Carga pesada) 1-19,text,false,,1818,0,40,40,0,0,0
1494375802881,127168,68 /success.txt,Non HTTP response code: java.net.ConnectException,Non HTTP response message: Expiró el tiempo de conexión (Connection timed out),Crear actividad (Carga pesada) 1-12,text,false,,1818,0,39,39,0,0,0
1494375804621,127220,68 /success.txt,Non HTTP response code: java.net.ConnectException,Non HTTP response message: Expiró el tiempo de conexión (Connection timed out),Crear actividad (Carga pesada) 1-18,text,false,,1818,0,38,38,0,0,0
1494375806534,127227,68 /success.txt,Non HTTP response code: java.net.ConnectException,Non HTTP response message: Expiró el tiempo de conexión (Connection timed out),Crear actividad (Carga pesada) 1-20,text,false,,1818,0,37,37,0,0,0
1494375808351,127330,68 /success.txt,Non HTTP response code: java.net.ConnectException,Non HTTP response message: Expiró el tiempo de conexión (Connection timed out),Crear actividad (Carga pesada) 1-15,text,false,,1818,0,36,36,0,0,0
1494375809714,127247,68 /success.txt,Non HTTP response code: java.net.ConnectException,Non HTTP response message: Expiró el tiempo de conexión (Connection timed out),Crear actividad (Carga pesada) 1-21,text,false,,1818,0,35,35,0,0,0
1494375811236,127262,68 /success.txt,Non HTTP response code: java.net.ConnectException,Non HTTP response message: Expiró el tiempo de conexión (Connection timed out),Crear actividad (Carga pesada) 1-14,text,false,,1818,0,34,34,0,0,0
1494375811466,127288,68 /success.txt,Non HTTP response code: java.net.ConnectException,Non HTTP response message: Expiró el tiempo de conexión (Connection timed out),Crear actividad (Carga pesada) 1-22,text,false,,1818,0,33,33,0,0,0
1494375813086,127204,68 /success.txt,Non HTTP response code: java.net.ConnectException,Non HTTP response message: Expiró el tiempo de conexión (Connection timed out),Crear actividad (Carga pesada) 1-24,text,false,,1818,0,32,32,0,0,0
1494375813721,127337,68 /success.txt,Non HTTP response code: java.net.ConnectException,Non HTTP response message: Expiró el tiempo de conexión (Connection timed out),Crear actividad (Carga pesada) 1-17,text,false,,1818,0,31,31,0,0,0
1494375813995,127319,68 /success.txt,Non HTTP response code: java.net.ConnectException,Non HTTP response message: Expiró el tiempo de conexión (Connection timed out),Crear actividad (Carga pesada) 1-16,text,false,,1818,0,30,30,0,0,0
1494375814557,127269,68 /success.txt,Non HTTP response code: java.net.ConnectException,Non HTTP response message: Expiró el tiempo de conexión (Connection timed out),Crear actividad (Carga pesada) 1-30,text,false,,1818,0,29,29,0,0,0
1494375815695,127283,68 /success.txt,Non HTTP response code: java.net.ConnectException,Non HTTP response message: Expiró el tiempo de conexión (Connection timed out),Crear actividad (Carga pesada) 1-23,text,false,,1818,0,28,28,0,0,0
1494375816704,127169,68 /success.txt,Non HTTP response code: java.net.ConnectException,Non HTTP response message: Expiró el tiempo de conexión (Connection timed out),Crear actividad (Carga pesada) 1-29,text,false,,1818,0,27,27,0,0,0
1494375817088,127297,68 /success.txt,Non HTTP response code: java.net.ConnectException,Non HTTP response message: Expiró el tiempo de conexión (Connection timed out),Crear actividad (Carga pesada) 1-26,text,false,,1818,0,26,26,0,0,0
1494375817417,127224,68 /success.txt,Non HTTP response code: java.net.ConnectException,Non HTTP response message: Expiró el tiempo de conexión (Connection timed out),Crear actividad (Carga pesada) 1-28,text,false,,1818,0,25,25,0,0,0
1494375817633,127264,68 /success.txt,Non HTTP response code: java.net.ConnectException,Non HTTP response message: Expiró el tiempo de conexión (Connection timed out),Crear actividad (Carga pesada) 1-27,text,false,,1818,0,24,24,0,0,0
1494375817815,127210,68 /success.txt,Non HTTP response code: java.net.ConnectException,Non HTTP response message: Expiró el tiempo de conexión (Connection timed out),Crear actividad (Carga pesada) 1-25,text,false,,1818,0,23,23,0,0,0
1494375818047,127234,68 /success.txt,Non HTTP response code: java.net.ConnectException,Non HTTP response message: Expiró el tiempo de conexión (Connection timed out),Crear actividad (Carga pesada) 1-38,text,false,,1818,0,22,22,0,0,0
1494375818462,127203,68 /success.txt,Non HTTP response code: java.net.ConnectException,Non HTTP response message: Expiró el tiempo de conexión (Connection timed out),Crear actividad (Carga pesada) 1-34,text,false,,1818,0,21,21,0,0,0
1494375818674,127247,68 /success.txt,Non HTTP response code: java.net.ConnectException,Non HTTP response message: Expiró el tiempo de conexión (Connection timed out),Crear actividad (Carga pesada) 1-39,text,false,,1818,0,20,20,0,0,0
1494375818927,127250,68 /success.txt,Non HTTP response code: java.net.ConnectException,Non HTTP response message: Expiró el tiempo de conexión (Connection timed out),Crear actividad (Carga pesada) 1-36,text,false,,1818,0,19,19,0,0,0
1494375819015,127290,68 /success.txt,Non HTTP response code: java.net.ConnectException,Non HTTP response message: Expiró el tiempo de conexión (Connection timed out),Crear actividad (Carga pesada) 1-32,text,false,,1818,0,18,18,0,0,0
1494375819051,127254,68 /success.txt,Non HTTP response code: java.net.ConnectException,Non HTTP response message: Expiró el tiempo de conexión (Connection timed out),Crear actividad (Carga pesada) 1-45,text,false,,1818,0,18,18,0,0,0
1494375819172,127261,68 /success.txt,Non HTTP response code: java.net.ConnectException,Non HTTP response message: Expiró el tiempo de conexión (Connection timed out),Crear actividad (Carga pesada) 1-35,text,false,,1818,0,16,16,0,0,0
1494375819112,127321,68 /success.txt,Non HTTP response code: java.net.ConnectException,Non HTTP response message: Expiró el tiempo de conexión (Connection timed out),Crear actividad (Carga pesada) 1-33,text,false,,1818,0,16,16,0,0,0
1494375819236,127200,68 /success.txt,Non HTTP response code: java.net.ConnectException,Non HTTP response message: Expiró el tiempo de conexión (Connection timed out),Crear actividad (Carga pesada) 1-31,text,false,,1818,0,14,14,0,0,0
1494375819145,127291,68 /success.txt,Non HTTP response code: java.net.ConnectException,Non HTTP response message: Expiró el tiempo de conexión (Connection timed out),Crear actividad (Carga pesada) 1-48,text,false,,1818,0,14,14,0,0,0
1494375819287,127274,68 /success.txt,Non HTTP response code: java.net.ConnectException,Non HTTP response message: Expiró el tiempo de conexión (Connection timed out),Crear actividad (Carga pesada) 1-49,text,false,,1818,0,12,12,0,0,0
1494375819319,127242,68 /success.txt,Non HTTP response code: java.net.ConnectException,Non HTTP response message: Expiró el tiempo de conexión (Connection timed out),Crear actividad (Carga pesada) 1-42,text,false,,1818,0,12,12,0,0,0
1494375819504,127185,68 /success.txt,Non HTTP response code: java.net.ConnectException,Non HTTP response message: Expiró el tiempo de conexión (Connection timed out),Crear actividad (Carga pesada) 1-37,text,false,,1818,0,10,10,0,0,0
1494375819596,127221,68 /success.txt,Non HTTP response code: java.net.ConnectException,Non HTTP response message: Expiró el tiempo de conexión (Connection timed out),Crear actividad (Carga pesada) 1-46,text,false,,1818,0,9,9,0,0,0
1494375819533,127284,68 /success.txt,Non HTTP response code: java.net.ConnectException,Non HTTP response message: Expiró el tiempo de conexión (Connection timed out),Crear actividad (Carga pesada) 1-44,text,false,,1818,0,9,9,0,0,0
1494375819601,127217,68 /success.txt,Non HTTP response code: java.net.ConnectException,Non HTTP response message: Expiró el tiempo de conexión (Connection timed out),Crear actividad (Carga pesada) 1-47,text,false,,1818,0,9,9,0,0,0
1494375819532,127288,68 /success.txt,Non HTTP response code: java.net.ConnectException,Non HTTP response message: Expiró el tiempo de conexión (Connection timed out),Crear actividad (Carga pesada) 1-50,text,false,,1818,0,7,7,0,0,0
1494375819570,127250,68 /success.txt,Non HTTP response code: java.net.ConnectException,Non HTTP response message: Expiró el tiempo de conexión (Connection timed out),Crear actividad (Carga pesada) 1-41,text,false,,1818,0,7,7,0,0,0
1494375819565,127256,68 /success.txt,Non HTTP response code: java.net.ConnectException,Non HTTP response message: Expiró el tiempo de conexión (Connection timed out),Crear actividad (Carga pesada) 1-43,text,false,,1818,0,7,7,0,0,0
1494375819606,127214,68 /success.txt,Non HTTP response code: java.net.ConnectException,Non HTTP response message: Expiró el tiempo de conexión (Connection timed out),Crear actividad (Carga pesada) 1-40,text,false,,1818,0,6,6,0,0,0
1494375872063,127234,70 /success.txt,Non HTTP response code: java.net.ConnectException,Non HTTP response message: Expiró el tiempo de conexión (Connection timed out),Crear actividad (Carga pesada) 1-1,text,false,,1818,0,2,2,0,0,0
1494375876133,127260,70 /success.txt,Non HTTP response code: java.net.ConnectException,Non HTTP response message: Expiró el tiempo de conexión (Connection timed out),Crear actividad (Carga pesada) 1-2,text,false,,1818,0,1,1,0,0,0
