timeStamp,elapsed,label,responseCode,responseMessage,threadName,dataType,success,failureMessage,bytes,sentBytes,grpThreads,allThreads,Latency,IdleTime,Connect
1494603772491,1338,31 /wcal/index.php,200,OK,Crear actividad (Carga pesada) 1-1,text,true,,9770,0,1,1,144,0,0
1494603773835,21,38 /wcal/js_cacher.php,200,OK,Crear actividad (Carga pesada) 1-1,text,true,,4167,0,1,1,21,0,0
1494603773860,51,41 /wcal/css_cacher.php,200,OK,Crear actividad (Carga pesada) 1-1,text,true,,4338,0,1,1,50,0,0
1494603773915,60,38 /wcal/js_cacher.php,200,OK,Crear actividad (Carga pesada) 1-1,text,true,,2370,0,1,1,60,0,0
1494603773979,1324,56 /wcal/index.php,200,OK,Crear actividad (Carga pesada) 1-1,text,true,,9769,0,2,2,85,0,0
1494603773990,1323,31 /wcal/index.php,200,OK,Crear actividad (Carga pesada) 1-2,text,true,,9770,0,2,2,110,0,0
1494603775318,21,38 /wcal/js_cacher.php,200,OK,Crear actividad (Carga pesada) 1-2,text,true,,4167,0,2,2,21,0,0
1494603775309,59,58 /wcal/js_cacher.php,200,OK,Crear actividad (Carga pesada) 1-1,text,true,,2370,0,2,2,59,0,0
1494603775343,69,41 /wcal/css_cacher.php,200,OK,Crear actividad (Carga pesada) 1-2,text,true,,4338,0,2,2,68,0,0
1494603775415,56,38 /wcal/js_cacher.php,200,OK,Crear actividad (Carga pesada) 1-2,text,true,,2370,0,2,2,56,0,0
1494603775372,1297,59 /wcal/month.php,200,OK,Crear actividad (Carga pesada) 1-1,text,true,,8849,0,3,3,1296,0,0
1494603776673,73,60 /wcal/js_cacher.php,200,OK,Crear actividad (Carga pesada) 1-1,text,true,,2370,0,3,3,73,0,0
1494603775532,1546,31 /wcal/index.php,200,OK,Crear actividad (Carga pesada) 1-3,text,true,,9770,0,4,4,168,0,0
1494603777083,19,38 /wcal/js_cacher.php,200,OK,Crear actividad (Carga pesada) 1-3,text,true,,4167,0,4,4,18,0,0
1494603775475,1645,56 /wcal/index.php,200,OK,Crear actividad (Carga pesada) 1-2,text,true,,9769,0,4,4,236,0,0
1494603777106,79,41 /wcal/css_cacher.php,200,OK,Crear actividad (Carga pesada) 1-3,text,true,,4338,0,4,4,79,0,0
1494603777124,72,58 /wcal/js_cacher.php,200,OK,Crear actividad (Carga pesada) 1-2,text,true,,2370,0,4,4,72,0,0
1494603777189,48,38 /wcal/js_cacher.php,200,OK,Crear actividad (Carga pesada) 1-3,text,true,,2370,0,4,4,48,0,0
1494603777200,1386,59 /wcal/month.php,200,OK,Crear actividad (Carga pesada) 1-2,text,true,,8849,0,4,4,1384,0,0
1494603778590,142,60 /wcal/js_cacher.php,200,OK,Crear actividad (Carga pesada) 1-2,text,true,,2370,0,5,5,141,0,0
1494603777241,1635,56 /wcal/index.php,200,OK,Crear actividad (Carga pesada) 1-3,text,true,,9769,0,5,5,199,0,0
1494603778880,66,58 /wcal/js_cacher.php,200,OK,Crear actividad (Carga pesada) 1-3,text,true,,2370,0,5,5,66,0,0
1494603777083,1879,31 /wcal/index.php,200,OK,Crear actividad (Carga pesada) 1-4,text,true,,9769,0,5,5,93,0,0
1494603778966,19,38 /wcal/js_cacher.php,200,OK,Crear actividad (Carga pesada) 1-4,text,true,,4167,0,5,5,19,0,0
1494603778988,71,41 /wcal/css_cacher.php,200,OK,Crear actividad (Carga pesada) 1-4,text,true,,4338,0,5,5,71,0,0
1494603779062,62,38 /wcal/js_cacher.php,200,OK,Crear actividad (Carga pesada) 1-4,text,true,,2370,0,5,5,62,0,0
1494603778949,1500,59 /wcal/month.php,200,OK,Crear actividad (Carga pesada) 1-3,text,true,,8849,0,6,6,1499,0,0
1494603780463,124,60 /wcal/js_cacher.php,200,OK,Crear actividad (Carga pesada) 1-3,text,true,,2370,0,6,6,123,0,0
1494603779127,1749,56 /wcal/index.php,200,OK,Crear actividad (Carga pesada) 1-4,text,true,,9769,0,6,6,117,0,0
1494603778637,2267,31 /wcal/index.php,200,OK,Crear actividad (Carga pesada) 1-5,text,true,,9770,0,6,6,172,0,0
1494603780907,20,38 /wcal/js_cacher.php,200,OK,Crear actividad (Carga pesada) 1-5,text,true,,4167,0,6,6,20,0,0
1494603780880,78,58 /wcal/js_cacher.php,200,OK,Crear actividad (Carga pesada) 1-4,text,true,,2370,0,6,6,78,0,0
1494603780930,62,41 /wcal/css_cacher.php,200,OK,Crear actividad (Carga pesada) 1-5,text,true,,4338,0,6,6,61,0,0
1494603780995,95,38 /wcal/js_cacher.php,200,OK,Crear actividad (Carga pesada) 1-5,text,true,,2370,0,6,6,95,0,0
1494603780184,2002,31 /wcal/index.php,200,OK,Crear actividad (Carga pesada) 1-6,text,true,,9769,0,7,7,287,0,0
1494603782189,23,38 /wcal/js_cacher.php,200,OK,Crear actividad (Carga pesada) 1-6,text,true,,4167,0,7,7,22,0,0
1494603782214,132,41 /wcal/css_cacher.php,200,OK,Crear actividad (Carga pesada) 1-6,text,true,,4338,0,7,7,131,0,0
1494603782348,97,38 /wcal/js_cacher.php,200,OK,Crear actividad (Carga pesada) 1-6,text,true,,2370,0,7,7,97,0,0
1494603780961,1647,59 /wcal/month.php,200,OK,Crear actividad (Carga pesada) 1-4,text,true,,8849,0,7,7,1646,0,0
1494603782610,153,60 /wcal/js_cacher.php,200,OK,Crear actividad (Carga pesada) 1-4,text,true,,2370,0,7,7,153,0,0
1494603781093,2042,56 /wcal/index.php,200,OK,Crear actividad (Carga pesada) 1-5,text,true,,9769,0,7,7,151,0,0
1494603783136,75,58 /wcal/js_cacher.php,200,OK,Crear actividad (Carga pesada) 1-5,text,true,,2370,0,7,7,75,0,0
1494603781710,1713,31 /wcal/index.php,200,OK,Crear actividad (Carga pesada) 1-7,text,true,,9769,0,8,8,164,0,0
1494603783424,19,38 /wcal/js_cacher.php,200,OK,Crear actividad (Carga pesada) 1-7,text,true,,4167,0,8,8,18,0,0
1494603783445,118,41 /wcal/css_cacher.php,200,OK,Crear actividad (Carga pesada) 1-7,text,true,,4338,0,8,8,117,0,0
1494603783566,103,38 /wcal/js_cacher.php,200,OK,Crear actividad (Carga pesada) 1-7,text,true,,2370,0,8,8,103,0,0
1494603782447,2271,56 /wcal/index.php,200,OK,Crear actividad (Carga pesada) 1-6,text,true,,9769,0,8,8,140,0,0
1494603784721,74,58 /wcal/js_cacher.php,200,OK,Crear actividad (Carga pesada) 1-6,text,true,,2370,0,9,9,74,0,0
1494603783214,2256,59 /wcal/month.php,200,OK,Crear actividad (Carga pesada) 1-5,text,true,,8849,0,9,9,2254,0,0
1494603783238,2233,31 /wcal/index.php,200,OK,Crear actividad (Carga pesada) 1-8,text,true,,9769,0,9,9,184,0,0
1494603785474,24,38 /wcal/js_cacher.php,200,OK,Crear actividad (Carga pesada) 1-8,text,true,,4167,0,9,9,23,0,0
1494603785473,145,60 /wcal/js_cacher.php,200,OK,Crear actividad (Carga pesada) 1-5,text,true,,2370,0,9,9,145,0,0
1494603785500,139,41 /wcal/css_cacher.php,200,OK,Crear actividad (Carga pesada) 1-8,text,true,,4338,0,9,9,138,0,0
1494603785641,92,38 /wcal/js_cacher.php,200,OK,Crear actividad (Carga pesada) 1-8,text,true,,2370,0,9,9,92,0,0
1494603783671,2403,56 /wcal/index.php,200,OK,Crear actividad (Carga pesada) 1-7,text,true,,9769,0,9,9,208,0,0
1494603786077,96,58 /wcal/js_cacher.php,200,OK,Crear actividad (Carga pesada) 1-7,text,true,,2370,0,9,9,96,0,0
1494603784797,2237,59 /wcal/month.php,200,OK,Crear actividad (Carga pesada) 1-6,text,true,,8849,0,10,10,2236,0,0
1494603787037,90,60 /wcal/js_cacher.php,200,OK,Crear actividad (Carga pesada) 1-6,text,true,,2370,0,10,10,90,0,0
1494603784781,2815,31 /wcal/index.php,200,OK,Crear actividad (Carga pesada) 1-9,text,true,,9770,0,10,10,216,0,0
1494603787599,21,38 /wcal/js_cacher.php,200,OK,Crear actividad (Carga pesada) 1-9,text,true,,4167,0,10,10,21,0,0
1494603787623,109,41 /wcal/css_cacher.php,200,OK,Crear actividad (Carga pesada) 1-9,text,true,,4338,0,10,10,108,0,0
1494603787735,96,38 /wcal/js_cacher.php,200,OK,Crear actividad (Carga pesada) 1-9,text,true,,2370,0,10,10,95,0,0
1494603785736,2343,56 /wcal/index.php,200,OK,Crear actividad (Carga pesada) 1-8,text,true,,9769,0,10,10,128,0,0
1494603786175,1965,59 /wcal/month.php,200,OK,Crear actividad (Carga pesada) 1-7,text,true,,8849,0,10,10,1964,0,0
1494603788082,92,58 /wcal/js_cacher.php,200,OK,Crear actividad (Carga pesada) 1-8,text,true,,2370,0,10,10,92,0,0
1494603788143,74,60 /wcal/js_cacher.php,200,OK,Crear actividad (Carga pesada) 1-7,text,true,,2370,0,10,10,74,0,0
1494603786297,2081,31 /wcal/index.php,200,OK,Crear actividad (Carga pesada) 1-10,text,true,,9769,0,10,10,199,0,0
1494603788380,20,38 /wcal/js_cacher.php,200,OK,Crear actividad (Carga pesada) 1-10,text,true,,4167,0,10,10,19,0,0
1494603788402,72,41 /wcal/css_cacher.php,200,OK,Crear actividad (Carga pesada) 1-10,text,true,,4338,0,10,10,72,0,0
1494603788477,91,38 /wcal/js_cacher.php,200,OK,Crear actividad (Carga pesada) 1-10,text,true,,2370,0,10,10,91,0,0
1494603787833,1699,56 /wcal/index.php,200,OK,Crear actividad (Carga pesada) 1-9,text,true,,9769,0,10,10,141,0,0
1494603789535,75,58 /wcal/js_cacher.php,200,OK,Crear actividad (Carga pesada) 1-9,text,true,,2370,0,10,10,75,0,0
1494603788176,1808,59 /wcal/month.php,200,OK,Crear actividad (Carga pesada) 1-8,text,true,,8849,0,10,10,1807,0,0
1494603789987,80,60 /wcal/js_cacher.php,200,OK,Crear actividad (Carga pesada) 1-8,text,true,,2370,0,10,10,80,0,0
1494603788571,1693,56 /wcal/index.php,200,OK,Crear actividad (Carga pesada) 1-10,text,true,,9769,0,10,10,152,0,0
1494603790266,54,58 /wcal/js_cacher.php,200,OK,Crear actividad (Carga pesada) 1-10,text,true,,2370,0,10,10,54,0,0
1494603789613,1325,59 /wcal/month.php,200,OK,Crear actividad (Carga pesada) 1-9,text,true,,8849,0,10,10,1324,0,0
1494603790941,53,60 /wcal/js_cacher.php,200,OK,Crear actividad (Carga pesada) 1-9,text,true,,2370,0,10,10,53,0,0
1494603790322,1049,59 /wcal/month.php,200,OK,Crear actividad (Carga pesada) 1-10,text,true,,8849,0,10,10,1048,0,0
1494603791374,46,60 /wcal/js_cacher.php,200,OK,Crear actividad (Carga pesada) 1-10,text,true,,2370,0,10,10,46,0,0
1494603776749,127189,61 /success.txt,Non HTTP response code: java.net.ConnectException,Non HTTP response message: Connection timed out (Connection timed out),Crear actividad (Carga pesada) 1-1,text,false,,1808,0,10,10,0,0,0
1494603903946,1929,62 /wcal/month.php,200,OK,Crear actividad (Carga pesada) 1-1,text,true,,8612,0,10,10,1927,0,0
1494603905877,51,63 /wcal/js_cacher.php,200,OK,Crear actividad (Carga pesada) 1-1,text,true,,2370,0,10,10,51,0,0
1494603778736,127250,61 /success.txt,Non HTTP response code: java.net.ConnectException,Non HTTP response message: Connection timed out (Connection timed out),Crear actividad (Carga pesada) 1-2,text,false,,1808,0,10,10,0,0,0
1494603905930,643,64 /wcal/week.php,200,OK,Crear actividad (Carga pesada) 1-1,text,true,,4705,0,10,10,642,0,0
1494603905989,1108,62 /wcal/month.php,200,OK,Crear actividad (Carga pesada) 1-2,text,true,,8612,0,10,10,1107,0,0
1494603907099,55,63 /wcal/js_cacher.php,200,OK,Crear actividad (Carga pesada) 1-2,text,true,,2370,0,10,10,55,0,0
1494603780589,127189,61 /success.txt,Non HTTP response code: java.net.ConnectException,Non HTTP response message: Connection timed out (Connection timed out),Crear actividad (Carga pesada) 1-3,text,false,,1808,0,10,10,0,0,0
1494603907157,722,64 /wcal/week.php,200,OK,Crear actividad (Carga pesada) 1-2,text,true,,4705,0,10,10,722,0,0
1494603907781,1182,62 /wcal/month.php,200,OK,Crear actividad (Carga pesada) 1-3,text,true,,8611,0,10,10,1181,0,0
1494603908965,53,63 /wcal/js_cacher.php,200,OK,Crear actividad (Carga pesada) 1-3,text,true,,2370,0,10,10,53,0,0
1494603909020,705,64 /wcal/week.php,200,OK,Crear actividad (Carga pesada) 1-3,text,true,,4705,0,10,10,704,0,0
1494603782765,127316,61 /success.txt,Non HTTP response code: java.net.ConnectException,Non HTTP response message: Connection timed out (Connection timed out),Crear actividad (Carga pesada) 1-4,text,false,,1808,0,10,10,0,0,0
1494603910085,1134,62 /wcal/month.php,200,OK,Crear actividad (Carga pesada) 1-4,text,true,,8611,0,10,10,1133,0,0
1494603911221,51,63 /wcal/js_cacher.php,200,OK,Crear actividad (Carga pesada) 1-4,text,true,,2370,0,10,10,51,0,0
1494603911274,727,64 /wcal/week.php,200,OK,Crear actividad (Carga pesada) 1-4,text,true,,4705,0,10,10,727,0,0
1494603785621,127276,61 /success.txt,Non HTTP response code: java.net.ConnectException,Non HTTP response message: Connection timed out (Connection timed out),Crear actividad (Carga pesada) 1-5,text,false,,1808,0,10,10,0,0,0
1494603912901,1284,62 /wcal/month.php,200,OK,Crear actividad (Carga pesada) 1-5,text,true,,8611,0,10,10,1283,0,0
1494603914187,79,63 /wcal/js_cacher.php,200,OK,Crear actividad (Carga pesada) 1-5,text,true,,2370,0,10,10,79,0,0
1494603787129,127304,61 /success.txt,Non HTTP response code: java.net.ConnectException,Non HTTP response message: Connection timed out (Connection timed out),Crear actividad (Carga pesada) 1-6,text,false,,1808,0,10,10,0,0,0
1494603914269,709,64 /wcal/week.php,200,OK,Crear actividad (Carga pesada) 1-5,text,true,,4705,0,10,10,709,0,0
1494603788219,127238,61 /success.txt,Non HTTP response code: java.net.ConnectException,Non HTTP response message: Connection timed out (Connection timed out),Crear actividad (Carga pesada) 1-7,text,false,,1808,0,10,10,0,0,0
1494603914437,1343,62 /wcal/month.php,200,OK,Crear actividad (Carga pesada) 1-6,text,true,,8612,0,10,10,1342,0,0
1494603915782,81,63 /wcal/js_cacher.php,200,OK,Crear actividad (Carga pesada) 1-6,text,true,,2370,0,10,10,81,0,0
1494603915866,791,64 /wcal/week.php,200,OK,Crear actividad (Carga pesada) 1-6,text,true,,4705,0,10,10,790,0,0
1494603915461,1352,62 /wcal/month.php,200,OK,Crear actividad (Carga pesada) 1-7,text,true,,8611,0,10,10,1350,0,0
1494603916815,51,63 /wcal/js_cacher.php,200,OK,Crear actividad (Carga pesada) 1-7,text,true,,2370,0,10,10,50,0,0
1494603790070,127179,61 /success.txt,Non HTTP response code: java.net.ConnectException,Non HTTP response message: Connection timed out (Connection timed out),Crear actividad (Carga pesada) 1-8,text,false,,1808,0,10,10,0,0,0
1494603916868,840,64 /wcal/week.php,200,OK,Crear actividad (Carga pesada) 1-7,text,true,,4705,0,10,10,839,0,0
1494603790996,127277,61 /success.txt,Non HTTP response code: java.net.ConnectException,Non HTTP response message: Connection timed out (Connection timed out),Crear actividad (Carga pesada) 1-9,text,false,,1808,0,10,10,0,0,0
1494603791423,127234,61 /success.txt,Non HTTP response code: java.net.ConnectException,Non HTTP response message: Connection timed out (Connection timed out),Crear actividad (Carga pesada) 1-10,text,false,,1808,0,10,10,0,0,0
1494603917253,1437,62 /wcal/month.php,200,OK,Crear actividad (Carga pesada) 1-8,text,true,,8611,0,10,10,1435,0,0
1494603918693,56,63 /wcal/js_cacher.php,200,OK,Crear actividad (Carga pesada) 1-8,text,true,,2370,0,10,10,56,0,0
1494603918752,922,64 /wcal/week.php,200,OK,Crear actividad (Carga pesada) 1-8,text,true,,4705,0,10,10,921,0,0
1494603918278,1396,62 /wcal/month.php,200,OK,Crear actividad (Carga pesada) 1-9,text,true,,8611,0,10,10,1394,0,0
1494603919677,54,63 /wcal/js_cacher.php,200,OK,Crear actividad (Carga pesada) 1-9,text,true,,2370,0,10,10,54,0,0
1494603919733,845,64 /wcal/week.php,200,OK,Crear actividad (Carga pesada) 1-9,text,true,,4705,0,10,10,844,0,0
1494603918662,2524,62 /wcal/month.php,200,OK,Crear actividad (Carga pesada) 1-10,text,true,,8612,0,10,10,2522,0,0
1494603921188,58,63 /wcal/js_cacher.php,200,OK,Crear actividad (Carga pesada) 1-10,text,true,,2370,0,10,10,57,0,0
1494603921249,744,64 /wcal/week.php,200,OK,Crear actividad (Carga pesada) 1-10,text,true,,4705,0,10,10,744,0,0
1494603906575,127282,68 /success.txt,Non HTTP response code: java.net.ConnectException,Non HTTP response message: Connection timed out (Connection timed out),Crear actividad (Carga pesada) 1-1,text,false,,1808,0,10,10,0,0,0
1494604033862,219,69 /wcal/view_entry.php,200,OK,Crear actividad (Carga pesada) 1-1,text,true,,2714,0,10,10,218,0,0
1494603907882,127255,68 /success.txt,Non HTTP response code: java.net.ConnectException,Non HTTP response message: Connection timed out (Connection timed out),Crear actividad (Carga pesada) 1-2,text,false,,1808,0,10,10,0,0,0
1494604035141,104,69 /wcal/view_entry.php,200,OK,Crear actividad (Carga pesada) 1-2,text,true,,2713,0,10,10,104,0,0
1494603909727,127330,68 /success.txt,Non HTTP response code: java.net.ConnectException,Non HTTP response message: Connection timed out (Connection timed out),Crear actividad (Carga pesada) 1-3,text,false,,1808,0,10,10,0,0,0
1494604037061,98,69 /wcal/view_entry.php,200,OK,Crear actividad (Carga pesada) 1-3,text,true,,2713,0,10,10,98,0,0
1494603912004,127229,68 /success.txt,Non HTTP response code: java.net.ConnectException,Non HTTP response message: Connection timed out (Connection timed out),Crear actividad (Carga pesada) 1-4,text,false,,1808,0,10,10,0,0,0
1494604039238,97,69 /wcal/view_entry.php,200,OK,Crear actividad (Carga pesada) 1-4,text,true,,2713,0,10,10,97,0,0
1494603914980,127197,68 /success.txt,Non HTTP response code: java.net.ConnectException,Non HTTP response message: Connection timed out (Connection timed out),Crear actividad (Carga pesada) 1-5,text,false,,1808,0,10,10,0,0,0
1494604042182,97,69 /wcal/view_entry.php,200,OK,Crear actividad (Carga pesada) 1-5,text,true,,2713,0,10,10,96,0,0
1494603916659,127311,68 /success.txt,Non HTTP response code: java.net.ConnectException,Non HTTP response message: Connection timed out (Connection timed out),Crear actividad (Carga pesada) 1-6,text,false,,1808,0,10,10,0,0,0
1494604043976,99,69 /wcal/view_entry.php,200,OK,Crear actividad (Carga pesada) 1-6,text,true,,2713,0,10,10,99,0,0
1494603917711,127282,68 /success.txt,Non HTTP response code: java.net.ConnectException,Non HTTP response message: Connection timed out (Connection timed out),Crear actividad (Carga pesada) 1-7,text,false,,1808,0,10,10,0,0,0
1494604044998,100,69 /wcal/view_entry.php,200,OK,Crear actividad (Carga pesada) 1-7,text,true,,2713,0,10,10,100,0,0
1494603919677,127237,68 /success.txt,Non HTTP response code: java.net.ConnectException,Non HTTP response message: Connection timed out (Connection timed out),Crear actividad (Carga pesada) 1-8,text,false,,1808,0,10,10,0,0,0
1494604046918,117,69 /wcal/view_entry.php,200,OK,Crear actividad (Carga pesada) 1-8,text,true,,2713,0,10,10,117,0,0
1494603920581,127228,68 /success.txt,Non HTTP response code: java.net.ConnectException,Non HTTP response message: Connection timed out (Connection timed out),Crear actividad (Carga pesada) 1-9,text,false,,1808,0,10,10,0,0,0
1494604047814,100,69 /wcal/view_entry.php,200,OK,Crear actividad (Carga pesada) 1-9,text,true,,2713,0,10,10,99,0,0
1494603921996,127222,68 /success.txt,Non HTTP response code: java.net.ConnectException,Non HTTP response message: Connection timed out (Connection timed out),Crear actividad (Carga pesada) 1-10,text,false,,1808,0,10,10,0,0,0
1494604049225,114,69 /wcal/view_entry.php,200,OK,Crear actividad (Carga pesada) 1-10,text,true,,2713,0,10,10,113,0,0
1494604034083,127262,70 /success.txt,Non HTTP response code: java.net.ConnectException,Non HTTP response message: Connection timed out (Connection timed out),Crear actividad (Carga pesada) 1-1,text,false,,1808,0,10,10,0,0,0
1494604035247,127250,70 /success.txt,Non HTTP response code: java.net.ConnectException,Non HTTP response message: Connection timed out (Connection timed out),Crear actividad (Carga pesada) 1-2,text,false,,1808,0,9,9,0,0,0
1494604037162,127255,70 /success.txt,Non HTTP response code: java.net.ConnectException,Non HTTP response message: Connection timed out (Connection timed out),Crear actividad (Carga pesada) 1-3,text,false,,1808,0,8,8,0,0,0
1494604039337,127257,70 /success.txt,Non HTTP response code: java.net.ConnectException,Non HTTP response message: Connection timed out (Connection timed out),Crear actividad (Carga pesada) 1-4,text,false,,1808,0,7,7,0,0,0
1494604042281,127257,70 /success.txt,Non HTTP response code: java.net.ConnectException,Non HTTP response message: Connection timed out (Connection timed out),Crear actividad (Carga pesada) 1-5,text,false,,1808,0,6,6,0,0,0
1494604044078,127251,70 /success.txt,Non HTTP response code: java.net.ConnectException,Non HTTP response message: Connection timed out (Connection timed out),Crear actividad (Carga pesada) 1-6,text,false,,1808,0,5,5,0,0,0
1494604045101,127252,70 /success.txt,Non HTTP response code: java.net.ConnectException,Non HTTP response message: Connection timed out (Connection timed out),Crear actividad (Carga pesada) 1-7,text,false,,1808,0,4,4,0,0,0
1494604047037,127236,70 /success.txt,Non HTTP response code: java.net.ConnectException,Non HTTP response message: Connection timed out (Connection timed out),Crear actividad (Carga pesada) 1-8,text,false,,1808,0,3,3,0,0,0
1494604047916,127253,70 /success.txt,Non HTTP response code: java.net.ConnectException,Non HTTP response message: Connection timed out (Connection timed out),Crear actividad (Carga pesada) 1-9,text,false,,1808,0,2,2,0,0,0
1494604049341,127236,70 /success.txt,Non HTTP response code: java.net.ConnectException,Non HTTP response message: Connection timed out (Connection timed out),Crear actividad (Carga pesada) 1-10,text,false,,1808,0,1,1,0,0,0
