timeStamp,elapsed,label,responseCode,responseMessage,threadName,dataType,success,failureMessage,bytes,sentBytes,grpThreads,allThreads,Latency,IdleTime,Connect
1494604733636,1363,31 /wcal/index.php,200,OK,Crear actividad (Carga pesada) 1-1,text,true,,9770,0,3,3,166,0,0
1494604735005,23,38 /wcal/js_cacher.php,200,OK,Crear actividad (Carga pesada) 1-1,text,true,,4167,0,3,3,22,0,0
1494604735032,79,41 /wcal/css_cacher.php,200,OK,Crear actividad (Carga pesada) 1-1,text,true,,4338,0,3,3,79,0,0
1494604735115,79,38 /wcal/js_cacher.php,200,OK,Crear actividad (Carga pesada) 1-1,text,true,,2370,0,4,4,79,0,0
1494604734118,1767,31 /wcal/index.php,200,OK,Crear actividad (Carga pesada) 1-2,text,true,,9770,0,5,5,147,0,0
1494604735889,22,38 /wcal/js_cacher.php,200,OK,Crear actividad (Carga pesada) 1-2,text,true,,4167,0,5,5,21,0,0
1494604735914,237,41 /wcal/css_cacher.php,200,OK,Crear actividad (Carga pesada) 1-2,text,true,,4338,0,5,5,236,0,0
1494604736155,123,38 /wcal/js_cacher.php,200,OK,Crear actividad (Carga pesada) 1-2,text,true,,2370,0,6,6,123,0,0
1494604734651,2503,31 /wcal/index.php,200,OK,Crear actividad (Carga pesada) 1-3,text,true,,9770,0,7,7,163,0,0
1494604737157,22,38 /wcal/js_cacher.php,200,OK,Crear actividad (Carga pesada) 1-3,text,true,,4167,0,7,7,22,0,0
1494604737183,153,41 /wcal/css_cacher.php,200,OK,Crear actividad (Carga pesada) 1-3,text,true,,4338,0,8,8,153,0,0
1494604737340,224,38 /wcal/js_cacher.php,200,OK,Crear actividad (Carga pesada) 1-3,text,true,,2370,0,8,8,224,0,0
1494604735198,4173,56 /wcal/index.php,200,OK,Crear actividad (Carga pesada) 1-1,text,true,,9769,0,11,11,200,0,0
1494604739376,259,58 /wcal/js_cacher.php,200,OK,Crear actividad (Carga pesada) 1-1,text,true,,2370,0,12,12,259,0,0
1494604735187,4577,31 /wcal/index.php,200,OK,Crear actividad (Carga pesada) 1-4,text,true,,9770,0,12,12,209,0,0
1494604739767,21,38 /wcal/js_cacher.php,200,OK,Crear actividad (Carga pesada) 1-4,text,true,,4167,0,12,12,21,0,0
1494604739791,251,41 /wcal/css_cacher.php,200,OK,Crear actividad (Carga pesada) 1-4,text,true,,4338,0,13,13,251,0,0
1494604740056,249,38 /wcal/js_cacher.php,200,OK,Crear actividad (Carga pesada) 1-4,text,true,,2370,0,13,13,249,0,0
1494604735725,5589,31 /wcal/index.php,200,OK,Crear actividad (Carga pesada) 1-5,text,true,,9770,0,15,15,302,0,0
1494604741316,19,38 /wcal/js_cacher.php,200,OK,Crear actividad (Carga pesada) 1-5,text,true,,4167,0,15,15,18,0,0
1494604741337,285,41 /wcal/css_cacher.php,200,OK,Crear actividad (Carga pesada) 1-5,text,true,,4338,0,16,16,284,0,0
1494604741624,327,38 /wcal/js_cacher.php,200,OK,Crear actividad (Carga pesada) 1-5,text,true,,2370,0,16,16,327,0,0
1494604736283,6319,56 /wcal/index.php,200,OK,Crear actividad (Carga pesada) 1-2,text,true,,9769,0,18,18,301,0,0
1494604736266,6624,31 /wcal/index.php,200,OK,Crear actividad (Carga pesada) 1-6,text,true,,9770,0,18,18,302,0,0
1494604742604,325,58 /wcal/js_cacher.php,200,OK,Crear actividad (Carga pesada) 1-2,text,true,,2370,0,18,18,325,0,0
1494604742892,63,38 /wcal/js_cacher.php,200,OK,Crear actividad (Carga pesada) 1-6,text,true,,4167,0,18,18,63,0,0
1494604742958,549,41 /wcal/css_cacher.php,200,OK,Crear actividad (Carga pesada) 1-6,text,true,,4338,0,19,19,549,0,0
1494604743510,410,38 /wcal/js_cacher.php,200,OK,Crear actividad (Carga pesada) 1-6,text,true,,2370,0,20,20,410,0,0
1494604736817,7604,31 /wcal/index.php,200,OK,Crear actividad (Carga pesada) 1-7,text,true,,9770,0,21,21,325,0,0
1494604744423,20,38 /wcal/js_cacher.php,200,OK,Crear actividad (Carga pesada) 1-7,text,true,,4167,0,21,21,20,0,0
1494604744446,514,41 /wcal/css_cacher.php,200,OK,Crear actividad (Carga pesada) 1-7,text,true,,4338,0,22,22,512,0,0
1494604744963,581,38 /wcal/js_cacher.php,200,OK,Crear actividad (Carga pesada) 1-7,text,true,,2370,0,23,23,581,0,0
1494604737335,8990,31 /wcal/index.php,200,OK,Crear actividad (Carga pesada) 1-8,text,true,,9770,0,25,25,421,0,0
1494604746328,30,38 /wcal/js_cacher.php,200,OK,Crear actividad (Carga pesada) 1-8,text,true,,4167,0,25,25,30,0,0
1494604746361,440,41 /wcal/css_cacher.php,200,OK,Crear actividad (Carga pesada) 1-8,text,true,,4338,0,26,26,439,0,0
1494604746805,496,38 /wcal/js_cacher.php,200,OK,Crear actividad (Carga pesada) 1-8,text,true,,2370,0,27,27,496,0,0
1494604737881,10108,31 /wcal/index.php,200,OK,Crear actividad (Carga pesada) 1-9,text,true,,9770,0,28,28,382,0,0
1494604747992,17,38 /wcal/js_cacher.php,200,OK,Crear actividad (Carga pesada) 1-9,text,true,,4167,0,28,28,17,0,0
1494604737567,10913,56 /wcal/index.php,200,OK,Crear actividad (Carga pesada) 1-3,text,true,,9769,0,29,29,362,0,0
1494604748012,685,41 /wcal/css_cacher.php,200,OK,Crear actividad (Carga pesada) 1-9,text,true,,4338,0,29,29,683,0,0
1494604738398,10379,31 /wcal/index.php,200,OK,Crear actividad (Carga pesada) 1-10,text,true,,9770,0,30,30,363,0,0
1494604748779,18,38 /wcal/js_cacher.php,200,OK,Crear actividad (Carga pesada) 1-10,text,true,,4167,0,30,30,18,0,0
1494604748483,653,58 /wcal/js_cacher.php,200,OK,Crear actividad (Carga pesada) 1-3,text,true,,2370,0,30,30,653,0,0
1494604748700,661,38 /wcal/js_cacher.php,200,OK,Crear actividad (Carga pesada) 1-9,text,true,,2370,0,30,30,660,0,0
1494604748800,646,41 /wcal/css_cacher.php,200,OK,Crear actividad (Carga pesada) 1-10,text,true,,4338,0,30,30,641,0,0
1494604749448,594,38 /wcal/js_cacher.php,200,OK,Crear actividad (Carga pesada) 1-10,text,true,,2370,0,30,30,594,0,0
1494604739638,11316,59 /wcal/month.php,200,OK,Crear actividad (Carga pesada) 1-1,text,true,,8849,0,30,30,11315,0,0
1494604750956,539,60 /wcal/js_cacher.php,200,OK,Crear actividad (Carga pesada) 1-1,text,true,,2370,0,30,30,539,0,0
1494604738923,14025,31 /wcal/index.php,200,OK,Crear actividad (Carga pesada) 1-11,text,true,,9770,0,30,30,542,0,0
1494604752951,51,38 /wcal/js_cacher.php,200,OK,Crear actividad (Carga pesada) 1-11,text,true,,4167,0,30,30,51,0,0
1494604753005,572,41 /wcal/css_cacher.php,200,OK,Crear actividad (Carga pesada) 1-11,text,true,,4338,0,30,30,571,0,0
1494604739446,14591,31 /wcal/index.php,200,OK,Crear actividad (Carga pesada) 1-12,text,true,,9770,0,30,30,599,0,0
1494604753579,493,38 /wcal/js_cacher.php,200,OK,Crear actividad (Carga pesada) 1-11,text,true,,2370,0,30,30,493,0,0
1494604754041,46,38 /wcal/js_cacher.php,200,OK,Crear actividad (Carga pesada) 1-12,text,true,,4167,0,30,30,46,0,0
1494604754089,505,41 /wcal/css_cacher.php,200,OK,Crear actividad (Carga pesada) 1-12,text,true,,4338,0,30,30,500,0,0
1494604754596,696,38 /wcal/js_cacher.php,200,OK,Crear actividad (Carga pesada) 1-12,text,true,,2370,0,30,30,696,0,0
1494604740307,15520,56 /wcal/index.php,200,OK,Crear actividad (Carga pesada) 1-4,text,true,,9769,0,30,30,753,0,0
1494604739967,16009,31 /wcal/index.php,200,OK,Crear actividad (Carga pesada) 1-13,text,true,,9770,0,30,30,639,0,0
1494604755980,23,38 /wcal/js_cacher.php,200,OK,Crear actividad (Carga pesada) 1-13,text,true,,4167,0,30,30,22,0,0
1494604755831,528,58 /wcal/js_cacher.php,200,OK,Crear actividad (Carga pesada) 1-4,text,true,,2370,0,30,30,528,0,0
1494604756005,466,41 /wcal/css_cacher.php,200,OK,Crear actividad (Carga pesada) 1-13,text,true,,4338,0,30,30,466,0,0
1494604740488,16083,31 /wcal/index.php,200,OK,Crear actividad (Carga pesada) 1-14,text,true,,9770,0,30,30,786,0,0
1494604741533,15041,31 /wcal/index.php,200,OK,Crear actividad (Carga pesada) 1-16,text,true,,9770,0,30,30,670,0,0
1494604756580,25,38 /wcal/js_cacher.php,200,OK,Crear actividad (Carga pesada) 1-16,text,true,,4167,0,30,30,25,0,0
1494604756576,36,38 /wcal/js_cacher.php,200,OK,Crear actividad (Carga pesada) 1-14,text,true,,4167,0,30,30,36,0,0
1494604741953,14771,56 /wcal/index.php,200,OK,Crear actividad (Carga pesada) 1-5,text,true,,9769,0,30,30,610,0,0
1494604756474,620,38 /wcal/js_cacher.php,200,OK,Crear actividad (Carga pesada) 1-13,text,true,,2370,0,30,30,619,0,0
1494604756615,515,41 /wcal/css_cacher.php,200,OK,Crear actividad (Carga pesada) 1-14,text,true,,4338,0,30,30,513,0,0
1494604756608,587,41 /wcal/css_cacher.php,200,OK,Crear actividad (Carga pesada) 1-16,text,true,,4338,0,30,30,587,0,0
1494604756728,515,58 /wcal/js_cacher.php,200,OK,Crear actividad (Carga pesada) 1-5,text,true,,2370,0,30,30,515,0,0
1494604741015,16401,31 /wcal/index.php,200,OK,Crear actividad (Carga pesada) 1-15,text,true,,9770,0,30,30,669,0,0
1494604757420,17,38 /wcal/js_cacher.php,200,OK,Crear actividad (Carga pesada) 1-15,text,true,,4167,0,30,30,17,0,0
1494604742932,14654,59 /wcal/month.php,200,OK,Crear actividad (Carga pesada) 1-2,text,true,,8849,0,30,30,14653,0,0
1494604757133,630,38 /wcal/js_cacher.php,200,OK,Crear actividad (Carga pesada) 1-14,text,true,,2370,0,30,30,630,0,0
1494604757439,470,41 /wcal/css_cacher.php,200,OK,Crear actividad (Carga pesada) 1-15,text,true,,4338,0,30,30,467,0,0
1494604757589,336,60 /wcal/js_cacher.php,200,OK,Crear actividad (Carga pesada) 1-2,text,true,,2370,0,30,30,336,0,0
1494604757198,749,38 /wcal/js_cacher.php,200,OK,Crear actividad (Carga pesada) 1-16,text,true,,2370,0,30,30,749,0,0
1494604757911,544,38 /wcal/js_cacher.php,200,OK,Crear actividad (Carga pesada) 1-15,text,true,,2370,0,30,30,544,0,0
1494604742568,16255,31 /wcal/index.php,200,OK,Crear actividad (Carga pesada) 1-18,text,true,,9770,0,30,30,1119,0,0
1494604758826,39,38 /wcal/js_cacher.php,200,OK,Crear actividad (Carga pesada) 1-18,text,true,,4167,0,30,30,38,0,0
1494604742052,17106,31 /wcal/index.php,200,OK,Crear actividad (Carga pesada) 1-17,text,true,,9770,0,30,30,701,0,0
1494604759161,35,38 /wcal/js_cacher.php,200,OK,Crear actividad (Carga pesada) 1-17,text,true,,4167,0,30,30,35,0,0
1494604758867,587,41 /wcal/css_cacher.php,200,OK,Crear actividad (Carga pesada) 1-18,text,true,,4338,0,30,30,586,0,0
1494604759198,740,41 /wcal/css_cacher.php,200,OK,Crear actividad (Carga pesada) 1-17,text,true,,4338,0,30,30,736,0,0
1494604759456,649,38 /wcal/js_cacher.php,200,OK,Crear actividad (Carga pesada) 1-18,text,true,,2370,0,30,30,649,0,0
1494604759940,537,38 /wcal/js_cacher.php,200,OK,Crear actividad (Carga pesada) 1-17,text,true,,2370,0,30,30,537,0,0
1494604744637,16650,31 /wcal/index.php,200,OK,Crear actividad (Carga pesada) 1-22,text,true,,9770,0,30,30,1284,0,0
1494604761289,33,38 /wcal/js_cacher.php,200,OK,Crear actividad (Carga pesada) 1-22,text,true,,4167,0,30,30,33,0,0
1494604743088,18370,31 /wcal/index.php,200,OK,Crear actividad (Carga pesada) 1-19,text,true,,9770,0,30,30,996,0,0
1494604761461,29,38 /wcal/js_cacher.php,200,OK,Crear actividad (Carga pesada) 1-19,text,true,,4167,0,30,30,28,0,0
1494604743923,17697,56 /wcal/index.php,200,OK,Crear actividad (Carga pesada) 1-6,text,true,,9769,0,30,30,1018,0,0
1494604743606,18079,31 /wcal/index.php,200,OK,Crear actividad (Carga pesada) 1-20,text,true,,9770,0,30,30,876,0,0
1494604761687,24,38 /wcal/js_cacher.php,200,OK,Crear actividad (Carga pesada) 1-20,text,true,,4167,0,30,30,23,0,0
1494604761325,509,41 /wcal/css_cacher.php,200,OK,Crear actividad (Carga pesada) 1-22,text,true,,4338,0,30,30,508,0,0
1494604761492,622,41 /wcal/css_cacher.php,200,OK,Crear actividad (Carga pesada) 1-19,text,true,,4338,0,30,30,621,0,0
1494604761623,593,58 /wcal/js_cacher.php,200,OK,Crear actividad (Carga pesada) 1-6,text,true,,2370,0,30,30,593,0,0
1494604744121,18121,31 /wcal/index.php,200,OK,Crear actividad (Carga pesada) 1-21,text,true,,9770,0,30,30,1118,0,0
1494604762244,75,38 /wcal/js_cacher.php,200,OK,Crear actividad (Carga pesada) 1-21,text,true,,4167,0,30,30,75,0,0
1494604745664,16696,31 /wcal/index.php,200,OK,Crear actividad (Carga pesada) 1-24,text,true,,9770,0,30,30,1025,0,0
1494604762362,21,38 /wcal/js_cacher.php,200,OK,Crear actividad (Carga pesada) 1-24,text,true,,4167,0,30,30,21,0,0
1494604761713,700,41 /wcal/css_cacher.php,200,OK,Crear actividad (Carga pesada) 1-20,text,true,,4338,0,30,30,692,0,0
1494604761836,647,38 /wcal/js_cacher.php,200,OK,Crear actividad (Carga pesada) 1-22,text,true,,2370,0,30,30,647,0,0
1494604745547,17145,56 /wcal/index.php,200,OK,Crear actividad (Carga pesada) 1-7,text,true,,9769,0,30,30,974,0,0
1494604762116,761,38 /wcal/js_cacher.php,200,OK,Crear actividad (Carga pesada) 1-19,text,true,,2370,0,30,30,761,0,0
1494604762386,581,41 /wcal/css_cacher.php,200,OK,Crear actividad (Carga pesada) 1-24,text,true,,4338,0,30,30,581,0,0
1494604762415,568,38 /wcal/js_cacher.php,200,OK,Crear actividad (Carga pesada) 1-20,text,true,,2370,0,30,30,568,0,0
1494604762321,672,41 /wcal/css_cacher.php,200,OK,Crear actividad (Carga pesada) 1-21,text,true,,4338,0,30,30,670,0,0
1494604762695,568,58 /wcal/js_cacher.php,200,OK,Crear actividad (Carga pesada) 1-7,text,true,,2370,0,30,30,568,0,0
1494604745154,18199,31 /wcal/index.php,200,OK,Crear actividad (Carga pesada) 1-23,text,true,,9770,0,30,30,1276,0,0
1494604763355,44,38 /wcal/js_cacher.php,200,OK,Crear actividad (Carga pesada) 1-23,text,true,,4167,0,30,30,44,0,0
1494604762996,483,38 /wcal/js_cacher.php,200,OK,Crear actividad (Carga pesada) 1-21,text,true,,2370,0,30,30,483,0,0
1494604762969,530,38 /wcal/js_cacher.php,200,OK,Crear actividad (Carga pesada) 1-24,text,true,,2370,0,30,30,530,0,0
1494604747304,16377,56 /wcal/index.php,200,OK,Crear actividad (Carga pesada) 1-8,text,true,,9769,0,30,30,1284,0,0
1494604746170,17711,31 /wcal/index.php,200,OK,Crear actividad (Carga pesada) 1-25,text,true,,9770,0,30,30,1247,0,0
1494604763401,505,41 /wcal/css_cacher.php,200,OK,Crear actividad (Carga pesada) 1-23,text,true,,4338,0,30,30,504,0,0
1494604763884,54,38 /wcal/js_cacher.php,200,OK,Crear actividad (Carga pesada) 1-25,text,true,,4167,0,30,30,53,0,0
1494604763683,505,58 /wcal/js_cacher.php,200,OK,Crear actividad (Carga pesada) 1-8,text,true,,2370,0,30,30,505,0,0
1494604763908,699,38 /wcal/js_cacher.php,200,OK,Crear actividad (Carga pesada) 1-23,text,true,,2370,0,30,30,699,0,0
1494604747709,16933,31 /wcal/index.php,200,OK,Crear actividad (Carga pesada) 1-28,text,true,,9770,0,30,30,1502,0,0
1494604763940,702,41 /wcal/css_cacher.php,200,OK,Crear actividad (Carga pesada) 1-25,text,true,,4338,0,30,30,700,0,0
1494604764645,21,38 /wcal/js_cacher.php,200,OK,Crear actividad (Carga pesada) 1-28,text,true,,4167,0,30,30,21,0,0
1494604748725,16164,31 /wcal/index.php,200,OK,Crear actividad (Carga pesada) 1-30,text,true,,9770,0,30,30,1286,0,0
1494604764891,47,38 /wcal/js_cacher.php,200,OK,Crear actividad (Carga pesada) 1-30,text,true,,4167,0,30,30,47,0,0
1494604746685,18265,31 /wcal/index.php,200,OK,Crear actividad (Carga pesada) 1-26,text,true,,9770,0,30,30,1403,0,0
1494604764952,22,38 /wcal/js_cacher.php,200,OK,Crear actividad (Carga pesada) 1-26,text,true,,4167,0,30,30,22,0,0
1494604764645,469,38 /wcal/js_cacher.php,200,OK,Crear actividad (Carga pesada) 1-25,text,true,,2370,0,30,30,469,0,0
1494604749138,16033,59 /wcal/month.php,200,OK,Crear actividad (Carga pesada) 1-3,text,true,,8849,0,30,30,16032,0,0
1494604764668,619,41 /wcal/css_cacher.php,200,OK,Crear actividad (Carga pesada) 1-28,text,true,,4338,0,30,30,618,0,0
1494604764976,642,41 /wcal/css_cacher.php,200,OK,Crear actividad (Carga pesada) 1-26,text,true,,4338,0,30,30,642,0,0
1494604764941,694,41 /wcal/css_cacher.php,200,OK,Crear actividad (Carga pesada) 1-30,text,true,,4338,0,30,30,693,0,0
1494604747197,18576,31 /wcal/index.php,200,OK,Crear actividad (Carga pesada) 1-27,text,true,,9770,0,30,30,1586,0,0
1494604765775,20,38 /wcal/js_cacher.php,200,OK,Crear actividad (Carga pesada) 1-27,text,true,,4167,0,30,30,20,0,0
1494604765173,635,60 /wcal/js_cacher.php,200,OK,Crear actividad (Carga pesada) 1-3,text,true,,2370,0,30,30,634,0,0
1494604765289,686,38 /wcal/js_cacher.php,200,OK,Crear actividad (Carga pesada) 1-28,text,true,,2370,0,30,30,686,0,0
1494604765637,471,38 /wcal/js_cacher.php,200,OK,Crear actividad (Carga pesada) 1-30,text,true,,2370,0,30,30,471,0,0
1494604765631,618,38 /wcal/js_cacher.php,200,OK,Crear actividad (Carga pesada) 1-26,text,true,,2370,0,30,30,618,0,0
1494604765797,574,41 /wcal/css_cacher.php,200,OK,Crear actividad (Carga pesada) 1-27,text,true,,4338,0,30,30,573,0,0
1494604749363,17056,56 /wcal/index.php,200,OK,Crear actividad (Carga pesada) 1-9,text,true,,9769,0,30,30,1307,0,0
1494604748220,18500,31 /wcal/index.php,200,OK,Crear actividad (Carga pesada) 1-29,text,true,,9770,0,30,30,1349,0,0
1494604766722,68,38 /wcal/js_cacher.php,200,OK,Crear actividad (Carga pesada) 1-29,text,true,,4167,0,30,30,67,0,0
1494604750045,16815,56 /wcal/index.php,200,OK,Crear actividad (Carga pesada) 1-10,text,true,,9769,0,30,30,1330,0,0
1494604766373,685,38 /wcal/js_cacher.php,200,OK,Crear actividad (Carga pesada) 1-27,text,true,,2370,0,30,30,685,0,0
1494604766421,714,58 /wcal/js_cacher.php,200,OK,Crear actividad (Carga pesada) 1-9,text,true,,2370,0,30,30,714,0,0
1494604766862,521,58 /wcal/js_cacher.php,200,OK,Crear actividad (Carga pesada) 1-10,text,true,,2370,0,30,30,521,0,0
1494604766792,667,41 /wcal/css_cacher.php,200,OK,Crear actividad (Carga pesada) 1-29,text,true,,4338,0,30,30,665,0,0
1494604767461,511,38 /wcal/js_cacher.php,200,OK,Crear actividad (Carga pesada) 1-29,text,true,,2370,0,30,30,511,0,0
1494604754075,16739,56 /wcal/index.php,200,OK,Crear actividad (Carga pesada) 1-11,text,true,,9769,0,30,30,1300,0,0
1494604770818,483,58 /wcal/js_cacher.php,200,OK,Crear actividad (Carga pesada) 1-11,text,true,,2370,0,30,30,483,0,0
1494604756361,15995,59 /wcal/month.php,200,OK,Crear actividad (Carga pesada) 1-4,text,true,,8849,0,30,30,15994,0,0
1494604755295,17234,56 /wcal/index.php,200,OK,Crear actividad (Carga pesada) 1-12,text,true,,9769,0,30,30,1072,0,0
1494604772357,497,60 /wcal/js_cacher.php,200,OK,Crear actividad (Carga pesada) 1-4,text,true,,2370,0,30,30,497,0,0
1494604757246,15712,59 /wcal/month.php,200,OK,Crear actividad (Carga pesada) 1-5,text,true,,8849,0,30,30,15711,0,0
1494604772530,464,58 /wcal/js_cacher.php,200,OK,Crear actividad (Carga pesada) 1-12,text,true,,2370,0,30,30,464,0,0
1494604772959,467,60 /wcal/js_cacher.php,200,OK,Crear actividad (Carga pesada) 1-5,text,true,,2370,0,30,30,467,0,0
1494604757096,16844,56 /wcal/index.php,200,OK,Crear actividad (Carga pesada) 1-13,text,true,,9769,0,30,30,1280,0,0
1494604773942,454,58 /wcal/js_cacher.php,200,OK,Crear actividad (Carga pesada) 1-13,text,true,,2370,0,30,30,454,0,0
1494604757949,16525,56 /wcal/index.php,200,OK,Crear actividad (Carga pesada) 1-16,text,true,,9769,0,30,30,1096,0,0
1494604774477,412,58 /wcal/js_cacher.php,200,OK,Crear actividad (Carga pesada) 1-16,text,true,,2370,0,30,30,412,0,0
1494604757766,17204,56 /wcal/index.php,200,OK,Crear actividad (Carga pesada) 1-14,text,true,,9769,0,30,30,1109,0,0
1494604758458,16749,56 /wcal/index.php,200,OK,Crear actividad (Carga pesada) 1-15,text,true,,9769,0,30,30,1009,0,0
1494604774972,425,58 /wcal/js_cacher.php,200,OK,Crear actividad (Carga pesada) 1-14,text,true,,2370,0,30,30,425,0,0
1494604775209,436,58 /wcal/js_cacher.php,200,OK,Crear actividad (Carga pesada) 1-15,text,true,,2370,0,30,30,435,0,0
1494604760107,16135,56 /wcal/index.php,200,OK,Crear actividad (Carga pesada) 1-18,text,true,,9769,0,30,30,1081,0,0
1494604760479,15875,56 /wcal/index.php,200,OK,Crear actividad (Carga pesada) 1-17,text,true,,9769,0,30,30,1125,0,0
1494604776244,585,58 /wcal/js_cacher.php,200,OK,Crear actividad (Carga pesada) 1-18,text,true,,2370,0,30,30,585,0,0
1494604776356,569,58 /wcal/js_cacher.php,200,OK,Crear actividad (Carga pesada) 1-17,text,true,,2370,0,30,30,569,0,0
1494604762218,14715,59 /wcal/month.php,200,OK,Crear actividad (Carga pesada) 1-6,text,true,,8849,0,30,30,14714,0,0
1494604776934,477,60 /wcal/js_cacher.php,200,OK,Crear actividad (Carga pesada) 1-6,text,true,,2370,0,30,30,477,0,0
1494604764191,13668,59 /wcal/month.php,200,OK,Crear actividad (Carga pesada) 1-8,text,true,,8849,0,30,30,13667,0,0
1494604777862,490,60 /wcal/js_cacher.php,200,OK,Crear actividad (Carga pesada) 1-8,text,true,,2370,0,30,30,490,0,0
1494604763265,15195,59 /wcal/month.php,200,OK,Crear actividad (Carga pesada) 1-7,text,true,,8849,0,30,30,15194,0,0
1494604762485,16182,56 /wcal/index.php,200,OK,Crear actividad (Carga pesada) 1-22,text,true,,9769,0,30,30,1030,0,0
1494604762879,15895,56 /wcal/index.php,200,OK,Crear actividad (Carga pesada) 1-19,text,true,,9769,0,30,30,1052,0,0
1494604763501,15392,56 /wcal/index.php,200,OK,Crear actividad (Carga pesada) 1-24,text,true,,9769,0,30,30,1234,0,0
1494604762985,15921,56 /wcal/index.php,200,OK,Crear actividad (Carga pesada) 1-20,text,true,,9769,0,30,30,1012,0,0
1494604778669,328,58 /wcal/js_cacher.php,200,OK,Crear actividad (Carga pesada) 1-22,text,true,,2370,0,30,30,328,0,0
1494604778462,566,60 /wcal/js_cacher.php,200,OK,Crear actividad (Carga pesada) 1-7,text,true,,2370,0,30,30,566,0,0
1494604778776,492,58 /wcal/js_cacher.php,200,OK,Crear actividad (Carga pesada) 1-19,text,true,,2370,0,30,30,492,0,0
1494604778895,416,58 /wcal/js_cacher.php,200,OK,Crear actividad (Carga pesada) 1-24,text,true,,2370,0,30,30,416,0,0
1494604778908,433,58 /wcal/js_cacher.php,200,OK,Crear actividad (Carga pesada) 1-20,text,true,,2370,0,30,30,433,0,0
1494604765116,14227,56 /wcal/index.php,200,OK,Crear actividad (Carga pesada) 1-25,text,true,,9769,0,30,30,1144,0,0
1494604779345,328,58 /wcal/js_cacher.php,200,OK,Crear actividad (Carga pesada) 1-25,text,true,,2370,0,30,30,328,0,0
1494604763481,16317,56 /wcal/index.php,200,OK,Crear actividad (Carga pesada) 1-21,text,true,,9769,0,30,30,1225,0,0
1494604764609,15501,56 /wcal/index.php,200,OK,Crear actividad (Carga pesada) 1-23,text,true,,9769,0,30,30,1024,0,0
1494604779800,464,58 /wcal/js_cacher.php,200,OK,Crear actividad (Carga pesada) 1-21,text,true,,2370,0,30,30,464,0,0
1494604780112,446,58 /wcal/js_cacher.php,200,OK,Crear actividad (Carga pesada) 1-23,text,true,,2370,0,30,30,446,0,0
1494604766251,15108,56 /wcal/index.php,200,OK,Crear actividad (Carga pesada) 1-26,text,true,,9769,0,30,30,1294,0,0
1494604767137,14464,59 /wcal/month.php,200,OK,Crear actividad (Carga pesada) 1-9,text,true,,8849,0,30,30,14463,0,0
1494604767385,14329,59 /wcal/month.php,200,OK,Crear actividad (Carga pesada) 1-10,text,true,,8849,0,30,30,14328,0,0
1494604781361,528,58 /wcal/js_cacher.php,200,OK,Crear actividad (Carga pesada) 1-26,text,true,,2370,0,30,30,528,0,0
1494604765977,15931,56 /wcal/index.php,200,OK,Crear actividad (Carga pesada) 1-28,text,true,,9769,0,30,30,1289,0,0
1494604781603,511,60 /wcal/js_cacher.php,200,OK,Crear actividad (Carga pesada) 1-9,text,true,,2370,0,30,30,511,0,0
1494604766110,16037,56 /wcal/index.php,200,OK,Crear actividad (Carga pesada) 1-30,text,true,,9769,0,30,30,1205,0,0
1494604767060,15087,56 /wcal/index.php,200,OK,Crear actividad (Carga pesada) 1-27,text,true,,9769,0,30,30,1145,0,0
1494604781716,506,60 /wcal/js_cacher.php,200,OK,Crear actividad (Carga pesada) 1-10,text,true,,2370,0,30,30,506,0,0
1494604781910,436,58 /wcal/js_cacher.php,200,OK,Crear actividad (Carga pesada) 1-28,text,true,,2370,0,30,30,436,0,0
1494604782149,417,58 /wcal/js_cacher.php,200,OK,Crear actividad (Carga pesada) 1-30,text,true,,2370,0,30,30,417,0,0
1494604782149,435,58 /wcal/js_cacher.php,200,OK,Crear actividad (Carga pesada) 1-27,text,true,,2370,0,30,30,435,0,0
1494604767974,14776,56 /wcal/index.php,200,OK,Crear actividad (Carga pesada) 1-29,text,true,,9769,0,30,30,1091,0,0
1494604782752,384,58 /wcal/js_cacher.php,200,OK,Crear actividad (Carga pesada) 1-29,text,true,,2370,0,30,30,384,0,0
1494604771304,13497,59 /wcal/month.php,200,OK,Crear actividad (Carga pesada) 1-11,text,true,,8849,0,30,30,13496,0,0
1494604772996,11996,59 /wcal/month.php,200,OK,Crear actividad (Carga pesada) 1-12,text,true,,8849,0,30,30,11995,0,0
1494604784804,339,60 /wcal/js_cacher.php,200,OK,Crear actividad (Carga pesada) 1-11,text,true,,2370,0,30,30,339,0,0
1494604784995,343,60 /wcal/js_cacher.php,200,OK,Crear actividad (Carga pesada) 1-12,text,true,,2370,0,30,30,343,0,0
1494604774399,12400,59 /wcal/month.php,200,OK,Crear actividad (Carga pesada) 1-13,text,true,,8849,0,30,30,12399,0,0
1494604774891,11908,59 /wcal/month.php,200,OK,Crear actividad (Carga pesada) 1-16,text,true,,8849,0,30,30,11907,0,0
1494604786803,234,60 /wcal/js_cacher.php,200,OK,Crear actividad (Carga pesada) 1-16,text,true,,2370,0,30,30,234,0,0
1494604786803,288,60 /wcal/js_cacher.php,200,OK,Crear actividad (Carga pesada) 1-13,text,true,,2370,0,30,30,288,0,0
1494604775399,11800,59 /wcal/month.php,200,OK,Crear actividad (Carga pesada) 1-14,text,true,,8849,0,30,30,11799,0,0
1494604787203,203,60 /wcal/js_cacher.php,200,OK,Crear actividad (Carga pesada) 1-14,text,true,,2370,0,30,30,203,0,0
1494604775646,11905,59 /wcal/month.php,200,OK,Crear actividad (Carga pesada) 1-15,text,true,,8849,0,30,30,11904,0,0
1494604787554,213,60 /wcal/js_cacher.php,200,OK,Crear actividad (Carga pesada) 1-15,text,true,,2370,0,30,30,213,0,0
1494604776831,11379,59 /wcal/month.php,200,OK,Crear actividad (Carga pesada) 1-18,text,true,,8849,0,30,30,11377,0,0
1494604778999,9377,59 /wcal/month.php,200,OK,Crear actividad (Carga pesada) 1-22,text,true,,8849,0,30,30,9376,0,0
1494604788213,213,60 /wcal/js_cacher.php,200,OK,Crear actividad (Carga pesada) 1-18,text,true,,2370,0,30,30,213,0,0
1494604788379,177,60 /wcal/js_cacher.php,200,OK,Crear actividad (Carga pesada) 1-22,text,true,,2370,0,30,30,177,0,0
1494604776927,11808,59 /wcal/month.php,200,OK,Crear actividad (Carga pesada) 1-17,text,true,,8849,0,30,30,11807,0,0
1494604788737,176,60 /wcal/js_cacher.php,200,OK,Crear actividad (Carga pesada) 1-17,text,true,,2370,0,30,30,176,0,0
1494604779675,9459,59 /wcal/month.php,200,OK,Crear actividad (Carga pesada) 1-25,text,true,,8849,0,30,30,9457,0,0
1494604779270,10041,59 /wcal/month.php,200,OK,Crear actividad (Carga pesada) 1-19,text,true,,8849,0,30,30,10040,0,0
1494604789136,177,60 /wcal/js_cacher.php,200,OK,Crear actividad (Carga pesada) 1-25,text,true,,2370,0,30,30,177,0,0
1494604781891,7508,59 /wcal/month.php,200,OK,Crear actividad (Carga pesada) 1-26,text,true,,8849,0,30,30,7507,0,0
1494604779313,10099,59 /wcal/month.php,200,OK,Crear actividad (Carga pesada) 1-24,text,true,,8849,0,30,30,10098,0,0
1494604789313,147,60 /wcal/js_cacher.php,200,OK,Crear actividad (Carga pesada) 1-19,text,true,,2370,0,30,30,147,0,0
1494604780266,9232,59 /wcal/month.php,200,OK,Crear actividad (Carga pesada) 1-21,text,true,,8849,0,30,30,9231,0,0
1494604779343,10185,59 /wcal/month.php,200,OK,Crear actividad (Carga pesada) 1-20,text,true,,8849,0,30,30,10184,0,0
1494604789414,145,60 /wcal/js_cacher.php,200,OK,Crear actividad (Carga pesada) 1-24,text,true,,2370,0,30,30,145,0,0
1494604789401,162,60 /wcal/js_cacher.php,200,OK,Crear actividad (Carga pesada) 1-26,text,true,,2370,0,30,30,162,0,0
1494604789500,103,60 /wcal/js_cacher.php,200,OK,Crear actividad (Carga pesada) 1-21,text,true,,2370,0,30,30,103,0,0
1494604780560,9077,59 /wcal/month.php,200,OK,Crear actividad (Carga pesada) 1-23,text,true,,8849,0,30,30,9076,0,0
1494604789530,117,60 /wcal/js_cacher.php,200,OK,Crear actividad (Carga pesada) 1-20,text,true,,2370,0,30,30,117,0,0
1494604789639,95,60 /wcal/js_cacher.php,200,OK,Crear actividad (Carga pesada) 1-23,text,true,,2370,0,30,30,95,0,0
1494604782586,7217,59 /wcal/month.php,200,OK,Crear actividad (Carga pesada) 1-27,text,true,,8849,0,30,30,7216,0,0
1494604782348,7484,59 /wcal/month.php,200,OK,Crear actividad (Carga pesada) 1-28,text,true,,8849,0,30,30,7483,0,0
1494604789805,53,60 /wcal/js_cacher.php,200,OK,Crear actividad (Carga pesada) 1-27,text,true,,2370,0,30,30,53,0,0
1494604782568,7295,59 /wcal/month.php,200,OK,Crear actividad (Carga pesada) 1-30,text,true,,8849,0,30,30,7294,0,0
1494604789834,67,60 /wcal/js_cacher.php,200,OK,Crear actividad (Carga pesada) 1-28,text,true,,2370,0,30,30,67,0,0
1494604783138,6775,59 /wcal/month.php,200,OK,Crear actividad (Carga pesada) 1-29,text,true,,8849,0,30,30,6774,0,0
1494604789865,54,60 /wcal/js_cacher.php,200,OK,Crear actividad (Carga pesada) 1-30,text,true,,2370,0,30,30,54,0,0
1494604789915,59,60 /wcal/js_cacher.php,200,OK,Crear actividad (Carga pesada) 1-29,text,true,,2370,0,30,30,59,0,0
1494604751498,127288,61 /success.txt,Non HTTP response code: java.net.ConnectException,Non HTTP response message: Connection timed out (Connection timed out),Crear actividad (Carga pesada) 1-1,text,false,,1808,0,30,30,0,0,0
1494604878791,1258,62 /wcal/month.php,200,OK,Crear actividad (Carga pesada) 1-1,text,true,,8612,0,30,30,1256,0,0
1494604880051,48,63 /wcal/js_cacher.php,200,OK,Crear actividad (Carga pesada) 1-1,text,true,,2370,0,30,30,48,0,0
1494604880101,681,64 /wcal/week.php,200,OK,Crear actividad (Carga pesada) 1-1,text,true,,4705,0,30,30,680,0,0
1494604757927,127259,61 /success.txt,Non HTTP response code: java.net.ConnectException,Non HTTP response message: Connection timed out (Connection timed out),Crear actividad (Carga pesada) 1-2,text,false,,1808,0,30,30,0,0,0
1494604885191,1150,62 /wcal/month.php,200,OK,Crear actividad (Carga pesada) 1-2,text,true,,8611,0,30,30,1149,0,0
1494604886343,50,63 /wcal/js_cacher.php,200,OK,Crear actividad (Carga pesada) 1-2,text,true,,2370,0,30,30,50,0,0
1494604886395,674,64 /wcal/week.php,200,OK,Crear actividad (Carga pesada) 1-2,text,true,,4705,0,30,30,673,0,0
1494604765810,127311,61 /success.txt,Non HTTP response code: java.net.ConnectException,Non HTTP response message: Connection timed out (Connection timed out),Crear actividad (Carga pesada) 1-3,text,false,,1808,0,30,30,0,0,0
1494604893128,1184,62 /wcal/month.php,200,OK,Crear actividad (Carga pesada) 1-3,text,true,,8612,0,30,30,1182,0,0
1494604894313,52,63 /wcal/js_cacher.php,200,OK,Crear actividad (Carga pesada) 1-3,text,true,,2370,0,30,30,52,0,0
1494604894367,680,64 /wcal/week.php,200,OK,Crear actividad (Carga pesada) 1-3,text,true,,4705,0,30,30,679,0,0
1494604772856,127177,61 /success.txt,Non HTTP response code: java.net.ConnectException,Non HTTP response message: Connection timed out (Connection timed out),Crear actividad (Carga pesada) 1-4,text,false,,1808,0,30,30,0,0,0
1494604773428,127245,61 /success.txt,Non HTTP response code: java.net.ConnectException,Non HTTP response message: Connection timed out (Connection timed out),Crear actividad (Carga pesada) 1-5,text,false,,1808,0,30,30,0,0,0
1494604900038,1314,62 /wcal/month.php,200,OK,Crear actividad (Carga pesada) 1-4,text,true,,8612,0,30,30,1312,0,0
1494604901353,91,63 /wcal/js_cacher.php,200,OK,Crear actividad (Carga pesada) 1-4,text,true,,2370,0,30,30,91,0,0
1494604900679,1138,62 /wcal/month.php,200,OK,Crear actividad (Carga pesada) 1-5,text,true,,8612,0,30,30,1137,0,0
1494604901819,53,63 /wcal/js_cacher.php,200,OK,Crear actividad (Carga pesada) 1-5,text,true,,2370,0,30,30,53,0,0
1494604901445,603,64 /wcal/week.php,200,OK,Crear actividad (Carga pesada) 1-4,text,true,,4705,0,30,30,603,0,0
1494604901873,673,64 /wcal/week.php,200,OK,Crear actividad (Carga pesada) 1-5,text,true,,4705,0,30,30,672,0,0
1494604777413,127228,61 /success.txt,Non HTTP response code: java.net.ConnectException,Non HTTP response message: Connection timed out (Connection timed out),Crear actividad (Carga pesada) 1-6,text,false,,1808,0,30,30,0,0,0
1494604778354,127311,61 /success.txt,Non HTTP response code: java.net.ConnectException,Non HTTP response message: Connection timed out (Connection timed out),Crear actividad (Carga pesada) 1-8,text,false,,1808,0,30,30,0,0,0
1494604904645,1329,62 /wcal/month.php,200,OK,Crear actividad (Carga pesada) 1-6,text,true,,8611,0,30,30,1327,0,0
1494604905975,84,63 /wcal/js_cacher.php,200,OK,Crear actividad (Carga pesada) 1-6,text,true,,2370,0,30,30,84,0,0
1494604779030,127275,61 /success.txt,Non HTTP response code: java.net.ConnectException,Non HTTP response message: Connection timed out (Connection timed out),Crear actividad (Carga pesada) 1-7,text,false,,1808,0,30,30,0,0,0
1494604906060,807,64 /wcal/week.php,200,OK,Crear actividad (Carga pesada) 1-6,text,true,,4705,0,30,30,806,0,0
1494604905670,1385,62 /wcal/month.php,200,OK,Crear actividad (Carga pesada) 1-8,text,true,,8611,0,30,30,1383,0,0
1494604907056,54,63 /wcal/js_cacher.php,200,OK,Crear actividad (Carga pesada) 1-8,text,true,,2370,0,30,30,54,0,0
1494604906309,1220,62 /wcal/month.php,200,OK,Crear actividad (Carga pesada) 1-7,text,true,,8612,0,30,30,1219,0,0
1494604907531,51,63 /wcal/js_cacher.php,200,OK,Crear actividad (Carga pesada) 1-7,text,true,,2370,0,30,30,51,0,0
1494604907112,597,64 /wcal/week.php,200,OK,Crear actividad (Carga pesada) 1-8,text,true,,4705,0,30,30,596,0,0
1494604907584,770,64 /wcal/week.php,200,OK,Crear actividad (Carga pesada) 1-7,text,true,,4705,0,30,30,770,0,0
1494604782116,127261,61 /success.txt,Non HTTP response code: java.net.ConnectException,Non HTTP response message: Connection timed out (Connection timed out),Crear actividad (Carga pesada) 1-9,text,false,,1808,0,30,30,0,0,0
1494604782224,127281,61 /success.txt,Non HTTP response code: java.net.ConnectException,Non HTTP response message: Connection timed out (Connection timed out),Crear actividad (Carga pesada) 1-10,text,false,,1808,0,30,30,0,0,0
1494604909381,1236,62 /wcal/month.php,200,OK,Crear actividad (Carga pesada) 1-9,text,true,,8611,0,30,30,1235,0,0
1494604910620,96,63 /wcal/js_cacher.php,200,OK,Crear actividad (Carga pesada) 1-9,text,true,,2370,0,30,30,95,0,0
1494604909509,1230,62 /wcal/month.php,200,OK,Crear actividad (Carga pesada) 1-10,text,true,,8611,0,30,30,1227,0,0
1494604910741,60,63 /wcal/js_cacher.php,200,OK,Crear actividad (Carga pesada) 1-10,text,true,,2370,0,30,30,60,0,0
1494604910717,857,64 /wcal/week.php,200,OK,Crear actividad (Carga pesada) 1-9,text,true,,4705,0,30,30,857,0,0
1494604910803,854,64 /wcal/week.php,200,OK,Crear actividad (Carga pesada) 1-10,text,true,,4705,0,30,30,853,0,0
1494604785145,127177,61 /success.txt,Non HTTP response code: java.net.ConnectException,Non HTTP response message: Connection timed out (Connection timed out),Crear actividad (Carga pesada) 1-11,text,false,,1808,0,30,30,0,0,0
1494604785340,127238,61 /success.txt,Non HTTP response code: java.net.ConnectException,Non HTTP response message: Connection timed out (Connection timed out),Crear actividad (Carga pesada) 1-12,text,false,,1808,0,30,30,0,0,0
1494604912325,1275,62 /wcal/month.php,200,OK,Crear actividad (Carga pesada) 1-11,text,true,,8611,0,30,30,1274,0,0
1494604913602,54,63 /wcal/js_cacher.php,200,OK,Crear actividad (Carga pesada) 1-11,text,true,,2370,0,30,30,54,0,0
1494604912582,1228,62 /wcal/month.php,200,OK,Crear actividad (Carga pesada) 1-12,text,true,,8611,0,30,30,1226,0,0
1494604913812,48,63 /wcal/js_cacher.php,200,OK,Crear actividad (Carga pesada) 1-12,text,true,,2370,0,30,30,48,0,0
1494604913659,622,64 /wcal/week.php,200,OK,Crear actividad (Carga pesada) 1-11,text,true,,4705,0,30,30,622,0,0
1494604787039,127331,61 /success.txt,Non HTTP response code: java.net.ConnectException,Non HTTP response message: Connection timed out (Connection timed out),Crear actividad (Carga pesada) 1-16,text,false,,1808,0,30,30,0,0,0
1494604787094,127276,61 /success.txt,Non HTTP response code: java.net.ConnectException,Non HTTP response message: Connection timed out (Connection timed out),Crear actividad (Carga pesada) 1-13,text,false,,1808,0,30,30,0,0,0
1494604913862,583,64 /wcal/week.php,200,OK,Crear actividad (Carga pesada) 1-12,text,true,,4705,0,30,30,582,0,0
1494604787408,127218,61 /success.txt,Non HTTP response code: java.net.ConnectException,Non HTTP response message: Connection timed out (Connection timed out),Crear actividad (Carga pesada) 1-14,text,false,,1808,0,30,30,0,0,0
1494604787768,127242,61 /success.txt,Non HTTP response code: java.net.ConnectException,Non HTTP response message: Connection timed out (Connection timed out),Crear actividad (Carga pesada) 1-15,text,false,,1808,0,30,30,0,0,0
1494604788428,127222,61 /success.txt,Non HTTP response code: java.net.ConnectException,Non HTTP response message: Connection timed out (Connection timed out),Crear actividad (Carga pesada) 1-18,text,false,,1808,0,30,30,0,0,0
1494604788558,127220,61 /success.txt,Non HTTP response code: java.net.ConnectException,Non HTTP response message: Connection timed out (Connection timed out),Crear actividad (Carga pesada) 1-22,text,false,,1808,0,30,30,0,0,0
1494604788915,127246,61 /success.txt,Non HTTP response code: java.net.ConnectException,Non HTTP response message: Connection timed out (Connection timed out),Crear actividad (Carga pesada) 1-17,text,false,,1808,0,30,30,0,0,0
1494604789314,127231,61 /success.txt,Non HTTP response code: java.net.ConnectException,Non HTTP response message: Connection timed out (Connection timed out),Crear actividad (Carga pesada) 1-25,text,false,,1808,0,30,30,0,0,0
1494604789461,127212,61 /success.txt,Non HTTP response code: java.net.ConnectException,Non HTTP response message: Connection timed out (Connection timed out),Crear actividad (Carga pesada) 1-19,text,false,,1808,0,30,30,0,0,0
1494604789561,127240,61 /success.txt,Non HTTP response code: java.net.ConnectException,Non HTTP response message: Connection timed out (Connection timed out),Crear actividad (Carga pesada) 1-24,text,false,,1808,0,30,30,0,0,0
1494604789565,127236,61 /success.txt,Non HTTP response code: java.net.ConnectException,Non HTTP response message: Connection timed out (Connection timed out),Crear actividad (Carga pesada) 1-26,text,false,,1808,0,30,30,0,0,0
1494604789605,127325,61 /success.txt,Non HTTP response code: java.net.ConnectException,Non HTTP response message: Connection timed out (Connection timed out),Crear actividad (Carga pesada) 1-21,text,false,,1808,0,30,30,0,0,0
1494604789648,127282,61 /success.txt,Non HTTP response code: java.net.ConnectException,Non HTTP response message: Connection timed out (Connection timed out),Crear actividad (Carga pesada) 1-20,text,false,,1808,0,30,30,0,0,0
1494604789736,127193,61 /success.txt,Non HTTP response code: java.net.ConnectException,Non HTTP response message: Connection timed out (Connection timed out),Crear actividad (Carga pesada) 1-23,text,false,,1808,0,30,30,0,0,0
1494604789922,127263,61 /success.txt,Non HTTP response code: java.net.ConnectException,Non HTTP response message: Connection timed out (Connection timed out),Crear actividad (Carga pesada) 1-30,text,false,,1808,0,30,30,0,0,0
1494604789975,127210,61 /success.txt,Non HTTP response code: java.net.ConnectException,Non HTTP response message: Connection timed out (Connection timed out),Crear actividad (Carga pesada) 1-29,text,false,,1808,0,30,30,0,0,0
1494604789903,127282,61 /success.txt,Non HTTP response code: java.net.ConnectException,Non HTTP response message: Connection timed out (Connection timed out),Crear actividad (Carga pesada) 1-28,text,false,,1808,0,30,30,0,0,0
1494604789860,127326,61 /success.txt,Non HTTP response code: java.net.ConnectException,Non HTTP response message: Connection timed out (Connection timed out),Crear actividad (Carga pesada) 1-27,text,false,,1808,0,30,30,0,0,0
1494604914374,4017,62 /wcal/month.php,200,OK,Crear actividad (Carga pesada) 1-16,text,true,,8611,0,30,30,4015,0,0
1494604914379,4102,62 /wcal/month.php,200,OK,Crear actividad (Carga pesada) 1-13,text,true,,8612,0,30,30,4100,0,0
1494604918393,361,63 /wcal/js_cacher.php,200,OK,Crear actividad (Carga pesada) 1-16,text,true,,2370,0,30,30,361,0,0
1494604918483,377,63 /wcal/js_cacher.php,200,OK,Crear actividad (Carga pesada) 1-13,text,true,,2370,0,30,30,377,0,0
1494604914630,5507,62 /wcal/month.php,200,OK,Crear actividad (Carga pesada) 1-14,text,true,,8611,0,30,30,5506,0,0
1494604920141,467,63 /wcal/js_cacher.php,200,OK,Crear actividad (Carga pesada) 1-14,text,true,,2370,0,30,30,467,0,0
1494604915014,7371,62 /wcal/month.php,200,OK,Crear actividad (Carga pesada) 1-15,text,true,,8612,0,30,30,7370,0,0
1494604922385,347,63 /wcal/js_cacher.php,200,OK,Crear actividad (Carga pesada) 1-15,text,true,,2370,0,30,30,347,0,0
1494604915782,8213,62 /wcal/month.php,200,OK,Crear actividad (Carga pesada) 1-22,text,true,,8612,0,30,30,8211,0,0
1494604918755,5299,64 /wcal/week.php,200,OK,Crear actividad (Carga pesada) 1-16,text,true,,4705,0,30,30,5298,0,0
1494604918861,5208,64 /wcal/week.php,200,OK,Crear actividad (Carga pesada) 1-13,text,true,,4705,0,30,30,5208,0,0
1494604915658,8547,62 /wcal/month.php,200,OK,Crear actividad (Carga pesada) 1-18,text,true,,8612,0,30,30,8545,0,0
1494604923996,277,63 /wcal/js_cacher.php,200,OK,Crear actividad (Carga pesada) 1-22,text,true,,2370,0,30,30,277,0,0
1494604924206,300,63 /wcal/js_cacher.php,200,OK,Crear actividad (Carga pesada) 1-18,text,true,,2370,0,30,30,300,0,0
1494604920610,4774,64 /wcal/week.php,200,OK,Crear actividad (Carga pesada) 1-14,text,true,,4705,0,30,30,4773,0,0
1494604916170,9429,62 /wcal/month.php,200,OK,Crear actividad (Carga pesada) 1-17,text,true,,8612,0,30,30,9428,0,0
1494604925601,270,63 /wcal/js_cacher.php,200,OK,Crear actividad (Carga pesada) 1-17,text,true,,2370,0,30,30,270,0,0
1494604916806,9256,62 /wcal/month.php,200,OK,Crear actividad (Carga pesada) 1-24,text,true,,8612,0,30,30,9255,0,0
1494604926063,304,63 /wcal/js_cacher.php,200,OK,Crear actividad (Carga pesada) 1-24,text,true,,2370,0,30,30,304,0,0
1494604916686,9931,62 /wcal/month.php,200,OK,Crear actividad (Carga pesada) 1-19,text,true,,8612,0,30,30,9930,0,0
1494604916554,10076,62 /wcal/month.php,200,OK,Crear actividad (Carga pesada) 1-25,text,true,,8612,0,30,30,10074,0,0
1494604922734,4217,64 /wcal/week.php,200,OK,Crear actividad (Carga pesada) 1-15,text,true,,4705,0,30,30,4216,0,0
1494604926631,333,63 /wcal/js_cacher.php,200,OK,Crear actividad (Carga pesada) 1-25,text,true,,2370,0,30,30,333,0,0
1494604926619,356,63 /wcal/js_cacher.php,200,OK,Crear actividad (Carga pesada) 1-19,text,true,,2370,0,30,30,356,0,0
1494604916944,10121,62 /wcal/month.php,200,OK,Crear actividad (Carga pesada) 1-20,text,true,,8612,0,30,30,10120,0,0
1494604927067,248,63 /wcal/js_cacher.php,200,OK,Crear actividad (Carga pesada) 1-20,text,true,,2370,0,30,30,248,0,0
1494604916806,10668,62 /wcal/month.php,200,OK,Crear actividad (Carga pesada) 1-26,text,true,,8612,0,30,30,10667,0,0
1494604916944,10841,62 /wcal/month.php,200,OK,Crear actividad (Carga pesada) 1-23,text,true,,8612,0,30,30,10839,0,0
1494604927476,312,63 /wcal/js_cacher.php,200,OK,Crear actividad (Carga pesada) 1-26,text,true,,2370,0,30,30,312,0,0
1494604927786,303,63 /wcal/js_cacher.php,200,OK,Crear actividad (Carga pesada) 1-23,text,true,,2370,0,30,30,303,0,0
1494604916949,11313,62 /wcal/month.php,200,OK,Crear actividad (Carga pesada) 1-21,text,true,,8612,0,30,30,11312,0,0
1494604924507,3858,64 /wcal/week.php,200,OK,Crear actividad (Carga pesada) 1-18,text,true,,4705,0,30,30,3857,0,0
1494604924275,4264,64 /wcal/week.php,200,OK,Crear actividad (Carga pesada) 1-22,text,true,,4705,0,30,30,4264,0,0
1494604928263,294,63 /wcal/js_cacher.php,200,OK,Crear actividad (Carga pesada) 1-21,text,true,,2370,0,30,30,294,0,0
1494604917194,11371,62 /wcal/month.php,200,OK,Crear actividad (Carga pesada) 1-30,text,true,,8612,0,30,30,11369,0,0
1494604917195,11498,62 /wcal/month.php,200,OK,Crear actividad (Carga pesada) 1-27,text,true,,8612,0,30,30,11497,0,0
1494604917194,11695,62 /wcal/month.php,200,OK,Crear actividad (Carga pesada) 1-29,text,true,,8612,0,30,30,11694,0,0
1494604928566,375,63 /wcal/js_cacher.php,200,OK,Crear actividad (Carga pesada) 1-30,text,true,,2370,0,30,30,375,0,0
1494604928694,290,63 /wcal/js_cacher.php,200,OK,Crear actividad (Carga pesada) 1-27,text,true,,2370,0,30,30,290,0,0
1494604928890,314,63 /wcal/js_cacher.php,200,OK,Crear actividad (Carga pesada) 1-29,text,true,,2370,0,30,30,314,0,0
1494604917194,12308,62 /wcal/month.php,200,OK,Crear actividad (Carga pesada) 1-28,text,true,,8612,0,30,30,12307,0,0
1494604925872,3709,64 /wcal/week.php,200,OK,Crear actividad (Carga pesada) 1-17,text,true,,4705,0,30,30,3708,0,0
1494604929502,157,63 /wcal/js_cacher.php,200,OK,Crear actividad (Carga pesada) 1-28,text,true,,2370,0,30,30,157,0,0
1494604926369,4082,64 /wcal/week.php,200,OK,Crear actividad (Carga pesada) 1-24,text,true,,4705,0,30,30,4082,0,0
1494604926977,3687,64 /wcal/week.php,200,OK,Crear actividad (Carga pesada) 1-19,text,true,,4705,0,30,30,3687,0,0
1494604926966,3755,64 /wcal/week.php,200,OK,Crear actividad (Carga pesada) 1-25,text,true,,4705,0,30,30,3755,0,0
1494604927317,3479,64 /wcal/week.php,200,OK,Crear actividad (Carga pesada) 1-20,text,true,,4705,0,30,30,3478,0,0
1494604927790,3264,64 /wcal/week.php,200,OK,Crear actividad (Carga pesada) 1-26,text,true,,4705,0,30,30,3263,0,0
1494604928091,3136,64 /wcal/week.php,200,OK,Crear actividad (Carga pesada) 1-23,text,true,,4705,0,30,30,3135,0,0
1494604928558,2711,64 /wcal/week.php,200,OK,Crear actividad (Carga pesada) 1-21,text,true,,4705,0,30,30,2710,0,0
1494604928986,2466,64 /wcal/week.php,200,OK,Crear actividad (Carga pesada) 1-27,text,true,,4705,0,30,30,2465,0,0
1494604928942,2616,64 /wcal/week.php,200,OK,Crear actividad (Carga pesada) 1-30,text,true,,4705,0,30,30,2616,0,0
1494604929205,2420,64 /wcal/week.php,200,OK,Crear actividad (Carga pesada) 1-29,text,true,,4705,0,30,30,2419,0,0
1494604929660,2004,64 /wcal/week.php,200,OK,Crear actividad (Carga pesada) 1-28,text,true,,4705,0,30,30,2003,0,0
1494604880783,127282,68 /success.txt,Non HTTP response code: java.net.ConnectException,Non HTTP response message: Connection timed out (Connection timed out),Crear actividad (Carga pesada) 1-1,text,false,,1808,0,30,30,0,0,0
1494605008068,3323,69 /wcal/view_entry.php,200,OK,Crear actividad (Carga pesada) 1-1,text,true,,2714,0,30,30,3322,0,0
1494604887071,127267,68 /success.txt,Non HTTP response code: java.net.ConnectException,Non HTTP response message: Connection timed out (Connection timed out),Crear actividad (Carga pesada) 1-2,text,false,,1808,0,30,30,0,0,0
1494605014340,113,69 /wcal/view_entry.php,200,OK,Crear actividad (Carga pesada) 1-2,text,true,,2713,0,30,30,113,0,0
1494604895048,127225,68 /success.txt,Non HTTP response code: java.net.ConnectException,Non HTTP response message: Connection timed out (Connection timed out),Crear actividad (Carga pesada) 1-3,text,false,,1808,0,30,30,0,0,0
1494605022276,106,69 /wcal/view_entry.php,200,OK,Crear actividad (Carga pesada) 1-3,text,true,,2714,0,30,30,105,0,0
1494604902050,127264,68 /success.txt,Non HTTP response code: java.net.ConnectException,Non HTTP response message: Connection timed out (Connection timed out),Crear actividad (Carga pesada) 1-4,text,false,,1808,0,30,30,0,0,0
1494605029316,119,69 /wcal/view_entry.php,200,OK,Crear actividad (Carga pesada) 1-4,text,true,,2714,0,30,30,119,0,0
1494604902547,127279,68 /success.txt,Non HTTP response code: java.net.ConnectException,Non HTTP response message: Connection timed out (Connection timed out),Crear actividad (Carga pesada) 1-5,text,false,,1808,0,30,30,0,0,0
1494605029828,98,69 /wcal/view_entry.php,200,OK,Crear actividad (Carga pesada) 1-5,text,true,,2713,0,30,30,98,0,0
1494604906868,127309,68 /success.txt,Non HTTP response code: java.net.ConnectException,Non HTTP response message: Connection timed out (Connection timed out),Crear actividad (Carga pesada) 1-6,text,false,,1808,0,30,30,0,0,0
1494605034180,101,69 /wcal/view_entry.php,200,OK,Crear actividad (Carga pesada) 1-6,text,true,,2713,0,30,30,101,0,0
1494604907710,127235,68 /success.txt,Non HTTP response code: java.net.ConnectException,Non HTTP response message: Connection timed out (Connection timed out),Crear actividad (Carga pesada) 1-8,text,false,,1808,0,30,30,0,0,0
1494605034948,98,69 /wcal/view_entry.php,200,OK,Crear actividad (Carga pesada) 1-8,text,true,,2713,0,30,30,98,0,0
1494604908356,127229,68 /success.txt,Non HTTP response code: java.net.ConnectException,Non HTTP response message: Connection timed out (Connection timed out),Crear actividad (Carga pesada) 1-7,text,false,,1808,0,30,30,0,0,0
1494605035588,96,69 /wcal/view_entry.php,200,OK,Crear actividad (Carga pesada) 1-7,text,true,,2713,0,30,30,96,0,0
1494604911576,127209,68 /success.txt,Non HTTP response code: java.net.ConnectException,Non HTTP response message: Connection timed out (Connection timed out),Crear actividad (Carga pesada) 1-9,text,false,,1808,0,30,30,0,0,0
1494605038788,101,69 /wcal/view_entry.php,200,OK,Crear actividad (Carga pesada) 1-9,text,true,,2713,0,30,30,100,0,0
1494604911659,127254,68 /success.txt,Non HTTP response code: java.net.ConnectException,Non HTTP response message: Connection timed out (Connection timed out),Crear actividad (Carga pesada) 1-10,text,false,,1808,0,30,30,0,0,0
1494605038916,106,69 /wcal/view_entry.php,200,OK,Crear actividad (Carga pesada) 1-10,text,true,,2713,0,30,30,106,0,0
1494604914283,127319,68 /success.txt,Non HTTP response code: java.net.ConnectException,Non HTTP response message: Connection timed out (Connection timed out),Crear actividad (Carga pesada) 1-11,text,false,,1808,0,30,30,0,0,0
1494605041606,111,69 /wcal/view_entry.php,200,OK,Crear actividad (Carga pesada) 1-11,text,true,,2713,0,30,30,110,0,0
1494604914447,127283,68 /success.txt,Non HTTP response code: java.net.ConnectException,Non HTTP response message: Connection timed out (Connection timed out),Crear actividad (Carga pesada) 1-12,text,false,,1808,0,30,30,0,0,0
1494605041732,121,69 /wcal/view_entry.php,200,OK,Crear actividad (Carga pesada) 1-12,text,true,,2713,0,30,30,121,0,0
1494604924072,127258,68 /success.txt,Non HTTP response code: java.net.ConnectException,Non HTTP response message: Connection timed out (Connection timed out),Crear actividad (Carga pesada) 1-13,text,false,,1808,0,30,30,0,0,0
1494604924056,127274,68 /success.txt,Non HTTP response code: java.net.ConnectException,Non HTTP response message: Connection timed out (Connection timed out),Crear actividad (Carga pesada) 1-16,text,false,,1808,0,30,30,0,0,0
1494604925387,127223,68 /success.txt,Non HTTP response code: java.net.ConnectException,Non HTTP response message: Connection timed out (Connection timed out),Crear actividad (Carga pesada) 1-14,text,false,,1808,0,28,28,0,0,0
1494604926954,127192,68 /success.txt,Non HTTP response code: java.net.ConnectException,Non HTTP response message: Connection timed out (Connection timed out),Crear actividad (Carga pesada) 1-15,text,false,,1808,0,27,27,0,0,0
1494604928367,127315,68 /success.txt,Non HTTP response code: java.net.ConnectException,Non HTTP response message: Connection timed out (Connection timed out),Crear actividad (Carga pesada) 1-18,text,false,,1808,0,26,26,0,0,0
1494604928541,127269,68 /success.txt,Non HTTP response code: java.net.ConnectException,Non HTTP response message: Connection timed out (Connection timed out),Crear actividad (Carga pesada) 1-22,text,false,,1808,0,25,25,0,0,0
1494604929582,127251,68 /success.txt,Non HTTP response code: java.net.ConnectException,Non HTTP response message: Connection timed out (Connection timed out),Crear actividad (Carga pesada) 1-17,text,false,,1808,0,24,24,0,0,0
1494604930452,127277,68 /success.txt,Non HTTP response code: java.net.ConnectException,Non HTTP response message: Connection timed out (Connection timed out),Crear actividad (Carga pesada) 1-24,text,false,,1808,0,23,23,0,0,0
1494604930722,127263,68 /success.txt,Non HTTP response code: java.net.ConnectException,Non HTTP response message: Connection timed out (Connection timed out),Crear actividad (Carga pesada) 1-25,text,false,,1808,0,22,22,0,0,0
1494604930665,127320,68 /success.txt,Non HTTP response code: java.net.ConnectException,Non HTTP response message: Connection timed out (Connection timed out),Crear actividad (Carga pesada) 1-19,text,false,,1808,0,22,22,0,0,0
1494604930797,127188,68 /success.txt,Non HTTP response code: java.net.ConnectException,Non HTTP response message: Connection timed out (Connection timed out),Crear actividad (Carga pesada) 1-20,text,false,,1808,0,22,22,0,0,0
1494604931055,127186,68 /success.txt,Non HTTP response code: java.net.ConnectException,Non HTTP response message: Connection timed out (Connection timed out),Crear actividad (Carga pesada) 1-26,text,false,,1808,0,19,19,0,0,0
1494604931227,127270,68 /success.txt,Non HTTP response code: java.net.ConnectException,Non HTTP response message: Connection timed out (Connection timed out),Crear actividad (Carga pesada) 1-23,text,false,,1808,0,18,18,0,0,0
1494604931269,127228,68 /success.txt,Non HTTP response code: java.net.ConnectException,Non HTTP response message: Connection timed out (Connection timed out),Crear actividad (Carga pesada) 1-21,text,false,,1808,0,18,18,0,0,0
1494604931560,127193,68 /success.txt,Non HTTP response code: java.net.ConnectException,Non HTTP response message: Connection timed out (Connection timed out),Crear actividad (Carga pesada) 1-30,text,false,,1808,0,16,16,0,0,0
1494604931453,127300,68 /success.txt,Non HTTP response code: java.net.ConnectException,Non HTTP response message: Connection timed out (Connection timed out),Crear actividad (Carga pesada) 1-27,text,false,,1808,0,16,16,0,0,0
1494604931665,127216,68 /success.txt,Non HTTP response code: java.net.ConnectException,Non HTTP response message: Connection timed out (Connection timed out),Crear actividad (Carga pesada) 1-28,text,false,,1808,0,14,14,0,0,0
1494604931626,127255,68 /success.txt,Non HTTP response code: java.net.ConnectException,Non HTTP response message: Connection timed out (Connection timed out),Crear actividad (Carga pesada) 1-29,text,false,,1808,0,14,14,0,0,0
1494605011395,127230,70 /success.txt,Non HTTP response code: java.net.ConnectException,Non HTTP response message: Connection timed out (Connection timed out),Crear actividad (Carga pesada) 1-1,text,false,,1808,0,12,12,0,0,0
1494605014455,127242,70 /success.txt,Non HTTP response code: java.net.ConnectException,Non HTTP response message: Connection timed out (Connection timed out),Crear actividad (Carga pesada) 1-2,text,false,,1808,0,11,11,0,0,0
1494605022383,127250,70 /success.txt,Non HTTP response code: java.net.ConnectException,Non HTTP response message: Connection timed out (Connection timed out),Crear actividad (Carga pesada) 1-3,text,false,,1808,0,10,10,0,0,0
1494605029437,127236,70 /success.txt,Non HTTP response code: java.net.ConnectException,Non HTTP response message: Connection timed out (Connection timed out),Crear actividad (Carga pesada) 1-4,text,false,,1808,0,9,9,0,0,0
1494605029927,127259,70 /success.txt,Non HTTP response code: java.net.ConnectException,Non HTTP response message: Connection timed out (Connection timed out),Crear actividad (Carga pesada) 1-5,text,false,,1808,0,8,8,0,0,0
1494605034282,127255,70 /success.txt,Non HTTP response code: java.net.ConnectException,Non HTTP response message: Connection timed out (Connection timed out),Crear actividad (Carga pesada) 1-6,text,false,,1808,0,7,7,0,0,0
1494605035048,127257,70 /success.txt,Non HTTP response code: java.net.ConnectException,Non HTTP response message: Connection timed out (Connection timed out),Crear actividad (Carga pesada) 1-8,text,false,,1808,0,6,6,0,0,0
1494605035686,127259,70 /success.txt,Non HTTP response code: java.net.ConnectException,Non HTTP response message: Connection timed out (Connection timed out),Crear actividad (Carga pesada) 1-7,text,false,,1808,0,5,5,0,0,0
1494605038890,127255,70 /success.txt,Non HTTP response code: java.net.ConnectException,Non HTTP response message: Connection timed out (Connection timed out),Crear actividad (Carga pesada) 1-9,text,false,,1808,0,4,4,0,0,0
1494605039024,127249,70 /success.txt,Non HTTP response code: java.net.ConnectException,Non HTTP response message: Connection timed out (Connection timed out),Crear actividad (Carga pesada) 1-10,text,false,,1808,0,3,3,0,0,0
1494605041718,127243,70 /success.txt,Non HTTP response code: java.net.ConnectException,Non HTTP response message: Connection timed out (Connection timed out),Crear actividad (Carga pesada) 1-11,text,false,,1808,0,2,2,0,0,0
1494605041855,127234,70 /success.txt,Non HTTP response code: java.net.ConnectException,Non HTTP response message: Connection timed out (Connection timed out),Crear actividad (Carga pesada) 1-12,text,false,,1808,0,1,1,0,0,0
